{
    "asset" : {
        "generator" : "Khronos glTF Blender I/O v1.5.17",
        "version" : "2.0"
    },
    "scene" : 0,
    "scenes" : [
        {
            "name" : "Scene",
            "nodes" : [
                38
            ]
        }
    ],
    "nodes" : [
        {
            "name" : "Bip001 Footsteps",
            "rotation" : [
                -0.12754376232624054,
                0.5601037740707397,
                0.07339588552713394,
                0.8152480721473694
            ],
            "translation" : [
                1.562760591506958,
                -5.694518566131592,
                0.7484486103057861
            ]
        },
        {
            "name" : "Bip001 L Finger02",
            "rotation" : [
                1.0886188874792424e-06,
                -1.669982680141402e-06,
                -0.17268331348896027,
                0.9849774241447449
            ],
            "scale" : [
                1.000000238418579,
                1,
                1.0000001192092896
            ],
            "translation" : [
                1.481526510360709e-07,
                0.30469584465026855,
                3.8743056052226166e-07
            ]
        },
        {
            "children" : [
                1
            ],
            "name" : "Bip001 L Finger01",
            "rotation" : [
                -2.033910504906089e-06,
                2.1549342363869073e-06,
                -0.07839147746562958,
                0.9969226717948914
            ],
            "scale" : [
                0.9999995231628418,
                0.9999997615814209,
                0.9999998211860657
            ],
            "translation" : [
                -2.988540472870227e-07,
                0.5172445774078369,
                2.980241120553728e-08
            ]
        },
        {
            "children" : [
                2
            ],
            "name" : "Bip001 L Finger0",
            "rotation" : [
                0.39404600858688354,
                0.5826277732849121,
                -0.07198349386453629,
                0.7071712017059326
            ],
            "scale" : [
                0.9999999403953552,
                1,
                1
            ],
            "translation" : [
                0.08181127160787582,
                0.9409468173980713,
                0.5803807377815247
            ]
        },
        {
            "name" : "Bip001 L Finger12",
            "rotation" : [
                -0.024439241737127304,
                -0.07959865778684616,
                -0.29249873757362366,
                0.9526338577270508
            ],
            "scale" : [
                1.0000003576278687,
                1.0000001192092896,
                1.000000238418579
            ],
            "translation" : [
                -5.714571784665168e-07,
                0.2526033818721771,
                -1.7881417591070203e-07
            ]
        },
        {
            "children" : [
                4
            ],
            "name" : "Bip001 L Finger11",
            "rotation" : [
                -0.02190401591360569,
                -0.0803339034318924,
                -0.26213616132736206,
                0.9614319205284119
            ],
            "scale" : [
                1,
                1.0000001192092896,
                1.000000238418579
            ],
            "translation" : [
                -1.5397939989725273e-07,
                0.34153634309768677,
                -1.1920948850274726e-07
            ]
        },
        {
            "children" : [
                5
            ],
            "name" : "Bip001 L Finger1",
            "rotation" : [
                -0.06371604651212692,
                -0.08671317249536514,
                -0.1964254230260849,
                0.9745965003967285
            ],
            "scale" : [
                0.9999998807907104,
                0.9999995827674866,
                0.9999999403953552
            ],
            "translation" : [
                0.0003604157827794552,
                1.7707751989364624,
                0.041459135711193085
            ]
        },
        {
            "children" : [
                3,
                6
            ],
            "name" : "Bip001 L Hand",
            "rotation" : [
                0.04146246612071991,
                -0.18265560269355774,
                -0.10054297745227814,
                0.9771433472633362
            ],
            "scale" : [
                1.000000238418579,
                1.000000238418579,
                1.0000003576278687
            ],
            "translation" : [
                -2.937754572940321e-07,
                1.8464126586914062,
                -6.755762456123193e-07
            ]
        },
        {
            "children" : [
                7
            ],
            "name" : "Bip001 L Forearm",
            "rotation" : [
                4.292933226679452e-07,
                -1.7636175186908076e-07,
                0.3277004361152649,
                0.9447817206382751
            ],
            "scale" : [
                1.0000001192092896,
                0.9999999403953552,
                0.9999999403953552
            ],
            "translation" : [
                -9.530722877570952e-10,
                2.3758392333984375,
                2.3422759909408342e-07
            ]
        },
        {
            "children" : [
                8
            ],
            "name" : "Bip001 L UpperArm",
            "rotation" : [
                0.32088926434516907,
                -0.24484574794769287,
                0.1285410374403,
                0.9058464765548706
            ],
            "scale" : [
                0.9999998211860657,
                0.9999999403953552,
                0.9999999403953552
            ],
            "translation" : [
                1.5014398968560272e-07,
                0.9862538576126099,
                5.840105927745753e-07
            ]
        },
        {
            "children" : [
                9
            ],
            "name" : "Bip001 L Clavicle",
            "rotation" : [
                -0.1038765162229538,
                0.314115971326828,
                -0.9365182518959045,
                0.1160791888833046
            ],
            "scale" : [
                0.9999998211860657,
                1,
                0.9999999403953552
            ],
            "translation" : [
                -0.09678757190704346,
                -0.4552738070487976,
                -0.7976433038711548
            ]
        },
        {
            "name" : "Bip001 R Finger02",
            "rotation" : [
                -2.8670899610006018e-06,
                4.834333594772033e-06,
                -0.172679141163826,
                0.9849781394004822
            ],
            "scale" : [
                0.9999999403953552,
                0.9999997615814209,
                0.9999998807907104
            ],
            "translation" : [
                1.6211227205076284e-07,
                0.30469459295272827,
                -2.7194414542464074e-07
            ]
        },
        {
            "children" : [
                11
            ],
            "name" : "Bip001 R Finger01",
            "rotation" : [
                1.947572627614136e-06,
                -2.280726903336472e-06,
                -0.23338225483894348,
                0.9723851680755615
            ],
            "scale" : [
                0.9999997019767761,
                0.9999998211860657,
                1.0000001192092896
            ],
            "translation" : [
                -5.68128371014609e-07,
                0.5172450542449951,
                -7.711379339525593e-07
            ]
        },
        {
            "children" : [
                12
            ],
            "name" : "Bip001 R Finger0",
            "rotation" : [
                -0.34493887424468994,
                -0.5531935095787048,
                -0.19145190715789795,
                0.7337167859077454
            ],
            "scale" : [
                0.9999998807907104,
                0.9999998807907104,
                0.9999999403953552
            ],
            "translation" : [
                0.08181235939264297,
                0.9409471750259399,
                -0.5803806781768799
            ]
        },
        {
            "name" : "Bip001 R Finger12",
            "rotation" : [
                5.230911597209342e-07,
                -6.839956085968879e-07,
                -0.5383056998252869,
                0.8427496552467346
            ],
            "scale" : [
                1.0000001192092896,
                0.9999998807907104,
                0.9999999403953552
            ],
            "translation" : [
                1.9966090292200533e-07,
                0.25260359048843384,
                2.717825964282383e-13
            ]
        },
        {
            "children" : [
                14
            ],
            "name" : "Bip001 R Finger11",
            "rotation" : [
                -1.2187157949483662e-07,
                6.86498935920099e-07,
                -0.42659035325050354,
                0.9044449925422668
            ],
            "scale" : [
                1.0000001192092896,
                1,
                0.9999998807907104
            ],
            "translation" : [
                9.934012012990934e-08,
                0.3415382504463196,
                -8.940693874137651e-08
            ]
        },
        {
            "children" : [
                15
            ],
            "name" : "Bip001 R Finger1",
            "rotation" : [
                0.19857680797576904,
                0.00510767986997962,
                -0.3949965834617615,
                0.8969497680664062
            ],
            "scale" : [
                1.000000238418579,
                1,
                1.0000001192092896
            ],
            "translation" : [
                0.0003601479111239314,
                1.7707760334014893,
                -0.04145830497145653
            ]
        },
        {
            "children" : [
                13,
                16
            ],
            "name" : "Bip001 R Hand",
            "rotation" : [
                0.0696316510438919,
                0.5602360367774963,
                -0.16953542828559875,
                0.8078024387359619
            ],
            "scale" : [
                0.9999998211860657,
                1,
                0.9999998211860657
            ],
            "translation" : [
                -2.938482737135928e-07,
                1.84641432762146,
                -5.546352213059436e-07
            ]
        },
        {
            "children" : [
                17
            ],
            "name" : "Bip001 R Forearm",
            "rotation" : [
                -3.9483023783759563e-07,
                8.857186912791803e-07,
                0.27229392528533936,
                0.9622142314910889
            ],
            "scale" : [
                1.0000003576278687,
                1.0000001192092896,
                1.0000001192092896
            ],
            "translation" : [
                -1.447683075639361e-07,
                2.3758389949798584,
                1.7881382063933415e-07
            ]
        },
        {
            "children" : [
                18
            ],
            "name" : "Bip001 R UpperArm",
            "rotation" : [
                -0.3375433683395386,
                0.4713245630264282,
                0.10737022757530212,
                0.8077061772346497
            ],
            "scale" : [
                1.000000238418579,
                1.000000238418579,
                1.0000003576278687
            ],
            "translation" : [
                5.960464477539063e-08,
                0.9862533211708069,
                -2.2351741790771484e-07
            ]
        },
        {
            "children" : [
                19
            ],
            "name" : "Bip001 R Clavicle",
            "rotation" : [
                -0.0646296814084053,
                -0.639017641544342,
                -0.7450318932533264,
                0.18001919984817505
            ],
            "scale" : [
                0.9999996423721313,
                0.9999996423721313,
                0.9999997019767761
            ],
            "translation" : [
                -0.09735895693302155,
                0.2678804397583008,
                0.878429651260376
            ]
        },
        {
            "name" : "Bone001",
            "rotation" : [
                -0.7917943000793457,
                -0.6107878088951111,
                6.391279043782561e-07,
                7.766356020511012e-07
            ],
            "scale" : [
                1.0000001192092896,
                1,
                1
            ],
            "translation" : [
                0.02019716426730156,
                0.1927948296070099,
                7.748603252366593e-07
            ]
        },
        {
            "children" : [
                21
            ],
            "name" : "Bip001 Head",
            "rotation" : [
                -0.046233296394348145,
                -0.3316132128238678,
                0.46153584122657776,
                0.8215107321739197
            ],
            "scale" : [
                0.9999995827674866,
                0.9999998807907104,
                0.9999997615814209
            ],
            "translation" : [
                3.5609986070994637e-07,
                1.1019048690795898,
                -3.2782537573439186e-07
            ]
        },
        {
            "children" : [
                10,
                20,
                22
            ],
            "name" : "Bip001 Neck",
            "rotation" : [
                0.19982609152793884,
                -0.03127377852797508,
                -0.15219810605049133,
                0.9674333333969116
            ],
            "scale" : [
                1.0000001192092896,
                1,
                1.000000238418579
            ],
            "translation" : [
                -0.2343606948852539,
                2.9972035884857178,
                4.542837928056542e-08
            ]
        },
        {
            "children" : [
                23
            ],
            "name" : "Bip001 Spine1",
            "rotation" : [
                -0.1498812735080719,
                0.19542089104652405,
                -0.324896901845932,
                0.9131200909614563
            ],
            "scale" : [
                1,
                1,
                1.0000001192092896
            ],
            "translation" : [
                -0.0013598204823210835,
                1.798031210899353,
                0.0004953206516802311
            ]
        },
        {
            "name" : "Bip001 L Toe0",
            "rotation" : [
                7.145169433897536e-08,
                -1.9328248868077935e-07,
                0.7071070671081543,
                0.7071064710617065
            ],
            "scale" : [
                0.9999998211860657,
                0.9999998807907104,
                0.9999998807907104
            ],
            "translation" : [
                0.8066039085388184,
                1.3259623050689697,
                9.089713444154768e-07
            ]
        },
        {
            "children" : [
                25
            ],
            "name" : "Bip001 L Foot",
            "rotation" : [
                0.8168582320213318,
                0.5396372079849243,
                -0.20358970761299133,
                0.009248459711670876
            ],
            "scale" : [
                1.0000001192092896,
                0.9999998807907104,
                1
            ],
            "translation" : [
                -1.762214623113323e-07,
                3.3164167404174805,
                -5.3964640756021254e-08
            ]
        },
        {
            "children" : [
                26
            ],
            "name" : "Bip001 L Calf",
            "rotation" : [
                -1.6563049598516955e-07,
                2.853424696525053e-08,
                0.32909128069877625,
                0.9442981481552124
            ],
            "scale" : [
                1,
                0.9999999403953552,
                1
            ],
            "translation" : [
                -2.956470268600242e-07,
                2.65643572807312,
                -7.450579175838357e-08
            ]
        },
        {
            "children" : [
                27
            ],
            "name" : "Bip001 L Thigh",
            "rotation" : [
                -0.9550510048866272,
                -0.2708410322666168,
                0.043749596923589706,
                0.11228864639997482
            ],
            "scale" : [
                1.0000004768371582,
                0.9999998807907104,
                1.0000015497207642
            ],
            "translation" : [
                -0.31750383973121643,
                -0.6281050443649292,
                -1.1535691022872925
            ]
        },
        {
            "name" : "Bip001 R Toe0",
            "rotation" : [
                3.687811300778776e-08,
                -7.625945386280364e-07,
                0.7071072459220886,
                0.7071062922477722
            ],
            "scale" : [
                1,
                0.9999997615814209,
                1
            ],
            "translation" : [
                0.806601881980896,
                1.3259637355804443,
                7.450578323187074e-07
            ]
        },
        {
            "children" : [
                29
            ],
            "name" : "Bip001 R Foot",
            "rotation" : [
                -0.779997706413269,
                -0.6084067225456238,
                -0.12815411388874054,
                0.07086213678121567
            ],
            "scale" : [
                1,
                1.0000007152557373,
                1.0000001192092896
            ],
            "translation" : [
                -4.0641373288963223e-07,
                3.3164165019989014,
                -4.033473999243142e-09
            ]
        },
        {
            "children" : [
                30
            ],
            "name" : "Bip001 R Calf",
            "rotation" : [
                -2.4189637315430446e-07,
                -1.6319287254873416e-08,
                0.46143803000450134,
                0.8871724605560303
            ],
            "scale" : [
                1,
                1,
                0.9999999403953552
            ],
            "translation" : [
                -1.218717500250932e-07,
                2.656435489654541,
                -1.4901280209755896e-08
            ]
        },
        {
            "children" : [
                31
            ],
            "name" : "Bip001 R Thigh",
            "rotation" : [
                0.8620428442955017,
                0.4617578089237213,
                -0.015326344408094883,
                0.20839178562164307
            ],
            "scale" : [
                0.9999991655349731,
                0.9999998807907104,
                0.999997615814209
            ],
            "translation" : [
                -0.3174976706504822,
                -0.6281054615974426,
                1.1535695791244507
            ]
        },
        {
            "children" : [
                24,
                28,
                32
            ],
            "name" : "Bip001 Spine",
            "rotation" : [
                -6.955856974855124e-07,
                -2.1482294414454373e-06,
                -0.0003981330955866724,
                0.9999999403953552
            ],
            "translation" : [
                0.31800103187561035,
                0.627852737903595,
                1.3363644768560334e-07
            ]
        },
        {
            "children" : [
                33
            ],
            "name" : "Bip001 Pelvis",
            "rotation" : [
                -5.3085390305795954e-08,
                7.525086402893066e-07,
                -2.351589856175451e-08,
                1
            ],
            "scale" : [
                1,
                0.9999998211860657,
                1
            ],
            "translation" : [
                -6.823745479778154e-08,
                2.2556540102414147e-07,
                3.4204390431114007e-09
            ]
        },
        {
            "name" : "Bip001 Prop1",
            "rotation" : [
                -0.610188901424408,
                0.5472322106361389,
                -0.530141294002533,
                0.21715611219406128
            ],
            "scale" : [
                1,
                0.9999999403953552,
                1
            ],
            "translation" : [
                4.263524055480957,
                -0.5709783434867859,
                2.180687189102173
            ]
        },
        {
            "mesh" : 0,
            "name" : "Object01",
            "skin" : 0
        },
        {
            "mesh" : 1,
            "name" : "Object02",
            "skin" : 0
        },
        {
            "children" : [
                0,
                36,
                37,
                34,
                35
            ],
            "name" : "Bip001",
            "rotation" : [
                0.12754373252391815,
                -0.5601038336753845,
                -0.07339584827423096,
                0.8152480125427246
            ],
            "scale" : [
                0.025400003418326378,
                0.02539999969303608,
                0.02539999969303608
            ],
            "translation" : [
                -0.008640242740511894,
                0.15121974050998688,
                0
            ]
        }
    ],
    "animations" : [
        {
            "channels" : [
                {
                    "sampler" : 0,
                    "target" : {
                        "node" : 34,
                        "path" : "translation"
                    }
                },
                {
                    "sampler" : 1,
                    "target" : {
                        "node" : 34,
                        "path" : "rotation"
                    }
                },
                {
                    "sampler" : 2,
                    "target" : {
                        "node" : 34,
                        "path" : "scale"
                    }
                },
                {
                    "sampler" : 3,
                    "target" : {
                        "node" : 33,
                        "path" : "translation"
                    }
                },
                {
                    "sampler" : 4,
                    "target" : {
                        "node" : 33,
                        "path" : "rotation"
                    }
                },
                {
                    "sampler" : 5,
                    "target" : {
                        "node" : 33,
                        "path" : "scale"
                    }
                },
                {
                    "sampler" : 6,
                    "target" : {
                        "node" : 24,
                        "path" : "translation"
                    }
                },
                {
                    "sampler" : 7,
                    "target" : {
                        "node" : 24,
                        "path" : "rotation"
                    }
                },
                {
                    "sampler" : 8,
                    "target" : {
                        "node" : 24,
                        "path" : "scale"
                    }
                },
                {
                    "sampler" : 9,
                    "target" : {
                        "node" : 23,
                        "path" : "translation"
                    }
                },
                {
                    "sampler" : 10,
                    "target" : {
                        "node" : 23,
                        "path" : "rotation"
                    }
                },
                {
                    "sampler" : 11,
                    "target" : {
                        "node" : 23,
                        "path" : "scale"
                    }
                },
                {
                    "sampler" : 12,
                    "target" : {
                        "node" : 10,
                        "path" : "translation"
                    }
                },
                {
                    "sampler" : 13,
                    "target" : {
                        "node" : 10,
                        "path" : "rotation"
                    }
                },
                {
                    "sampler" : 14,
                    "target" : {
                        "node" : 10,
                        "path" : "scale"
                    }
                },
                {
                    "sampler" : 15,
                    "target" : {
                        "node" : 9,
                        "path" : "translation"
                    }
                },
                {
                    "sampler" : 16,
                    "target" : {
                        "node" : 9,
                        "path" : "rotation"
                    }
                },
                {
                    "sampler" : 17,
                    "target" : {
                        "node" : 9,
                        "path" : "scale"
                    }
                },
                {
                    "sampler" : 18,
                    "target" : {
                        "node" : 8,
                        "path" : "translation"
                    }
                },
                {
                    "sampler" : 19,
                    "target" : {
                        "node" : 8,
                        "path" : "rotation"
                    }
                },
                {
                    "sampler" : 20,
                    "target" : {
                        "node" : 8,
                        "path" : "scale"
                    }
                },
                {
                    "sampler" : 21,
                    "target" : {
                        "node" : 7,
                        "path" : "translation"
                    }
                },
                {
                    "sampler" : 22,
                    "target" : {
                        "node" : 7,
                        "path" : "rotation"
                    }
                },
                {
                    "sampler" : 23,
                    "target" : {
                        "node" : 7,
                        "path" : "scale"
                    }
                },
                {
                    "sampler" : 24,
                    "target" : {
                        "node" : 3,
                        "path" : "translation"
                    }
                },
                {
                    "sampler" : 25,
                    "target" : {
                        "node" : 3,
                        "path" : "rotation"
                    }
                },
                {
                    "sampler" : 26,
                    "target" : {
                        "node" : 3,
                        "path" : "scale"
                    }
                },
                {
                    "sampler" : 27,
                    "target" : {
                        "node" : 2,
                        "path" : "translation"
                    }
                },
                {
                    "sampler" : 28,
                    "target" : {
                        "node" : 2,
                        "path" : "rotation"
                    }
                },
                {
                    "sampler" : 29,
                    "target" : {
                        "node" : 2,
                        "path" : "scale"
                    }
                },
                {
                    "sampler" : 30,
                    "target" : {
                        "node" : 1,
                        "path" : "translation"
                    }
                },
                {
                    "sampler" : 31,
                    "target" : {
                        "node" : 1,
                        "path" : "rotation"
                    }
                },
                {
                    "sampler" : 32,
                    "target" : {
                        "node" : 1,
                        "path" : "scale"
                    }
                },
                {
                    "sampler" : 33,
                    "target" : {
                        "node" : 6,
                        "path" : "translation"
                    }
                },
                {
                    "sampler" : 34,
                    "target" : {
                        "node" : 6,
                        "path" : "rotation"
                    }
                },
                {
                    "sampler" : 35,
                    "target" : {
                        "node" : 6,
                        "path" : "scale"
                    }
                },
                {
                    "sampler" : 36,
                    "target" : {
                        "node" : 5,
                        "path" : "translation"
                    }
                },
                {
                    "sampler" : 37,
                    "target" : {
                        "node" : 5,
                        "path" : "rotation"
                    }
                },
                {
                    "sampler" : 38,
                    "target" : {
                        "node" : 5,
                        "path" : "scale"
                    }
                },
                {
                    "sampler" : 39,
                    "target" : {
                        "node" : 4,
                        "path" : "translation"
                    }
                },
                {
                    "sampler" : 40,
                    "target" : {
                        "node" : 4,
                        "path" : "rotation"
                    }
                },
                {
                    "sampler" : 41,
                    "target" : {
                        "node" : 4,
                        "path" : "scale"
                    }
                },
                {
                    "sampler" : 42,
                    "target" : {
                        "node" : 20,
                        "path" : "translation"
                    }
                },
                {
                    "sampler" : 43,
                    "target" : {
                        "node" : 20,
                        "path" : "rotation"
                    }
                },
                {
                    "sampler" : 44,
                    "target" : {
                        "node" : 20,
                        "path" : "scale"
                    }
                },
                {
                    "sampler" : 45,
                    "target" : {
                        "node" : 19,
                        "path" : "translation"
                    }
                },
                {
                    "sampler" : 46,
                    "target" : {
                        "node" : 19,
                        "path" : "rotation"
                    }
                },
                {
                    "sampler" : 47,
                    "target" : {
                        "node" : 19,
                        "path" : "scale"
                    }
                },
                {
                    "sampler" : 48,
                    "target" : {
                        "node" : 18,
                        "path" : "translation"
                    }
                },
                {
                    "sampler" : 49,
                    "target" : {
                        "node" : 18,
                        "path" : "rotation"
                    }
                },
                {
                    "sampler" : 50,
                    "target" : {
                        "node" : 18,
                        "path" : "scale"
                    }
                },
                {
                    "sampler" : 51,
                    "target" : {
                        "node" : 17,
                        "path" : "translation"
                    }
                },
                {
                    "sampler" : 52,
                    "target" : {
                        "node" : 17,
                        "path" : "rotation"
                    }
                },
                {
                    "sampler" : 53,
                    "target" : {
                        "node" : 17,
                        "path" : "scale"
                    }
                },
                {
                    "sampler" : 54,
                    "target" : {
                        "node" : 13,
                        "path" : "translation"
                    }
                },
                {
                    "sampler" : 55,
                    "target" : {
                        "node" : 13,
                        "path" : "rotation"
                    }
                },
                {
                    "sampler" : 56,
                    "target" : {
                        "node" : 13,
                        "path" : "scale"
                    }
                },
                {
                    "sampler" : 57,
                    "target" : {
                        "node" : 12,
                        "path" : "translation"
                    }
                },
                {
                    "sampler" : 58,
                    "target" : {
                        "node" : 12,
                        "path" : "rotation"
                    }
                },
                {
                    "sampler" : 59,
                    "target" : {
                        "node" : 12,
                        "path" : "scale"
                    }
                },
                {
                    "sampler" : 60,
                    "target" : {
                        "node" : 11,
                        "path" : "translation"
                    }
                },
                {
                    "sampler" : 61,
                    "target" : {
                        "node" : 11,
                        "path" : "rotation"
                    }
                },
                {
                    "sampler" : 62,
                    "target" : {
                        "node" : 11,
                        "path" : "scale"
                    }
                },
                {
                    "sampler" : 63,
                    "target" : {
                        "node" : 16,
                        "path" : "translation"
                    }
                },
                {
                    "sampler" : 64,
                    "target" : {
                        "node" : 16,
                        "path" : "rotation"
                    }
                },
                {
                    "sampler" : 65,
                    "target" : {
                        "node" : 16,
                        "path" : "scale"
                    }
                },
                {
                    "sampler" : 66,
                    "target" : {
                        "node" : 15,
                        "path" : "translation"
                    }
                },
                {
                    "sampler" : 67,
                    "target" : {
                        "node" : 15,
                        "path" : "rotation"
                    }
                },
                {
                    "sampler" : 68,
                    "target" : {
                        "node" : 15,
                        "path" : "scale"
                    }
                },
                {
                    "sampler" : 69,
                    "target" : {
                        "node" : 14,
                        "path" : "translation"
                    }
                },
                {
                    "sampler" : 70,
                    "target" : {
                        "node" : 14,
                        "path" : "rotation"
                    }
                },
                {
                    "sampler" : 71,
                    "target" : {
                        "node" : 14,
                        "path" : "scale"
                    }
                },
                {
                    "sampler" : 72,
                    "target" : {
                        "node" : 22,
                        "path" : "translation"
                    }
                },
                {
                    "sampler" : 73,
                    "target" : {
                        "node" : 22,
                        "path" : "rotation"
                    }
                },
                {
                    "sampler" : 74,
                    "target" : {
                        "node" : 22,
                        "path" : "scale"
                    }
                },
                {
                    "sampler" : 75,
                    "target" : {
                        "node" : 21,
                        "path" : "translation"
                    }
                },
                {
                    "sampler" : 76,
                    "target" : {
                        "node" : 21,
                        "path" : "rotation"
                    }
                },
                {
                    "sampler" : 77,
                    "target" : {
                        "node" : 21,
                        "path" : "scale"
                    }
                },
                {
                    "sampler" : 78,
                    "target" : {
                        "node" : 28,
                        "path" : "translation"
                    }
                },
                {
                    "sampler" : 79,
                    "target" : {
                        "node" : 28,
                        "path" : "rotation"
                    }
                },
                {
                    "sampler" : 80,
                    "target" : {
                        "node" : 28,
                        "path" : "scale"
                    }
                },
                {
                    "sampler" : 81,
                    "target" : {
                        "node" : 27,
                        "path" : "translation"
                    }
                },
                {
                    "sampler" : 82,
                    "target" : {
                        "node" : 27,
                        "path" : "rotation"
                    }
                },
                {
                    "sampler" : 83,
                    "target" : {
                        "node" : 27,
                        "path" : "scale"
                    }
                },
                {
                    "sampler" : 84,
                    "target" : {
                        "node" : 26,
                        "path" : "translation"
                    }
                },
                {
                    "sampler" : 85,
                    "target" : {
                        "node" : 26,
                        "path" : "rotation"
                    }
                },
                {
                    "sampler" : 86,
                    "target" : {
                        "node" : 26,
                        "path" : "scale"
                    }
                },
                {
                    "sampler" : 87,
                    "target" : {
                        "node" : 25,
                        "path" : "translation"
                    }
                },
                {
                    "sampler" : 88,
                    "target" : {
                        "node" : 25,
                        "path" : "rotation"
                    }
                },
                {
                    "sampler" : 89,
                    "target" : {
                        "node" : 25,
                        "path" : "scale"
                    }
                },
                {
                    "sampler" : 90,
                    "target" : {
                        "node" : 32,
                        "path" : "translation"
                    }
                },
                {
                    "sampler" : 91,
                    "target" : {
                        "node" : 32,
                        "path" : "rotation"
                    }
                },
                {
                    "sampler" : 92,
                    "target" : {
                        "node" : 32,
                        "path" : "scale"
                    }
                },
                {
                    "sampler" : 93,
                    "target" : {
                        "node" : 31,
                        "path" : "translation"
                    }
                },
                {
                    "sampler" : 94,
                    "target" : {
                        "node" : 31,
                        "path" : "rotation"
                    }
                },
                {
                    "sampler" : 95,
                    "target" : {
                        "node" : 31,
                        "path" : "scale"
                    }
                },
                {
                    "sampler" : 96,
                    "target" : {
                        "node" : 30,
                        "path" : "translation"
                    }
                },
                {
                    "sampler" : 97,
                    "target" : {
                        "node" : 30,
                        "path" : "rotation"
                    }
                },
                {
                    "sampler" : 98,
                    "target" : {
                        "node" : 30,
                        "path" : "scale"
                    }
                },
                {
                    "sampler" : 99,
                    "target" : {
                        "node" : 29,
                        "path" : "translation"
                    }
                },
                {
                    "sampler" : 100,
                    "target" : {
                        "node" : 29,
                        "path" : "rotation"
                    }
                },
                {
                    "sampler" : 101,
                    "target" : {
                        "node" : 29,
                        "path" : "scale"
                    }
                },
                {
                    "sampler" : 102,
                    "target" : {
                        "node" : 35,
                        "path" : "translation"
                    }
                },
                {
                    "sampler" : 103,
                    "target" : {
                        "node" : 35,
                        "path" : "rotation"
                    }
                },
                {
                    "sampler" : 104,
                    "target" : {
                        "node" : 35,
                        "path" : "scale"
                    }
                },
                {
                    "sampler" : 105,
                    "target" : {
                        "node" : 38,
                        "path" : "translation"
                    }
                },
                {
                    "sampler" : 106,
                    "target" : {
                        "node" : 38,
                        "path" : "rotation"
                    }
                },
                {
                    "sampler" : 107,
                    "target" : {
                        "node" : 38,
                        "path" : "scale"
                    }
                }
            ],
            "name" : "Bip001|Take 001|BaseLayer",
            "samplers" : [
                {
                    "input" : 15,
                    "interpolation" : "LINEAR",
                    "output" : 16
                },
                {
                    "input" : 15,
                    "interpolation" : "LINEAR",
                    "output" : 17
                },
                {
                    "input" : 15,
                    "interpolation" : "LINEAR",
                    "output" : 18
                },
                {
                    "input" : 15,
                    "interpolation" : "LINEAR",
                    "output" : 19
                },
                {
                    "input" : 15,
                    "interpolation" : "LINEAR",
                    "output" : 20
                },
                {
                    "input" : 15,
                    "interpolation" : "LINEAR",
                    "output" : 21
                },
                {
                    "input" : 15,
                    "interpolation" : "LINEAR",
                    "output" : 22
                },
                {
                    "input" : 15,
                    "interpolation" : "LINEAR",
                    "output" : 23
                },
                {
                    "input" : 15,
                    "interpolation" : "LINEAR",
                    "output" : 24
                },
                {
                    "input" : 15,
                    "interpolation" : "LINEAR",
                    "output" : 25
                },
                {
                    "input" : 15,
                    "interpolation" : "LINEAR",
                    "output" : 26
                },
                {
                    "input" : 15,
                    "interpolation" : "LINEAR",
                    "output" : 27
                },
                {
                    "input" : 15,
                    "interpolation" : "LINEAR",
                    "output" : 28
                },
                {
                    "input" : 15,
                    "interpolation" : "LINEAR",
                    "output" : 29
                },
                {
                    "input" : 15,
                    "interpolation" : "LINEAR",
                    "output" : 30
                },
                {
                    "input" : 15,
                    "interpolation" : "LINEAR",
                    "output" : 31
                },
                {
                    "input" : 15,
                    "interpolation" : "LINEAR",
                    "output" : 32
                },
                {
                    "input" : 15,
                    "interpolation" : "LINEAR",
                    "output" : 33
                },
                {
                    "input" : 15,
                    "interpolation" : "LINEAR",
                    "output" : 34
                },
                {
                    "input" : 15,
                    "interpolation" : "LINEAR",
                    "output" : 35
                },
                {
                    "input" : 15,
                    "interpolation" : "LINEAR",
                    "output" : 36
                },
                {
                    "input" : 15,
                    "interpolation" : "LINEAR",
                    "output" : 37
                },
                {
                    "input" : 15,
                    "interpolation" : "LINEAR",
                    "output" : 38
                },
                {
                    "input" : 15,
                    "interpolation" : "LINEAR",
                    "output" : 39
                },
                {
                    "input" : 15,
                    "interpolation" : "LINEAR",
                    "output" : 40
                },
                {
                    "input" : 15,
                    "interpolation" : "LINEAR",
                    "output" : 41
                },
                {
                    "input" : 15,
                    "interpolation" : "LINEAR",
                    "output" : 42
                },
                {
                    "input" : 15,
                    "interpolation" : "LINEAR",
                    "output" : 43
                },
                {
                    "input" : 15,
                    "interpolation" : "LINEAR",
                    "output" : 44
                },
                {
                    "input" : 15,
                    "interpolation" : "LINEAR",
                    "output" : 45
                },
                {
                    "input" : 15,
                    "interpolation" : "LINEAR",
                    "output" : 46
                },
                {
                    "input" : 15,
                    "interpolation" : "LINEAR",
                    "output" : 47
                },
                {
                    "input" : 15,
                    "interpolation" : "LINEAR",
                    "output" : 48
                },
                {
                    "input" : 15,
                    "interpolation" : "LINEAR",
                    "output" : 49
                },
                {
                    "input" : 15,
                    "interpolation" : "LINEAR",
                    "output" : 50
                },
                {
                    "input" : 15,
                    "interpolation" : "LINEAR",
                    "output" : 51
                },
                {
                    "input" : 15,
                    "interpolation" : "LINEAR",
                    "output" : 52
                },
                {
                    "input" : 15,
                    "interpolation" : "LINEAR",
                    "output" : 53
                },
                {
                    "input" : 15,
                    "interpolation" : "LINEAR",
                    "output" : 54
                },
                {
                    "input" : 15,
                    "interpolation" : "LINEAR",
                    "output" : 55
                },
                {
                    "input" : 15,
                    "interpolation" : "LINEAR",
                    "output" : 56
                },
                {
                    "input" : 15,
                    "interpolation" : "LINEAR",
                    "output" : 57
                },
                {
                    "input" : 15,
                    "interpolation" : "LINEAR",
                    "output" : 58
                },
                {
                    "input" : 15,
                    "interpolation" : "LINEAR",
                    "output" : 59
                },
                {
                    "input" : 15,
                    "interpolation" : "LINEAR",
                    "output" : 60
                },
                {
                    "input" : 15,
                    "interpolation" : "LINEAR",
                    "output" : 61
                },
                {
                    "input" : 15,
                    "interpolation" : "LINEAR",
                    "output" : 62
                },
                {
                    "input" : 15,
                    "interpolation" : "LINEAR",
                    "output" : 63
                },
                {
                    "input" : 15,
                    "interpolation" : "LINEAR",
                    "output" : 64
                },
                {
                    "input" : 15,
                    "interpolation" : "LINEAR",
                    "output" : 65
                },
                {
                    "input" : 15,
                    "interpolation" : "LINEAR",
                    "output" : 66
                },
                {
                    "input" : 15,
                    "interpolation" : "LINEAR",
                    "output" : 67
                },
                {
                    "input" : 15,
                    "interpolation" : "LINEAR",
                    "output" : 68
                },
                {
                    "input" : 15,
                    "interpolation" : "LINEAR",
                    "output" : 69
                },
                {
                    "input" : 15,
                    "interpolation" : "LINEAR",
                    "output" : 70
                },
                {
                    "input" : 15,
                    "interpolation" : "LINEAR",
                    "output" : 71
                },
                {
                    "input" : 15,
                    "interpolation" : "LINEAR",
                    "output" : 72
                },
                {
                    "input" : 15,
                    "interpolation" : "LINEAR",
                    "output" : 73
                },
                {
                    "input" : 15,
                    "interpolation" : "LINEAR",
                    "output" : 74
                },
                {
                    "input" : 15,
                    "interpolation" : "LINEAR",
                    "output" : 75
                },
                {
                    "input" : 15,
                    "interpolation" : "LINEAR",
                    "output" : 76
                },
                {
                    "input" : 15,
                    "interpolation" : "LINEAR",
                    "output" : 77
                },
                {
                    "input" : 15,
                    "interpolation" : "LINEAR",
                    "output" : 78
                },
                {
                    "input" : 15,
                    "interpolation" : "LINEAR",
                    "output" : 79
                },
                {
                    "input" : 15,
                    "interpolation" : "LINEAR",
                    "output" : 80
                },
                {
                    "input" : 15,
                    "interpolation" : "LINEAR",
                    "output" : 81
                },
                {
                    "input" : 15,
                    "interpolation" : "LINEAR",
                    "output" : 82
                },
                {
                    "input" : 15,
                    "interpolation" : "LINEAR",
                    "output" : 83
                },
                {
                    "input" : 15,
                    "interpolation" : "LINEAR",
                    "output" : 84
                },
                {
                    "input" : 15,
                    "interpolation" : "LINEAR",
                    "output" : 85
                },
                {
                    "input" : 15,
                    "interpolation" : "LINEAR",
                    "output" : 86
                },
                {
                    "input" : 15,
                    "interpolation" : "LINEAR",
                    "output" : 87
                },
                {
                    "input" : 15,
                    "interpolation" : "LINEAR",
                    "output" : 88
                },
                {
                    "input" : 15,
                    "interpolation" : "LINEAR",
                    "output" : 89
                },
                {
                    "input" : 15,
                    "interpolation" : "LINEAR",
                    "output" : 90
                },
                {
                    "input" : 15,
                    "interpolation" : "LINEAR",
                    "output" : 91
                },
                {
                    "input" : 15,
                    "interpolation" : "LINEAR",
                    "output" : 92
                },
                {
                    "input" : 15,
                    "interpolation" : "LINEAR",
                    "output" : 93
                },
                {
                    "input" : 15,
                    "interpolation" : "LINEAR",
                    "output" : 94
                },
                {
                    "input" : 15,
                    "interpolation" : "LINEAR",
                    "output" : 95
                },
                {
                    "input" : 15,
                    "interpolation" : "LINEAR",
                    "output" : 96
                },
                {
                    "input" : 15,
                    "interpolation" : "LINEAR",
                    "output" : 97
                },
                {
                    "input" : 15,
                    "interpolation" : "LINEAR",
                    "output" : 98
                },
                {
                    "input" : 15,
                    "interpolation" : "LINEAR",
                    "output" : 99
                },
                {
                    "input" : 15,
                    "interpolation" : "LINEAR",
                    "output" : 100
                },
                {
                    "input" : 15,
                    "interpolation" : "LINEAR",
                    "output" : 101
                },
                {
                    "input" : 15,
                    "interpolation" : "LINEAR",
                    "output" : 102
                },
                {
                    "input" : 15,
                    "interpolation" : "LINEAR",
                    "output" : 103
                },
                {
                    "input" : 15,
                    "interpolation" : "LINEAR",
                    "output" : 104
                },
                {
                    "input" : 15,
                    "interpolation" : "LINEAR",
                    "output" : 105
                },
                {
                    "input" : 15,
                    "interpolation" : "LINEAR",
                    "output" : 106
                },
                {
                    "input" : 15,
                    "interpolation" : "LINEAR",
                    "output" : 107
                },
                {
                    "input" : 15,
                    "interpolation" : "LINEAR",
                    "output" : 108
                },
                {
                    "input" : 15,
                    "interpolation" : "LINEAR",
                    "output" : 109
                },
                {
                    "input" : 15,
                    "interpolation" : "LINEAR",
                    "output" : 110
                },
                {
                    "input" : 15,
                    "interpolation" : "LINEAR",
                    "output" : 111
                },
                {
                    "input" : 15,
                    "interpolation" : "LINEAR",
                    "output" : 112
                },
                {
                    "input" : 15,
                    "interpolation" : "LINEAR",
                    "output" : 113
                },
                {
                    "input" : 15,
                    "interpolation" : "LINEAR",
                    "output" : 114
                },
                {
                    "input" : 15,
                    "interpolation" : "LINEAR",
                    "output" : 115
                },
                {
                    "input" : 15,
                    "interpolation" : "LINEAR",
                    "output" : 116
                },
                {
                    "input" : 15,
                    "interpolation" : "LINEAR",
                    "output" : 117
                },
                {
                    "input" : 15,
                    "interpolation" : "LINEAR",
                    "output" : 118
                },
                {
                    "input" : 15,
                    "interpolation" : "LINEAR",
                    "output" : 119
                },
                {
                    "input" : 15,
                    "interpolation" : "LINEAR",
                    "output" : 120
                },
                {
                    "input" : 15,
                    "interpolation" : "LINEAR",
                    "output" : 121
                },
                {
                    "input" : 15,
                    "interpolation" : "LINEAR",
                    "output" : 122
                },
                {
                    "input" : 15,
                    "interpolation" : "LINEAR",
                    "output" : 123
                }
            ]
        },
        {
            "channels" : [
                {
                    "sampler" : 0,
                    "target" : {
                        "node" : 0,
                        "path" : "translation"
                    }
                },
                {
                    "sampler" : 1,
                    "target" : {
                        "node" : 0,
                        "path" : "rotation"
                    }
                },
                {
                    "sampler" : 2,
                    "target" : {
                        "node" : 0,
                        "path" : "scale"
                    }
                }
            ],
            "name" : "Bip001 Footsteps|Take 001|BaseLayer",
            "samplers" : [
                {
                    "input" : 15,
                    "interpolation" : "LINEAR",
                    "output" : 124
                },
                {
                    "input" : 15,
                    "interpolation" : "LINEAR",
                    "output" : 125
                },
                {
                    "input" : 15,
                    "interpolation" : "LINEAR",
                    "output" : 126
                }
            ]
        }
    ],
    "materials" : [
        {
            "doubleSided" : true,
            "name" : "defaultsds",
            "pbrMetallicRoughness" : {
                "roughnessFactor" : 0.8964735269546509
            }
        }
    ],
    "meshes" : [
        {
            "name" : "Mesh.001",
            "primitives" : [
                {
                    "attributes" : {
                        "POSITION" : 0,
                        "NORMAL" : 1,
                        "TEXCOORD_0" : 2,
                        "COLOR_0" : 3,
                        "JOINTS_0" : 4,
                        "WEIGHTS_0" : 5
                    },
                    "indices" : 6,
                    "material" : 0
                }
            ]
        },
        {
            "name" : "Mesh",
            "primitives" : [
                {
                    "attributes" : {
                        "POSITION" : 8,
                        "NORMAL" : 9,
                        "TEXCOORD_0" : 10,
                        "COLOR_0" : 11,
                        "JOINTS_0" : 12,
                        "WEIGHTS_0" : 13
                    },
                    "indices" : 14,
                    "material" : 0
                }
            ]
        }
    ],
    "skins" : [
        {
            "inverseBindMatrices" : 7,
            "joints" : [
                34,
                33,
                24,
                23,
                10,
                9,
                8,
                7,
                3,
                2,
                1,
                6,
                5,
                4,
                20,
                19,
                18,
                17,
                13,
                12,
                11,
                16,
                15,
                14,
                22,
                21,
                28,
                27,
                26,
                25,
                32,
                31,
                30,
                29,
                35
            ],
            "name" : "Bip001"
        }
    ],
    "accessors" : [
        {
            "bufferView" : 0,
            "componentType" : 5126,
            "count" : 46,
            "max" : [
                -0.13358074426651,
                0.23291756212711334,
                0.2530071437358856
            ],
            "min" : [
                -0.16764359176158905,
                0.16272392868995667,
                -0.032680291682481766
            ],
            "type" : "VEC3"
        },
        {
            "bufferView" : 1,
            "componentType" : 5126,
            "count" : 46,
            "type" : "VEC3"
        },
        {
            "bufferView" : 2,
            "componentType" : 5126,
            "count" : 46,
            "type" : "VEC2"
        },
        {
            "bufferView" : 3,
            "componentType" : 5123,
            "count" : 46,
            "normalized" : true,
            "type" : "VEC4"
        },
        {
            "bufferView" : 4,
            "componentType" : 5121,
            "count" : 46,
            "type" : "VEC4"
        },
        {
            "bufferView" : 5,
            "componentType" : 5126,
            "count" : 46,
            "type" : "VEC4"
        },
        {
            "bufferView" : 6,
            "componentType" : 5123,
            "count" : 192,
            "type" : "SCALAR"
        },
        {
            "bufferView" : 7,
            "componentType" : 5126,
            "count" : 35,
            "type" : "MAT4"
        },
        {
            "bufferView" : 8,
            "componentType" : 5126,
            "count" : 939,
            "max" : [
                0.1695995181798935,
                0.39173510670661926,
                0.05416834354400635
            ],
            "min" : [
                -0.1695995181798935,
                7.916078459402343e-09,
                -0.03503197804093361
            ],
            "type" : "VEC3"
        },
        {
            "bufferView" : 9,
            "componentType" : 5126,
            "count" : 939,
            "type" : "VEC3"
        },
        {
            "bufferView" : 10,
            "componentType" : 5126,
            "count" : 939,
            "type" : "VEC2"
        },
        {
            "bufferView" : 11,
            "componentType" : 5123,
            "count" : 939,
            "normalized" : true,
            "type" : "VEC4"
        },
        {
            "bufferView" : 12,
            "componentType" : 5121,
            "count" : 939,
            "type" : "VEC4"
        },
        {
            "bufferView" : 13,
            "componentType" : 5126,
            "count" : 939,
            "type" : "VEC4"
        },
        {
            "bufferView" : 14,
            "componentType" : 5123,
            "count" : 4362,
            "type" : "SCALAR"
        },
        {
            "bufferView" : 15,
            "componentType" : 5126,
            "count" : 26,
            "max" : [
                0.8666666666666667
            ],
            "min" : [
                0.03333333333333333
            ],
            "type" : "SCALAR"
        },
        {
            "bufferView" : 16,
            "componentType" : 5126,
            "count" : 26,
            "type" : "VEC3"
        },
        {
            "bufferView" : 17,
            "componentType" : 5126,
            "count" : 26,
            "type" : "VEC4"
        },
        {
            "bufferView" : 18,
            "componentType" : 5126,
            "count" : 26,
            "type" : "VEC3"
        },
        {
            "bufferView" : 19,
            "componentType" : 5126,
            "count" : 26,
            "type" : "VEC3"
        },
        {
            "bufferView" : 20,
            "componentType" : 5126,
            "count" : 26,
            "type" : "VEC4"
        },
        {
            "bufferView" : 21,
            "componentType" : 5126,
            "count" : 26,
            "type" : "VEC3"
        },
        {
            "bufferView" : 22,
            "componentType" : 5126,
            "count" : 26,
            "type" : "VEC3"
        },
        {
            "bufferView" : 23,
            "componentType" : 5126,
            "count" : 26,
            "type" : "VEC4"
        },
        {
            "bufferView" : 24,
            "componentType" : 5126,
            "count" : 26,
            "type" : "VEC3"
        },
        {
            "bufferView" : 25,
            "componentType" : 5126,
            "count" : 26,
            "type" : "VEC3"
        },
        {
            "bufferView" : 26,
            "componentType" : 5126,
            "count" : 26,
            "type" : "VEC4"
        },
        {
            "bufferView" : 27,
            "componentType" : 5126,
            "count" : 26,
            "type" : "VEC3"
        },
        {
            "bufferView" : 28,
            "componentType" : 5126,
            "count" : 26,
            "type" : "VEC3"
        },
        {
            "bufferView" : 29,
            "componentType" : 5126,
            "count" : 26,
            "type" : "VEC4"
        },
        {
            "bufferView" : 30,
            "componentType" : 5126,
            "count" : 26,
            "type" : "VEC3"
        },
        {
            "bufferView" : 31,
            "componentType" : 5126,
            "count" : 26,
            "type" : "VEC3"
        },
        {
            "bufferView" : 32,
            "componentType" : 5126,
            "count" : 26,
            "type" : "VEC4"
        },
        {
            "bufferView" : 33,
            "componentType" : 5126,
            "count" : 26,
            "type" : "VEC3"
        },
        {
            "bufferView" : 34,
            "componentType" : 5126,
            "count" : 26,
            "type" : "VEC3"
        },
        {
            "bufferView" : 35,
            "componentType" : 5126,
            "count" : 26,
            "type" : "VEC4"
        },
        {
            "bufferView" : 36,
            "componentType" : 5126,
            "count" : 26,
            "type" : "VEC3"
        },
        {
            "bufferView" : 37,
            "componentType" : 5126,
            "count" : 26,
            "type" : "VEC3"
        },
        {
            "bufferView" : 38,
            "componentType" : 5126,
            "count" : 26,
            "type" : "VEC4"
        },
        {
            "bufferView" : 39,
            "componentType" : 5126,
            "count" : 26,
            "type" : "VEC3"
        },
        {
            "bufferView" : 40,
            "componentType" : 5126,
            "count" : 26,
            "type" : "VEC3"
        },
        {
            "bufferView" : 41,
            "componentType" : 5126,
            "count" : 26,
            "type" : "VEC4"
        },
        {
            "bufferView" : 42,
            "componentType" : 5126,
            "count" : 26,
            "type" : "VEC3"
        },
        {
            "bufferView" : 43,
            "componentType" : 5126,
            "count" : 26,
            "type" : "VEC3"
        },
        {
            "bufferView" : 44,
            "componentType" : 5126,
            "count" : 26,
            "type" : "VEC4"
        },
        {
            "bufferView" : 45,
            "componentType" : 5126,
            "count" : 26,
            "type" : "VEC3"
        },
        {
            "bufferView" : 46,
            "componentType" : 5126,
            "count" : 26,
            "type" : "VEC3"
        },
        {
            "bufferView" : 47,
            "componentType" : 5126,
            "count" : 26,
            "type" : "VEC4"
        },
        {
            "bufferView" : 48,
            "componentType" : 5126,
            "count" : 26,
            "type" : "VEC3"
        },
        {
            "bufferView" : 49,
            "componentType" : 5126,
            "count" : 26,
            "type" : "VEC3"
        },
        {
            "bufferView" : 50,
            "componentType" : 5126,
            "count" : 26,
            "type" : "VEC4"
        },
        {
            "bufferView" : 51,
            "componentType" : 5126,
            "count" : 26,
            "type" : "VEC3"
        },
        {
            "bufferView" : 52,
            "componentType" : 5126,
            "count" : 26,
            "type" : "VEC3"
        },
        {
            "bufferView" : 53,
            "componentType" : 5126,
            "count" : 26,
            "type" : "VEC4"
        },
        {
            "bufferView" : 54,
            "componentType" : 5126,
            "count" : 26,
            "type" : "VEC3"
        },
        {
            "bufferView" : 55,
            "componentType" : 5126,
            "count" : 26,
            "type" : "VEC3"
        },
        {
            "bufferView" : 56,
            "componentType" : 5126,
            "count" : 26,
            "type" : "VEC4"
        },
        {
            "bufferView" : 57,
            "componentType" : 5126,
            "count" : 26,
            "type" : "VEC3"
        },
        {
            "bufferView" : 58,
            "componentType" : 5126,
            "count" : 26,
            "type" : "VEC3"
        },
        {
            "bufferView" : 59,
            "componentType" : 5126,
            "count" : 26,
            "type" : "VEC4"
        },
        {
            "bufferView" : 60,
            "componentType" : 5126,
            "count" : 26,
            "type" : "VEC3"
        },
        {
            "bufferView" : 61,
            "componentType" : 5126,
            "count" : 26,
            "type" : "VEC3"
        },
        {
            "bufferView" : 62,
            "componentType" : 5126,
            "count" : 26,
            "type" : "VEC4"
        },
        {
            "bufferView" : 63,
            "componentType" : 5126,
            "count" : 26,
            "type" : "VEC3"
        },
        {
            "bufferView" : 64,
            "componentType" : 5126,
            "count" : 26,
            "type" : "VEC3"
        },
        {
            "bufferView" : 65,
            "componentType" : 5126,
            "count" : 26,
            "type" : "VEC4"
        },
        {
            "bufferView" : 66,
            "componentType" : 5126,
            "count" : 26,
            "type" : "VEC3"
        },
        {
            "bufferView" : 67,
            "componentType" : 5126,
            "count" : 26,
            "type" : "VEC3"
        },
        {
            "bufferView" : 68,
            "componentType" : 5126,
            "count" : 26,
            "type" : "VEC4"
        },
        {
            "bufferView" : 69,
            "componentType" : 5126,
            "count" : 26,
            "type" : "VEC3"
        },
        {
            "bufferView" : 70,
            "componentType" : 5126,
            "count" : 26,
            "type" : "VEC3"
        },
        {
            "bufferView" : 71,
            "componentType" : 5126,
            "count" : 26,
            "type" : "VEC4"
        },
        {
            "bufferView" : 72,
            "componentType" : 5126,
            "count" : 26,
            "type" : "VEC3"
        },
        {
            "bufferView" : 73,
            "componentType" : 5126,
            "count" : 26,
            "type" : "VEC3"
        },
        {
            "bufferView" : 74,
            "componentType" : 5126,
            "count" : 26,
            "type" : "VEC4"
        },
        {
            "bufferView" : 75,
            "componentType" : 5126,
            "count" : 26,
            "type" : "VEC3"
        },
        {
            "bufferView" : 76,
            "componentType" : 5126,
            "count" : 26,
            "type" : "VEC3"
        },
        {
            "bufferView" : 77,
            "componentType" : 5126,
            "count" : 26,
            "type" : "VEC4"
        },
        {
            "bufferView" : 78,
            "componentType" : 5126,
            "count" : 26,
            "type" : "VEC3"
        },
        {
            "bufferView" : 79,
            "componentType" : 5126,
            "count" : 26,
            "type" : "VEC3"
        },
        {
            "bufferView" : 80,
            "componentType" : 5126,
            "count" : 26,
            "type" : "VEC4"
        },
        {
            "bufferView" : 81,
            "componentType" : 5126,
            "count" : 26,
            "type" : "VEC3"
        },
        {
            "bufferView" : 82,
            "componentType" : 5126,
            "count" : 26,
            "type" : "VEC3"
        },
        {
            "bufferView" : 83,
            "componentType" : 5126,
            "count" : 26,
            "type" : "VEC4"
        },
        {
            "bufferView" : 84,
            "componentType" : 5126,
            "count" : 26,
            "type" : "VEC3"
        },
        {
            "bufferView" : 85,
            "componentType" : 5126,
            "count" : 26,
            "type" : "VEC3"
        },
        {
            "bufferView" : 86,
            "componentType" : 5126,
            "count" : 26,
            "type" : "VEC4"
        },
        {
            "bufferView" : 87,
            "componentType" : 5126,
            "count" : 26,
            "type" : "VEC3"
        },
        {
            "bufferView" : 88,
            "componentType" : 5126,
            "count" : 26,
            "type" : "VEC3"
        },
        {
            "bufferView" : 89,
            "componentType" : 5126,
            "count" : 26,
            "type" : "VEC4"
        },
        {
            "bufferView" : 90,
            "componentType" : 5126,
            "count" : 26,
            "type" : "VEC3"
        },
        {
            "bufferView" : 91,
            "componentType" : 5126,
            "count" : 26,
            "type" : "VEC3"
        },
        {
            "bufferView" : 92,
            "componentType" : 5126,
            "count" : 26,
            "type" : "VEC4"
        },
        {
            "bufferView" : 93,
            "componentType" : 5126,
            "count" : 26,
            "type" : "VEC3"
        },
        {
            "bufferView" : 94,
            "componentType" : 5126,
            "count" : 26,
            "type" : "VEC3"
        },
        {
            "bufferView" : 95,
            "componentType" : 5126,
            "count" : 26,
            "type" : "VEC4"
        },
        {
            "bufferView" : 96,
            "componentType" : 5126,
            "count" : 26,
            "type" : "VEC3"
        },
        {
            "bufferView" : 97,
            "componentType" : 5126,
            "count" : 26,
            "type" : "VEC3"
        },
        {
            "bufferView" : 98,
            "componentType" : 5126,
            "count" : 26,
            "type" : "VEC4"
        },
        {
            "bufferView" : 99,
            "componentType" : 5126,
            "count" : 26,
            "type" : "VEC3"
        },
        {
            "bufferView" : 100,
            "componentType" : 5126,
            "count" : 26,
            "type" : "VEC3"
        },
        {
            "bufferView" : 101,
            "componentType" : 5126,
            "count" : 26,
            "type" : "VEC4"
        },
        {
            "bufferView" : 102,
            "componentType" : 5126,
            "count" : 26,
            "type" : "VEC3"
        },
        {
            "bufferView" : 103,
            "componentType" : 5126,
            "count" : 26,
            "type" : "VEC3"
        },
        {
            "bufferView" : 104,
            "componentType" : 5126,
            "count" : 26,
            "type" : "VEC4"
        },
        {
            "bufferView" : 105,
            "componentType" : 5126,
            "count" : 26,
            "type" : "VEC3"
        },
        {
            "bufferView" : 106,
            "componentType" : 5126,
            "count" : 26,
            "type" : "VEC3"
        },
        {
            "bufferView" : 107,
            "componentType" : 5126,
            "count" : 26,
            "type" : "VEC4"
        },
        {
            "bufferView" : 108,
            "componentType" : 5126,
            "count" : 26,
            "type" : "VEC3"
        },
        {
            "bufferView" : 109,
            "componentType" : 5126,
            "count" : 26,
            "type" : "VEC3"
        },
        {
            "bufferView" : 110,
            "componentType" : 5126,
            "count" : 26,
            "type" : "VEC4"
        },
        {
            "bufferView" : 111,
            "componentType" : 5126,
            "count" : 26,
            "type" : "VEC3"
        },
        {
            "bufferView" : 112,
            "componentType" : 5126,
            "count" : 26,
            "type" : "VEC3"
        },
        {
            "bufferView" : 113,
            "componentType" : 5126,
            "count" : 26,
            "type" : "VEC4"
        },
        {
            "bufferView" : 114,
            "componentType" : 5126,
            "count" : 26,
            "type" : "VEC3"
        },
        {
            "bufferView" : 115,
            "componentType" : 5126,
            "count" : 26,
            "type" : "VEC3"
        },
        {
            "bufferView" : 116,
            "componentType" : 5126,
            "count" : 26,
            "type" : "VEC4"
        },
        {
            "bufferView" : 117,
            "componentType" : 5126,
            "count" : 26,
            "type" : "VEC3"
        },
        {
            "bufferView" : 118,
            "componentType" : 5126,
            "count" : 26,
            "type" : "VEC3"
        },
        {
            "bufferView" : 119,
            "componentType" : 5126,
            "count" : 26,
            "type" : "VEC4"
        },
        {
            "bufferView" : 120,
            "componentType" : 5126,
            "count" : 26,
            "type" : "VEC3"
        },
        {
            "bufferView" : 121,
            "componentType" : 5126,
            "count" : 26,
            "type" : "VEC3"
        },
        {
            "bufferView" : 122,
            "componentType" : 5126,
            "count" : 26,
            "type" : "VEC4"
        },
        {
            "bufferView" : 123,
            "componentType" : 5126,
            "count" : 26,
            "type" : "VEC3"
        },
        {
            "bufferView" : 124,
            "componentType" : 5126,
            "count" : 26,
            "type" : "VEC3"
        },
        {
            "bufferView" : 125,
            "componentType" : 5126,
            "count" : 26,
            "type" : "VEC4"
        },
        {
            "bufferView" : 126,
            "componentType" : 5126,
            "count" : 26,
            "type" : "VEC3"
        }
    ],
    "bufferViews" : [
        {
            "buffer" : 0,
            "byteLength" : 552,
            "byteOffset" : 0
        },
        {
            "buffer" : 0,
            "byteLength" : 552,
            "byteOffset" : 552
        },
        {
            "buffer" : 0,
            "byteLength" : 368,
            "byteOffset" : 1104
        },
        {
            "buffer" : 0,
            "byteLength" : 368,
            "byteOffset" : 1472
        },
        {
            "buffer" : 0,
            "byteLength" : 184,
            "byteOffset" : 1840
        },
        {
            "buffer" : 0,
            "byteLength" : 736,
            "byteOffset" : 2024
        },
        {
            "buffer" : 0,
            "byteLength" : 384,
            "byteOffset" : 2760
        },
        {
            "buffer" : 0,
            "byteLength" : 2240,
            "byteOffset" : 3144
        },
        {
            "buffer" : 0,
            "byteLength" : 11268,
            "byteOffset" : 5384
        },
        {
            "buffer" : 0,
            "byteLength" : 11268,
            "byteOffset" : 16652
        },
        {
            "buffer" : 0,
            "byteLength" : 7512,
            "byteOffset" : 27920
        },
        {
            "buffer" : 0,
            "byteLength" : 7512,
            "byteOffset" : 35432
        },
        {
            "buffer" : 0,
            "byteLength" : 3756,
            "byteOffset" : 42944
        },
        {
            "buffer" : 0,
            "byteLength" : 15024,
            "byteOffset" : 46700
        },
        {
            "buffer" : 0,
            "byteLength" : 8724,
            "byteOffset" : 61724
        },
        {
            "buffer" : 0,
            "byteLength" : 104,
            "byteOffset" : 70448
        },
        {
            "buffer" : 0,
            "byteLength" : 312,
            "byteOffset" : 70552
        },
        {
            "buffer" : 0,
            "byteLength" : 416,
            "byteOffset" : 70864
        },
        {
            "buffer" : 0,
            "byteLength" : 312,
            "byteOffset" : 71280
        },
        {
            "buffer" : 0,
            "byteLength" : 312,
            "byteOffset" : 71592
        },
        {
            "buffer" : 0,
            "byteLength" : 416,
            "byteOffset" : 71904
        },
        {
            "buffer" : 0,
            "byteLength" : 312,
            "byteOffset" : 72320
        },
        {
            "buffer" : 0,
            "byteLength" : 312,
            "byteOffset" : 72632
        },
        {
            "buffer" : 0,
            "byteLength" : 416,
            "byteOffset" : 72944
        },
        {
            "buffer" : 0,
            "byteLength" : 312,
            "byteOffset" : 73360
        },
        {
            "buffer" : 0,
            "byteLength" : 312,
            "byteOffset" : 73672
        },
        {
            "buffer" : 0,
            "byteLength" : 416,
            "byteOffset" : 73984
        },
        {
            "buffer" : 0,
            "byteLength" : 312,
            "byteOffset" : 74400
        },
        {
            "buffer" : 0,
            "byteLength" : 312,
            "byteOffset" : 74712
        },
        {
            "buffer" : 0,
            "byteLength" : 416,
            "byteOffset" : 75024
        },
        {
            "buffer" : 0,
            "byteLength" : 312,
            "byteOffset" : 75440
        },
        {
            "buffer" : 0,
            "byteLength" : 312,
            "byteOffset" : 75752
        },
        {
            "buffer" : 0,
            "byteLength" : 416,
            "byteOffset" : 76064
        },
        {
            "buffer" : 0,
            "byteLength" : 312,
            "byteOffset" : 76480
        },
        {
            "buffer" : 0,
            "byteLength" : 312,
            "byteOffset" : 76792
        },
        {
            "buffer" : 0,
            "byteLength" : 416,
            "byteOffset" : 77104
        },
        {
            "buffer" : 0,
            "byteLength" : 312,
            "byteOffset" : 77520
        },
        {
            "buffer" : 0,
            "byteLength" : 312,
            "byteOffset" : 77832
        },
        {
            "buffer" : 0,
            "byteLength" : 416,
            "byteOffset" : 78144
        },
        {
            "buffer" : 0,
            "byteLength" : 312,
            "byteOffset" : 78560
        },
        {
            "buffer" : 0,
            "byteLength" : 312,
            "byteOffset" : 78872
        },
        {
            "buffer" : 0,
            "byteLength" : 416,
            "byteOffset" : 79184
        },
        {
            "buffer" : 0,
            "byteLength" : 312,
            "byteOffset" : 79600
        },
        {
            "buffer" : 0,
            "byteLength" : 312,
            "byteOffset" : 79912
        },
        {
            "buffer" : 0,
            "byteLength" : 416,
            "byteOffset" : 80224
        },
        {
            "buffer" : 0,
            "byteLength" : 312,
            "byteOffset" : 80640
        },
        {
            "buffer" : 0,
            "byteLength" : 312,
            "byteOffset" : 80952
        },
        {
            "buffer" : 0,
            "byteLength" : 416,
            "byteOffset" : 81264
        },
        {
            "buffer" : 0,
            "byteLength" : 312,
            "byteOffset" : 81680
        },
        {
            "buffer" : 0,
            "byteLength" : 312,
            "byteOffset" : 81992
        },
        {
            "buffer" : 0,
            "byteLength" : 416,
            "byteOffset" : 82304
        },
        {
            "buffer" : 0,
            "byteLength" : 312,
            "byteOffset" : 82720
        },
        {
            "buffer" : 0,
            "byteLength" : 312,
            "byteOffset" : 83032
        },
        {
            "buffer" : 0,
            "byteLength" : 416,
            "byteOffset" : 83344
        },
        {
            "buffer" : 0,
            "byteLength" : 312,
            "byteOffset" : 83760
        },
        {
            "buffer" : 0,
            "byteLength" : 312,
            "byteOffset" : 84072
        },
        {
            "buffer" : 0,
            "byteLength" : 416,
            "byteOffset" : 84384
        },
        {
            "buffer" : 0,
            "byteLength" : 312,
            "byteOffset" : 84800
        },
        {
            "buffer" : 0,
            "byteLength" : 312,
            "byteOffset" : 85112
        },
        {
            "buffer" : 0,
            "byteLength" : 416,
            "byteOffset" : 85424
        },
        {
            "buffer" : 0,
            "byteLength" : 312,
            "byteOffset" : 85840
        },
        {
            "buffer" : 0,
            "byteLength" : 312,
            "byteOffset" : 86152
        },
        {
            "buffer" : 0,
            "byteLength" : 416,
            "byteOffset" : 86464
        },
        {
            "buffer" : 0,
            "byteLength" : 312,
            "byteOffset" : 86880
        },
        {
            "buffer" : 0,
            "byteLength" : 312,
            "byteOffset" : 87192
        },
        {
            "buffer" : 0,
            "byteLength" : 416,
            "byteOffset" : 87504
        },
        {
            "buffer" : 0,
            "byteLength" : 312,
            "byteOffset" : 87920
        },
        {
            "buffer" : 0,
            "byteLength" : 312,
            "byteOffset" : 88232
        },
        {
            "buffer" : 0,
            "byteLength" : 416,
            "byteOffset" : 88544
        },
        {
            "buffer" : 0,
            "byteLength" : 312,
            "byteOffset" : 88960
        },
        {
            "buffer" : 0,
            "byteLength" : 312,
            "byteOffset" : 89272
        },
        {
            "buffer" : 0,
            "byteLength" : 416,
            "byteOffset" : 89584
        },
        {
            "buffer" : 0,
            "byteLength" : 312,
            "byteOffset" : 90000
        },
        {
            "buffer" : 0,
            "byteLength" : 312,
            "byteOffset" : 90312
        },
        {
            "buffer" : 0,
            "byteLength" : 416,
            "byteOffset" : 90624
        },
        {
            "buffer" : 0,
            "byteLength" : 312,
            "byteOffset" : 91040
        },
        {
            "buffer" : 0,
            "byteLength" : 312,
            "byteOffset" : 91352
        },
        {
            "buffer" : 0,
            "byteLength" : 416,
            "byteOffset" : 91664
        },
        {
            "buffer" : 0,
            "byteLength" : 312,
            "byteOffset" : 92080
        },
        {
            "buffer" : 0,
            "byteLength" : 312,
            "byteOffset" : 92392
        },
        {
            "buffer" : 0,
            "byteLength" : 416,
            "byteOffset" : 92704
        },
        {
            "buffer" : 0,
            "byteLength" : 312,
            "byteOffset" : 93120
        },
        {
            "buffer" : 0,
            "byteLength" : 312,
            "byteOffset" : 93432
        },
        {
            "buffer" : 0,
            "byteLength" : 416,
            "byteOffset" : 93744
        },
        {
            "buffer" : 0,
            "byteLength" : 312,
            "byteOffset" : 94160
        },
        {
            "buffer" : 0,
            "byteLength" : 312,
            "byteOffset" : 94472
        },
        {
            "buffer" : 0,
            "byteLength" : 416,
            "byteOffset" : 94784
        },
        {
            "buffer" : 0,
            "byteLength" : 312,
            "byteOffset" : 95200
        },
        {
            "buffer" : 0,
            "byteLength" : 312,
            "byteOffset" : 95512
        },
        {
            "buffer" : 0,
            "byteLength" : 416,
            "byteOffset" : 95824
        },
        {
            "buffer" : 0,
            "byteLength" : 312,
            "byteOffset" : 96240
        },
        {
            "buffer" : 0,
            "byteLength" : 312,
            "byteOffset" : 96552
        },
        {
            "buffer" : 0,
            "byteLength" : 416,
            "byteOffset" : 96864
        },
        {
            "buffer" : 0,
            "byteLength" : 312,
            "byteOffset" : 97280
        },
        {
            "buffer" : 0,
            "byteLength" : 312,
            "byteOffset" : 97592
        },
        {
            "buffer" : 0,
            "byteLength" : 416,
            "byteOffset" : 97904
        },
        {
            "buffer" : 0,
            "byteLength" : 312,
            "byteOffset" : 98320
        },
        {
            "buffer" : 0,
            "byteLength" : 312,
            "byteOffset" : 98632
        },
        {
            "buffer" : 0,
            "byteLength" : 416,
            "byteOffset" : 98944
        },
        {
            "buffer" : 0,
            "byteLength" : 312,
            "byteOffset" : 99360
        },
        {
            "buffer" : 0,
            "byteLength" : 312,
            "byteOffset" : 99672
        },
        {
            "buffer" : 0,
            "byteLength" : 416,
            "byteOffset" : 99984
        },
        {
            "buffer" : 0,
            "byteLength" : 312,
            "byteOffset" : 100400
        },
        {
            "buffer" : 0,
            "byteLength" : 312,
            "byteOffset" : 100712
        },
        {
            "buffer" : 0,
            "byteLength" : 416,
            "byteOffset" : 101024
        },
        {
            "buffer" : 0,
            "byteLength" : 312,
            "byteOffset" : 101440
        },
        {
            "buffer" : 0,
            "byteLength" : 312,
            "byteOffset" : 101752
        },
        {
            "buffer" : 0,
            "byteLength" : 416,
            "byteOffset" : 102064
        },
        {
            "buffer" : 0,
            "byteLength" : 312,
            "byteOffset" : 102480
        },
        {
            "buffer" : 0,
            "byteLength" : 312,
            "byteOffset" : 102792
        },
        {
            "buffer" : 0,
            "byteLength" : 416,
            "byteOffset" : 103104
        },
        {
            "buffer" : 0,
            "byteLength" : 312,
            "byteOffset" : 103520
        },
        {
            "buffer" : 0,
            "byteLength" : 312,
            "byteOffset" : 103832
        },
        {
            "buffer" : 0,
            "byteLength" : 416,
            "byteOffset" : 104144
        },
        {
            "buffer" : 0,
            "byteLength" : 312,
            "byteOffset" : 104560
        },
        {
            "buffer" : 0,
            "byteLength" : 312,
            "byteOffset" : 104872
        },
        {
            "buffer" : 0,
            "byteLength" : 416,
            "byteOffset" : 105184
        },
        {
            "buffer" : 0,
            "byteLength" : 312,
            "byteOffset" : 105600
        },
        {
            "buffer" : 0,
            "byteLength" : 312,
            "byteOffset" : 105912
        },
        {
            "buffer" : 0,
            "byteLength" : 416,
            "byteOffset" : 106224
        },
        {
            "buffer" : 0,
            "byteLength" : 312,
            "byteOffset" : 106640
        },
        {
            "buffer" : 0,
            "byteLength" : 312,
            "byteOffset" : 106952
        },
        {
            "buffer" : 0,
            "byteLength" : 416,
            "byteOffset" : 107264
        },
        {
            "buffer" : 0,
            "byteLength" : 312,
            "byteOffset" : 107680
        },
        {
            "buffer" : 0,
            "byteLength" : 312,
            "byteOffset" : 107992
        },
        {
            "buffer" : 0,
            "byteLength" : 416,
            "byteOffset" : 108304
        },
        {
            "buffer" : 0,
            "byteLength" : 312,
            "byteOffset" : 108720
        }
    ],
    "buffers" : [
        {
            "byteLength" : 109032,
            "uri" : "damage.bin"
        }
    ]
}
