{
    "asset" : {
        "generator" : "Khronos glTF Blender I/O v1.5.17",
        "version" : "2.0"
    },
    "scene" : 0,
    "scenes" : [
        {
            "name" : "Scene",
            "nodes" : [
                38
            ]
        }
    ],
    "nodes" : [
        {
            "name" : "Bip001 Footsteps",
            "rotation" : [
                -0.12754371762275696,
                0.5601035952568054,
                0.07339587062597275,
                0.8152481913566589
            ],
            "translation" : [
                1.5627599954605103,
                -5.694518089294434,
                0.7484484910964966
            ]
        },
        {
            "name" : "Bip001 L Finger02",
            "rotation" : [
                -4.86999738313898e-07,
                -1.6519961718586273e-06,
                -0.17268317937850952,
                0.9849774241447449
            ],
            "scale" : [
                1.0000003576278687,
                0.9999997019767761,
                1.0000001192092896
            ],
            "translation" : [
                5.716762885299431e-08,
                0.3046959340572357,
                6.258488269850204e-07
            ]
        },
        {
            "children" : [
                1
            ],
            "name" : "Bip001 L Finger01",
            "rotation" : [
                -4.897123631053546e-07,
                1.7420125004719011e-06,
                -0.07839179039001465,
                0.9969226717948914
            ],
            "scale" : [
                0.9999995827674866,
                1,
                0.9999997615814209
            ],
            "translation" : [
                2.8214838465601133e-08,
                0.5172443389892578,
                4.4703433843551466e-08
            ]
        },
        {
            "children" : [
                2
            ],
            "name" : "Bip001 L Finger0",
            "rotation" : [
                0.3940461575984955,
                0.5826277732849121,
                -0.07198337465524673,
                0.7071711421012878
            ],
            "scale" : [
                0.9999998807907104,
                0.9999999403953552,
                1.000000238418579
            ],
            "translation" : [
                0.08181175589561462,
                0.940946638584137,
                0.5803813934326172
            ]
        },
        {
            "name" : "Bip001 L Finger12",
            "rotation" : [
                -0.024439401924610138,
                -0.0795990526676178,
                -0.2924988567829132,
                0.952633798122406
            ],
            "scale" : [
                1.0000001192092896,
                0.9999999403953552,
                1
            ],
            "translation" : [
                2.756484285271199e-08,
                0.2526037096977234,
                -1.1920910480966995e-07
            ]
        },
        {
            "children" : [
                4
            ],
            "name" : "Bip001 L Finger11",
            "rotation" : [
                -0.021903518587350845,
                -0.08033334463834763,
                -0.26213616132736206,
                0.9614319801330566
            ],
            "scale" : [
                0.9999998807907104,
                0.9999997615814209,
                0.9999999403953552
            ],
            "translation" : [
                -9.437438563963951e-08,
                0.34153643250465393,
                -3.8743019104003906e-07
            ]
        },
        {
            "children" : [
                5
            ],
            "name" : "Bip001 L Finger1",
            "rotation" : [
                -0.06371624022722244,
                -0.08671338111162186,
                -0.1964254528284073,
                0.9745965003967285
            ],
            "scale" : [
                0.9999998807907104,
                0.9999998211860657,
                1.0000001192092896
            ],
            "translation" : [
                0.0003603331570047885,
                1.7707757949829102,
                0.04145878553390503
            ]
        },
        {
            "children" : [
                3,
                6
            ],
            "name" : "Bip001 L Hand",
            "rotation" : [
                0.04146236926317215,
                -0.1826557219028473,
                -0.10054325312376022,
                0.9771432280540466
            ],
            "scale" : [
                1.0000001192092896,
                1.0000001192092896,
                1
            ],
            "translation" : [
                -4.435070195540902e-07,
                1.8464126586914062,
                7.400554977721185e-07
            ]
        },
        {
            "children" : [
                7
            ],
            "name" : "Bip001 L Forearm",
            "rotation" : [
                3.349904034166684e-07,
                -1.7463425194819138e-07,
                0.32770127058029175,
                0.9447814226150513
            ],
            "scale" : [
                1.000000238418579,
                0.9999998211860657,
                1
            ],
            "translation" : [
                8.881784197001252e-15,
                2.3758392333984375,
                -8.344650268554688e-07
            ]
        },
        {
            "children" : [
                8
            ],
            "name" : "Bip001 L UpperArm",
            "rotation" : [
                0.3208891451358795,
                -0.24484553933143616,
                0.1285407990217209,
                0.9058465957641602
            ],
            "scale" : [
                0.9999998807907104,
                1.0000001192092896,
                1
            ],
            "translation" : [
                -3.1017975743452553e-07,
                0.9862537384033203,
                5.915697443015233e-07
            ]
        },
        {
            "children" : [
                9
            ],
            "name" : "Bip001 L Clavicle",
            "rotation" : [
                -0.10387641936540604,
                0.31411588191986084,
                -0.9365183115005493,
                0.11607915163040161
            ],
            "scale" : [
                1,
                1.000000238418579,
                1
            ],
            "translation" : [
                -0.09678713977336884,
                -0.45527467131614685,
                -0.7976436018943787
            ]
        },
        {
            "name" : "Bip001 R Finger02",
            "rotation" : [
                -2.8045490125805372e-06,
                4.392428763821954e-06,
                -0.1726795881986618,
                0.9849780797958374
            ],
            "scale" : [
                0.9999998807907104,
                0.9999998211860657,
                0.9999998807907104
            ],
            "translation" : [
                -2.3678069283050718e-07,
                0.3046950101852417,
                2.3096822587831412e-07
            ]
        },
        {
            "children" : [
                11
            ],
            "name" : "Bip001 R Finger01",
            "rotation" : [
                1.7057798231689958e-06,
                -1.5219994793369551e-06,
                -0.23338159918785095,
                0.9723852276802063
            ],
            "scale" : [
                0.9999995827674866,
                0.9999997019767761,
                1.0000001192092896
            ],
            "translation" : [
                4.49436811322812e-07,
                0.5172455310821533,
                3.427280148571299e-07
            ]
        },
        {
            "children" : [
                12
            ],
            "name" : "Bip001 R Finger0",
            "rotation" : [
                -0.34493884444236755,
                -0.5531936287879944,
                -0.19145187735557556,
                0.7337167263031006
            ],
            "scale" : [
                0.9999997019767761,
                0.9999998807907104,
                1
            ],
            "translation" : [
                0.08181274682283401,
                0.9409465193748474,
                -0.5803804993629456
            ]
        },
        {
            "name" : "Bip001 R Finger12",
            "rotation" : [
                1.2750073210554547e-06,
                -1.0644934036463383e-06,
                -0.5383055806159973,
                0.842749834060669
            ],
            "scale" : [
                1.0000001192092896,
                0.9999999403953552,
                0.9999999403953552
            ],
            "translation" : [
                -2.6983607881447824e-07,
                0.2526034414768219,
                -1.7881369274164172e-07
            ]
        },
        {
            "children" : [
                14
            ],
            "name" : "Bip001 R Finger11",
            "rotation" : [
                -9.220267429554951e-07,
                1.702309759821219e-06,
                -0.42659080028533936,
                0.9044447541236877
            ],
            "scale" : [
                1.0000001192092896,
                0.9999999403953552,
                0.9999998807907104
            ],
            "translation" : [
                7.475890129171603e-07,
                0.34153828024864197,
                8.94052476496654e-08
            ]
        },
        {
            "children" : [
                15
            ],
            "name" : "Bip001 R Finger1",
            "rotation" : [
                0.19857701659202576,
                0.005107434466481209,
                -0.39499643445014954,
                0.8969497680664062
            ],
            "scale" : [
                0.9999998807907104,
                0.9999998807907104,
                1.0000001192092896
            ],
            "translation" : [
                0.00036113272653892636,
                1.7707754373550415,
                -0.04145793244242668
            ]
        },
        {
            "children" : [
                13,
                16
            ],
            "name" : "Bip001 R Hand",
            "rotation" : [
                0.0696321651339531,
                0.560235857963562,
                -0.1695367991924286,
                0.8078022003173828
            ],
            "scale" : [
                1.0000001192092896,
                1.0000001192092896,
                1.000000238418579
            ],
            "translation" : [
                3.336200506964815e-07,
                1.8464142084121704,
                7.441603884217329e-07
            ]
        },
        {
            "children" : [
                17
            ],
            "name" : "Bip001 R Forearm",
            "rotation" : [
                -3.609638667967374e-07,
                6.944711117284896e-07,
                0.2722964584827423,
                0.962213397026062
            ],
            "scale" : [
                1,
                0.9999997615814209,
                0.9999998807907104
            ],
            "translation" : [
                2.2563878587789077e-07,
                2.3758387565612793,
                -2.3841860752327193e-07
            ]
        },
        {
            "children" : [
                18
            ],
            "name" : "Bip001 R UpperArm",
            "rotation" : [
                -0.3375437259674072,
                0.4713245928287506,
                0.10736937075853348,
                0.8077061176300049
            ],
            "scale" : [
                1,
                1.000000238418579,
                0.9999998211860657
            ],
            "translation" : [
                -6.132124212854251e-07,
                0.9862536787986755,
                3.261057486270147e-07
            ]
        },
        {
            "children" : [
                19
            ],
            "name" : "Bip001 R Clavicle",
            "rotation" : [
                -0.06462989002466202,
                -0.6390177011489868,
                -0.7450318932533264,
                0.1800190508365631
            ],
            "scale" : [
                0.9999998807907104,
                0.9999999403953552,
                0.9999998211860657
            ],
            "translation" : [
                -0.0973583459854126,
                0.26788151264190674,
                0.8784298300743103
            ]
        },
        {
            "name" : "Bone001",
            "rotation" : [
                -0.7917942404747009,
                -0.6107879281044006,
                4.946169838149217e-07,
                7.031863447082287e-07
            ],
            "scale" : [
                1.000000238418579,
                1.0000001192092896,
                1
            ],
            "translation" : [
                0.02019701525568962,
                0.19279521703720093,
                9.83476752480783e-07
            ]
        },
        {
            "children" : [
                21
            ],
            "name" : "Bip001 Head",
            "rotation" : [
                -0.04623325914144516,
                -0.3316132128238678,
                0.46153584122657776,
                0.8215107321739197
            ],
            "scale" : [
                0.9999997615814209,
                1,
                1
            ],
            "translation" : [
                1.6442795924831444e-07,
                1.1019047498703003,
                -2.6822092991096724e-07
            ]
        },
        {
            "children" : [
                10,
                20,
                22
            ],
            "name" : "Bip001 Neck",
            "rotation" : [
                0.19982601702213287,
                -0.03127383068203926,
                -0.15219806134700775,
                0.9674333333969116
            ],
            "scale" : [
                1.0000001192092896,
                1,
                1
            ],
            "translation" : [
                -0.23436106741428375,
                2.997202157974243,
                1.7916923411576136e-07
            ]
        },
        {
            "children" : [
                23
            ],
            "name" : "Bip001 Spine1",
            "rotation" : [
                -0.1498813033103943,
                0.19542093575000763,
                -0.3248968720436096,
                0.9131200909614563
            ],
            "scale" : [
                0.9999999403953552,
                0.9999997615814209,
                0.9999998211860657
            ],
            "translation" : [
                -0.001359522226266563,
                1.7980303764343262,
                0.0004953579627908766
            ]
        },
        {
            "name" : "Bip001 L Toe0",
            "rotation" : [
                -1.593682270595309e-07,
                -1.4652546553861612e-07,
                0.7071070671081543,
                0.7071065902709961
            ],
            "scale" : [
                1,
                0.9999999403953552,
                1.0000001192092896
            ],
            "translation" : [
                0.8066036701202393,
                1.3259629011154175,
                6.407514092643396e-07
            ]
        },
        {
            "children" : [
                25
            ],
            "name" : "Bip001 L Foot",
            "rotation" : [
                0.8168595433235168,
                0.5396352410316467,
                -0.2035897970199585,
                0.00924789346754551
            ],
            "scale" : [
                1.0000001192092896,
                0.9999999403953552,
                1.0000001192092896
            ],
            "translation" : [
                3.267959414188226e-07,
                3.316417694091797,
                -1.4448502838604327e-07
            ]
        },
        {
            "children" : [
                26
            ],
            "name" : "Bip001 L Calf",
            "rotation" : [
                -2.978138127218699e-07,
                -4.240252593490368e-08,
                0.3290964961051941,
                0.9442963004112244
            ],
            "scale" : [
                1.000000238418579,
                1,
                1
            ],
            "translation" : [
                -1.2068355204064574e-07,
                2.6564362049102783,
                1.3411030863608175e-07
            ]
        },
        {
            "children" : [
                27
            ],
            "name" : "Bip001 L Thigh",
            "rotation" : [
                -0.9550501704216003,
                -0.27084413170814514,
                0.043749015778303146,
                0.11228904128074646
            ],
            "scale" : [
                1.000000238418579,
                0.9999997019767761,
                1.0000022649765015
            ],
            "translation" : [
                -0.31750401854515076,
                -0.6281054615974426,
                -1.1535688638687134
            ]
        },
        {
            "name" : "Bip001 R Toe0",
            "rotation" : [
                -1.810992671380518e-07,
                6.941059496057278e-07,
                0.7071070671081543,
                0.7071064710617065
            ],
            "scale" : [
                0.9999998807907104,
                0.9999999403953552,
                0.9999999403953552
            ],
            "translation" : [
                0.8066030740737915,
                1.3259632587432861,
                -8.344650268554688e-07
            ]
        },
        {
            "children" : [
                29
            ],
            "name" : "Bip001 R Foot",
            "rotation" : [
                -0.7799981832504272,
                -0.6084065437316895,
                -0.12815213203430176,
                0.07086214423179626
            ],
            "scale" : [
                0.9999999403953552,
                0.9999999403953552,
                1
            ],
            "translation" : [
                1.7881393432617188e-07,
                3.3164162635803223,
                -5.960464477539063e-08
            ]
        },
        {
            "children" : [
                30
            ],
            "name" : "Bip001 R Calf",
            "rotation" : [
                1.8094704046234256e-07,
                9.578838167101367e-09,
                0.4614385962486267,
                0.8871721625328064
            ],
            "scale" : [
                1.0000003576278687,
                1,
                1.0000001192092896
            ],
            "translation" : [
                -1.6034849181778554e-07,
                2.656435966491699,
                5.960467319710006e-08
            ]
        },
        {
            "children" : [
                31
            ],
            "name" : "Bip001 R Thigh",
            "rotation" : [
                0.8620432019233704,
                0.4617575407028198,
                -0.015327317640185356,
                0.2083907425403595
            ],
            "scale" : [
                1.0000003576278687,
                0.9999998807907104,
                1.000001311302185
            ],
            "translation" : [
                -0.3174978196620941,
                -0.6281057000160217,
                1.1535694599151611
            ]
        },
        {
            "children" : [
                24,
                28,
                32
            ],
            "name" : "Bip001 Spine",
            "rotation" : [
                -6.941824608475144e-07,
                -2.1295966234902153e-06,
                -0.0003981553600169718,
                0.9999999403953552
            ],
            "scale" : [
                1.0000001192092896,
                1,
                1
            ],
            "translation" : [
                0.31800124049186707,
                0.6278525590896606,
                2.38138227359741e-07
            ]
        },
        {
            "children" : [
                33
            ],
            "name" : "Bip001 Pelvis",
            "rotation" : [
                -5.1222745156565e-08,
                7.413326557070832e-07,
                -3.073364140959711e-08,
                1
            ],
            "scale" : [
                1.000000238418579,
                0.9999998211860657,
                1
            ],
            "translation" : [
                -2.9502871257136576e-09,
                1.443438009118836e-07,
                2.9718194127781317e-08
            ]
        },
        {
            "name" : "Bip001 Prop1",
            "rotation" : [
                -0.6101888418197632,
                0.5472322702407837,
                -0.5301412343978882,
                0.2171563357114792
            ],
            "scale" : [
                1.000000238418579,
                1.0000001192092896,
                1.0000001192092896
            ],
            "translation" : [
                4.263522148132324,
                -0.5709744095802307,
                2.1806893348693848
            ]
        },
        {
            "mesh" : 0,
            "name" : "Object01",
            "skin" : 0
        },
        {
            "mesh" : 1,
            "name" : "Object02",
            "skin" : 0
        },
        {
            "children" : [
                0,
                36,
                37,
                34,
                35
            ],
            "name" : "Bip001",
            "rotation" : [
                0.12754368782043457,
                -0.5601036548614502,
                -0.07339584827423096,
                0.8152481913566589
            ],
            "scale" : [
                0.02539999783039093,
                0.02539999783039093,
                0.02539999969303608
            ],
            "translation" : [
                -0.008640242740511894,
                0.15121974050998688,
                0
            ]
        }
    ],
    "animations" : [
        {
            "channels" : [
                {
                    "sampler" : 0,
                    "target" : {
                        "node" : 34,
                        "path" : "translation"
                    }
                },
                {
                    "sampler" : 1,
                    "target" : {
                        "node" : 34,
                        "path" : "rotation"
                    }
                },
                {
                    "sampler" : 2,
                    "target" : {
                        "node" : 34,
                        "path" : "scale"
                    }
                },
                {
                    "sampler" : 3,
                    "target" : {
                        "node" : 33,
                        "path" : "translation"
                    }
                },
                {
                    "sampler" : 4,
                    "target" : {
                        "node" : 33,
                        "path" : "rotation"
                    }
                },
                {
                    "sampler" : 5,
                    "target" : {
                        "node" : 33,
                        "path" : "scale"
                    }
                },
                {
                    "sampler" : 6,
                    "target" : {
                        "node" : 24,
                        "path" : "translation"
                    }
                },
                {
                    "sampler" : 7,
                    "target" : {
                        "node" : 24,
                        "path" : "rotation"
                    }
                },
                {
                    "sampler" : 8,
                    "target" : {
                        "node" : 24,
                        "path" : "scale"
                    }
                },
                {
                    "sampler" : 9,
                    "target" : {
                        "node" : 23,
                        "path" : "translation"
                    }
                },
                {
                    "sampler" : 10,
                    "target" : {
                        "node" : 23,
                        "path" : "rotation"
                    }
                },
                {
                    "sampler" : 11,
                    "target" : {
                        "node" : 23,
                        "path" : "scale"
                    }
                },
                {
                    "sampler" : 12,
                    "target" : {
                        "node" : 10,
                        "path" : "translation"
                    }
                },
                {
                    "sampler" : 13,
                    "target" : {
                        "node" : 10,
                        "path" : "rotation"
                    }
                },
                {
                    "sampler" : 14,
                    "target" : {
                        "node" : 10,
                        "path" : "scale"
                    }
                },
                {
                    "sampler" : 15,
                    "target" : {
                        "node" : 9,
                        "path" : "translation"
                    }
                },
                {
                    "sampler" : 16,
                    "target" : {
                        "node" : 9,
                        "path" : "rotation"
                    }
                },
                {
                    "sampler" : 17,
                    "target" : {
                        "node" : 9,
                        "path" : "scale"
                    }
                },
                {
                    "sampler" : 18,
                    "target" : {
                        "node" : 8,
                        "path" : "translation"
                    }
                },
                {
                    "sampler" : 19,
                    "target" : {
                        "node" : 8,
                        "path" : "rotation"
                    }
                },
                {
                    "sampler" : 20,
                    "target" : {
                        "node" : 8,
                        "path" : "scale"
                    }
                },
                {
                    "sampler" : 21,
                    "target" : {
                        "node" : 7,
                        "path" : "translation"
                    }
                },
                {
                    "sampler" : 22,
                    "target" : {
                        "node" : 7,
                        "path" : "rotation"
                    }
                },
                {
                    "sampler" : 23,
                    "target" : {
                        "node" : 7,
                        "path" : "scale"
                    }
                },
                {
                    "sampler" : 24,
                    "target" : {
                        "node" : 3,
                        "path" : "translation"
                    }
                },
                {
                    "sampler" : 25,
                    "target" : {
                        "node" : 3,
                        "path" : "rotation"
                    }
                },
                {
                    "sampler" : 26,
                    "target" : {
                        "node" : 3,
                        "path" : "scale"
                    }
                },
                {
                    "sampler" : 27,
                    "target" : {
                        "node" : 2,
                        "path" : "translation"
                    }
                },
                {
                    "sampler" : 28,
                    "target" : {
                        "node" : 2,
                        "path" : "rotation"
                    }
                },
                {
                    "sampler" : 29,
                    "target" : {
                        "node" : 2,
                        "path" : "scale"
                    }
                },
                {
                    "sampler" : 30,
                    "target" : {
                        "node" : 1,
                        "path" : "translation"
                    }
                },
                {
                    "sampler" : 31,
                    "target" : {
                        "node" : 1,
                        "path" : "rotation"
                    }
                },
                {
                    "sampler" : 32,
                    "target" : {
                        "node" : 1,
                        "path" : "scale"
                    }
                },
                {
                    "sampler" : 33,
                    "target" : {
                        "node" : 6,
                        "path" : "translation"
                    }
                },
                {
                    "sampler" : 34,
                    "target" : {
                        "node" : 6,
                        "path" : "rotation"
                    }
                },
                {
                    "sampler" : 35,
                    "target" : {
                        "node" : 6,
                        "path" : "scale"
                    }
                },
                {
                    "sampler" : 36,
                    "target" : {
                        "node" : 5,
                        "path" : "translation"
                    }
                },
                {
                    "sampler" : 37,
                    "target" : {
                        "node" : 5,
                        "path" : "rotation"
                    }
                },
                {
                    "sampler" : 38,
                    "target" : {
                        "node" : 5,
                        "path" : "scale"
                    }
                },
                {
                    "sampler" : 39,
                    "target" : {
                        "node" : 4,
                        "path" : "translation"
                    }
                },
                {
                    "sampler" : 40,
                    "target" : {
                        "node" : 4,
                        "path" : "rotation"
                    }
                },
                {
                    "sampler" : 41,
                    "target" : {
                        "node" : 4,
                        "path" : "scale"
                    }
                },
                {
                    "sampler" : 42,
                    "target" : {
                        "node" : 20,
                        "path" : "translation"
                    }
                },
                {
                    "sampler" : 43,
                    "target" : {
                        "node" : 20,
                        "path" : "rotation"
                    }
                },
                {
                    "sampler" : 44,
                    "target" : {
                        "node" : 20,
                        "path" : "scale"
                    }
                },
                {
                    "sampler" : 45,
                    "target" : {
                        "node" : 19,
                        "path" : "translation"
                    }
                },
                {
                    "sampler" : 46,
                    "target" : {
                        "node" : 19,
                        "path" : "rotation"
                    }
                },
                {
                    "sampler" : 47,
                    "target" : {
                        "node" : 19,
                        "path" : "scale"
                    }
                },
                {
                    "sampler" : 48,
                    "target" : {
                        "node" : 18,
                        "path" : "translation"
                    }
                },
                {
                    "sampler" : 49,
                    "target" : {
                        "node" : 18,
                        "path" : "rotation"
                    }
                },
                {
                    "sampler" : 50,
                    "target" : {
                        "node" : 18,
                        "path" : "scale"
                    }
                },
                {
                    "sampler" : 51,
                    "target" : {
                        "node" : 17,
                        "path" : "translation"
                    }
                },
                {
                    "sampler" : 52,
                    "target" : {
                        "node" : 17,
                        "path" : "rotation"
                    }
                },
                {
                    "sampler" : 53,
                    "target" : {
                        "node" : 17,
                        "path" : "scale"
                    }
                },
                {
                    "sampler" : 54,
                    "target" : {
                        "node" : 13,
                        "path" : "translation"
                    }
                },
                {
                    "sampler" : 55,
                    "target" : {
                        "node" : 13,
                        "path" : "rotation"
                    }
                },
                {
                    "sampler" : 56,
                    "target" : {
                        "node" : 13,
                        "path" : "scale"
                    }
                },
                {
                    "sampler" : 57,
                    "target" : {
                        "node" : 12,
                        "path" : "translation"
                    }
                },
                {
                    "sampler" : 58,
                    "target" : {
                        "node" : 12,
                        "path" : "rotation"
                    }
                },
                {
                    "sampler" : 59,
                    "target" : {
                        "node" : 12,
                        "path" : "scale"
                    }
                },
                {
                    "sampler" : 60,
                    "target" : {
                        "node" : 11,
                        "path" : "translation"
                    }
                },
                {
                    "sampler" : 61,
                    "target" : {
                        "node" : 11,
                        "path" : "rotation"
                    }
                },
                {
                    "sampler" : 62,
                    "target" : {
                        "node" : 11,
                        "path" : "scale"
                    }
                },
                {
                    "sampler" : 63,
                    "target" : {
                        "node" : 16,
                        "path" : "translation"
                    }
                },
                {
                    "sampler" : 64,
                    "target" : {
                        "node" : 16,
                        "path" : "rotation"
                    }
                },
                {
                    "sampler" : 65,
                    "target" : {
                        "node" : 16,
                        "path" : "scale"
                    }
                },
                {
                    "sampler" : 66,
                    "target" : {
                        "node" : 15,
                        "path" : "translation"
                    }
                },
                {
                    "sampler" : 67,
                    "target" : {
                        "node" : 15,
                        "path" : "rotation"
                    }
                },
                {
                    "sampler" : 68,
                    "target" : {
                        "node" : 15,
                        "path" : "scale"
                    }
                },
                {
                    "sampler" : 69,
                    "target" : {
                        "node" : 14,
                        "path" : "translation"
                    }
                },
                {
                    "sampler" : 70,
                    "target" : {
                        "node" : 14,
                        "path" : "rotation"
                    }
                },
                {
                    "sampler" : 71,
                    "target" : {
                        "node" : 14,
                        "path" : "scale"
                    }
                },
                {
                    "sampler" : 72,
                    "target" : {
                        "node" : 22,
                        "path" : "translation"
                    }
                },
                {
                    "sampler" : 73,
                    "target" : {
                        "node" : 22,
                        "path" : "rotation"
                    }
                },
                {
                    "sampler" : 74,
                    "target" : {
                        "node" : 22,
                        "path" : "scale"
                    }
                },
                {
                    "sampler" : 75,
                    "target" : {
                        "node" : 21,
                        "path" : "translation"
                    }
                },
                {
                    "sampler" : 76,
                    "target" : {
                        "node" : 21,
                        "path" : "rotation"
                    }
                },
                {
                    "sampler" : 77,
                    "target" : {
                        "node" : 21,
                        "path" : "scale"
                    }
                },
                {
                    "sampler" : 78,
                    "target" : {
                        "node" : 28,
                        "path" : "translation"
                    }
                },
                {
                    "sampler" : 79,
                    "target" : {
                        "node" : 28,
                        "path" : "rotation"
                    }
                },
                {
                    "sampler" : 80,
                    "target" : {
                        "node" : 28,
                        "path" : "scale"
                    }
                },
                {
                    "sampler" : 81,
                    "target" : {
                        "node" : 27,
                        "path" : "translation"
                    }
                },
                {
                    "sampler" : 82,
                    "target" : {
                        "node" : 27,
                        "path" : "rotation"
                    }
                },
                {
                    "sampler" : 83,
                    "target" : {
                        "node" : 27,
                        "path" : "scale"
                    }
                },
                {
                    "sampler" : 84,
                    "target" : {
                        "node" : 26,
                        "path" : "translation"
                    }
                },
                {
                    "sampler" : 85,
                    "target" : {
                        "node" : 26,
                        "path" : "rotation"
                    }
                },
                {
                    "sampler" : 86,
                    "target" : {
                        "node" : 26,
                        "path" : "scale"
                    }
                },
                {
                    "sampler" : 87,
                    "target" : {
                        "node" : 25,
                        "path" : "translation"
                    }
                },
                {
                    "sampler" : 88,
                    "target" : {
                        "node" : 25,
                        "path" : "rotation"
                    }
                },
                {
                    "sampler" : 89,
                    "target" : {
                        "node" : 25,
                        "path" : "scale"
                    }
                },
                {
                    "sampler" : 90,
                    "target" : {
                        "node" : 32,
                        "path" : "translation"
                    }
                },
                {
                    "sampler" : 91,
                    "target" : {
                        "node" : 32,
                        "path" : "rotation"
                    }
                },
                {
                    "sampler" : 92,
                    "target" : {
                        "node" : 32,
                        "path" : "scale"
                    }
                },
                {
                    "sampler" : 93,
                    "target" : {
                        "node" : 31,
                        "path" : "translation"
                    }
                },
                {
                    "sampler" : 94,
                    "target" : {
                        "node" : 31,
                        "path" : "rotation"
                    }
                },
                {
                    "sampler" : 95,
                    "target" : {
                        "node" : 31,
                        "path" : "scale"
                    }
                },
                {
                    "sampler" : 96,
                    "target" : {
                        "node" : 30,
                        "path" : "translation"
                    }
                },
                {
                    "sampler" : 97,
                    "target" : {
                        "node" : 30,
                        "path" : "rotation"
                    }
                },
                {
                    "sampler" : 98,
                    "target" : {
                        "node" : 30,
                        "path" : "scale"
                    }
                },
                {
                    "sampler" : 99,
                    "target" : {
                        "node" : 29,
                        "path" : "translation"
                    }
                },
                {
                    "sampler" : 100,
                    "target" : {
                        "node" : 29,
                        "path" : "rotation"
                    }
                },
                {
                    "sampler" : 101,
                    "target" : {
                        "node" : 29,
                        "path" : "scale"
                    }
                },
                {
                    "sampler" : 102,
                    "target" : {
                        "node" : 35,
                        "path" : "translation"
                    }
                },
                {
                    "sampler" : 103,
                    "target" : {
                        "node" : 35,
                        "path" : "rotation"
                    }
                },
                {
                    "sampler" : 104,
                    "target" : {
                        "node" : 35,
                        "path" : "scale"
                    }
                },
                {
                    "sampler" : 105,
                    "target" : {
                        "node" : 38,
                        "path" : "translation"
                    }
                },
                {
                    "sampler" : 106,
                    "target" : {
                        "node" : 38,
                        "path" : "rotation"
                    }
                },
                {
                    "sampler" : 107,
                    "target" : {
                        "node" : 38,
                        "path" : "scale"
                    }
                }
            ],
            "name" : "Bip001|Take 001|BaseLayer",
            "samplers" : [
                {
                    "input" : 15,
                    "interpolation" : "LINEAR",
                    "output" : 16
                },
                {
                    "input" : 15,
                    "interpolation" : "LINEAR",
                    "output" : 17
                },
                {
                    "input" : 15,
                    "interpolation" : "LINEAR",
                    "output" : 18
                },
                {
                    "input" : 15,
                    "interpolation" : "LINEAR",
                    "output" : 19
                },
                {
                    "input" : 15,
                    "interpolation" : "LINEAR",
                    "output" : 20
                },
                {
                    "input" : 15,
                    "interpolation" : "LINEAR",
                    "output" : 21
                },
                {
                    "input" : 15,
                    "interpolation" : "LINEAR",
                    "output" : 22
                },
                {
                    "input" : 15,
                    "interpolation" : "LINEAR",
                    "output" : 23
                },
                {
                    "input" : 15,
                    "interpolation" : "LINEAR",
                    "output" : 24
                },
                {
                    "input" : 15,
                    "interpolation" : "LINEAR",
                    "output" : 25
                },
                {
                    "input" : 15,
                    "interpolation" : "LINEAR",
                    "output" : 26
                },
                {
                    "input" : 15,
                    "interpolation" : "LINEAR",
                    "output" : 27
                },
                {
                    "input" : 15,
                    "interpolation" : "LINEAR",
                    "output" : 28
                },
                {
                    "input" : 15,
                    "interpolation" : "LINEAR",
                    "output" : 29
                },
                {
                    "input" : 15,
                    "interpolation" : "LINEAR",
                    "output" : 30
                },
                {
                    "input" : 15,
                    "interpolation" : "LINEAR",
                    "output" : 31
                },
                {
                    "input" : 15,
                    "interpolation" : "LINEAR",
                    "output" : 32
                },
                {
                    "input" : 15,
                    "interpolation" : "LINEAR",
                    "output" : 33
                },
                {
                    "input" : 15,
                    "interpolation" : "LINEAR",
                    "output" : 34
                },
                {
                    "input" : 15,
                    "interpolation" : "LINEAR",
                    "output" : 35
                },
                {
                    "input" : 15,
                    "interpolation" : "LINEAR",
                    "output" : 36
                },
                {
                    "input" : 15,
                    "interpolation" : "LINEAR",
                    "output" : 37
                },
                {
                    "input" : 15,
                    "interpolation" : "LINEAR",
                    "output" : 38
                },
                {
                    "input" : 15,
                    "interpolation" : "LINEAR",
                    "output" : 39
                },
                {
                    "input" : 15,
                    "interpolation" : "LINEAR",
                    "output" : 40
                },
                {
                    "input" : 15,
                    "interpolation" : "LINEAR",
                    "output" : 41
                },
                {
                    "input" : 15,
                    "interpolation" : "LINEAR",
                    "output" : 42
                },
                {
                    "input" : 15,
                    "interpolation" : "LINEAR",
                    "output" : 43
                },
                {
                    "input" : 15,
                    "interpolation" : "LINEAR",
                    "output" : 44
                },
                {
                    "input" : 15,
                    "interpolation" : "LINEAR",
                    "output" : 45
                },
                {
                    "input" : 15,
                    "interpolation" : "LINEAR",
                    "output" : 46
                },
                {
                    "input" : 15,
                    "interpolation" : "LINEAR",
                    "output" : 47
                },
                {
                    "input" : 15,
                    "interpolation" : "LINEAR",
                    "output" : 48
                },
                {
                    "input" : 15,
                    "interpolation" : "LINEAR",
                    "output" : 49
                },
                {
                    "input" : 15,
                    "interpolation" : "LINEAR",
                    "output" : 50
                },
                {
                    "input" : 15,
                    "interpolation" : "LINEAR",
                    "output" : 51
                },
                {
                    "input" : 15,
                    "interpolation" : "LINEAR",
                    "output" : 52
                },
                {
                    "input" : 15,
                    "interpolation" : "LINEAR",
                    "output" : 53
                },
                {
                    "input" : 15,
                    "interpolation" : "LINEAR",
                    "output" : 54
                },
                {
                    "input" : 15,
                    "interpolation" : "LINEAR",
                    "output" : 55
                },
                {
                    "input" : 15,
                    "interpolation" : "LINEAR",
                    "output" : 56
                },
                {
                    "input" : 15,
                    "interpolation" : "LINEAR",
                    "output" : 57
                },
                {
                    "input" : 15,
                    "interpolation" : "LINEAR",
                    "output" : 58
                },
                {
                    "input" : 15,
                    "interpolation" : "LINEAR",
                    "output" : 59
                },
                {
                    "input" : 15,
                    "interpolation" : "LINEAR",
                    "output" : 60
                },
                {
                    "input" : 15,
                    "interpolation" : "LINEAR",
                    "output" : 61
                },
                {
                    "input" : 15,
                    "interpolation" : "LINEAR",
                    "output" : 62
                },
                {
                    "input" : 15,
                    "interpolation" : "LINEAR",
                    "output" : 63
                },
                {
                    "input" : 15,
                    "interpolation" : "LINEAR",
                    "output" : 64
                },
                {
                    "input" : 15,
                    "interpolation" : "LINEAR",
                    "output" : 65
                },
                {
                    "input" : 15,
                    "interpolation" : "LINEAR",
                    "output" : 66
                },
                {
                    "input" : 15,
                    "interpolation" : "LINEAR",
                    "output" : 67
                },
                {
                    "input" : 15,
                    "interpolation" : "LINEAR",
                    "output" : 68
                },
                {
                    "input" : 15,
                    "interpolation" : "LINEAR",
                    "output" : 69
                },
                {
                    "input" : 15,
                    "interpolation" : "LINEAR",
                    "output" : 70
                },
                {
                    "input" : 15,
                    "interpolation" : "LINEAR",
                    "output" : 71
                },
                {
                    "input" : 15,
                    "interpolation" : "LINEAR",
                    "output" : 72
                },
                {
                    "input" : 15,
                    "interpolation" : "LINEAR",
                    "output" : 73
                },
                {
                    "input" : 15,
                    "interpolation" : "LINEAR",
                    "output" : 74
                },
                {
                    "input" : 15,
                    "interpolation" : "LINEAR",
                    "output" : 75
                },
                {
                    "input" : 15,
                    "interpolation" : "LINEAR",
                    "output" : 76
                },
                {
                    "input" : 15,
                    "interpolation" : "LINEAR",
                    "output" : 77
                },
                {
                    "input" : 15,
                    "interpolation" : "LINEAR",
                    "output" : 78
                },
                {
                    "input" : 15,
                    "interpolation" : "LINEAR",
                    "output" : 79
                },
                {
                    "input" : 15,
                    "interpolation" : "LINEAR",
                    "output" : 80
                },
                {
                    "input" : 15,
                    "interpolation" : "LINEAR",
                    "output" : 81
                },
                {
                    "input" : 15,
                    "interpolation" : "LINEAR",
                    "output" : 82
                },
                {
                    "input" : 15,
                    "interpolation" : "LINEAR",
                    "output" : 83
                },
                {
                    "input" : 15,
                    "interpolation" : "LINEAR",
                    "output" : 84
                },
                {
                    "input" : 15,
                    "interpolation" : "LINEAR",
                    "output" : 85
                },
                {
                    "input" : 15,
                    "interpolation" : "LINEAR",
                    "output" : 86
                },
                {
                    "input" : 15,
                    "interpolation" : "LINEAR",
                    "output" : 87
                },
                {
                    "input" : 15,
                    "interpolation" : "LINEAR",
                    "output" : 88
                },
                {
                    "input" : 15,
                    "interpolation" : "LINEAR",
                    "output" : 89
                },
                {
                    "input" : 15,
                    "interpolation" : "LINEAR",
                    "output" : 90
                },
                {
                    "input" : 15,
                    "interpolation" : "LINEAR",
                    "output" : 91
                },
                {
                    "input" : 15,
                    "interpolation" : "LINEAR",
                    "output" : 92
                },
                {
                    "input" : 15,
                    "interpolation" : "LINEAR",
                    "output" : 93
                },
                {
                    "input" : 15,
                    "interpolation" : "LINEAR",
                    "output" : 94
                },
                {
                    "input" : 15,
                    "interpolation" : "LINEAR",
                    "output" : 95
                },
                {
                    "input" : 15,
                    "interpolation" : "LINEAR",
                    "output" : 96
                },
                {
                    "input" : 15,
                    "interpolation" : "LINEAR",
                    "output" : 97
                },
                {
                    "input" : 15,
                    "interpolation" : "LINEAR",
                    "output" : 98
                },
                {
                    "input" : 15,
                    "interpolation" : "LINEAR",
                    "output" : 99
                },
                {
                    "input" : 15,
                    "interpolation" : "LINEAR",
                    "output" : 100
                },
                {
                    "input" : 15,
                    "interpolation" : "LINEAR",
                    "output" : 101
                },
                {
                    "input" : 15,
                    "interpolation" : "LINEAR",
                    "output" : 102
                },
                {
                    "input" : 15,
                    "interpolation" : "LINEAR",
                    "output" : 103
                },
                {
                    "input" : 15,
                    "interpolation" : "LINEAR",
                    "output" : 104
                },
                {
                    "input" : 15,
                    "interpolation" : "LINEAR",
                    "output" : 105
                },
                {
                    "input" : 15,
                    "interpolation" : "LINEAR",
                    "output" : 106
                },
                {
                    "input" : 15,
                    "interpolation" : "LINEAR",
                    "output" : 107
                },
                {
                    "input" : 15,
                    "interpolation" : "LINEAR",
                    "output" : 108
                },
                {
                    "input" : 15,
                    "interpolation" : "LINEAR",
                    "output" : 109
                },
                {
                    "input" : 15,
                    "interpolation" : "LINEAR",
                    "output" : 110
                },
                {
                    "input" : 15,
                    "interpolation" : "LINEAR",
                    "output" : 111
                },
                {
                    "input" : 15,
                    "interpolation" : "LINEAR",
                    "output" : 112
                },
                {
                    "input" : 15,
                    "interpolation" : "LINEAR",
                    "output" : 113
                },
                {
                    "input" : 15,
                    "interpolation" : "LINEAR",
                    "output" : 114
                },
                {
                    "input" : 15,
                    "interpolation" : "LINEAR",
                    "output" : 115
                },
                {
                    "input" : 15,
                    "interpolation" : "LINEAR",
                    "output" : 116
                },
                {
                    "input" : 15,
                    "interpolation" : "LINEAR",
                    "output" : 117
                },
                {
                    "input" : 15,
                    "interpolation" : "LINEAR",
                    "output" : 118
                },
                {
                    "input" : 15,
                    "interpolation" : "LINEAR",
                    "output" : 119
                },
                {
                    "input" : 15,
                    "interpolation" : "LINEAR",
                    "output" : 120
                },
                {
                    "input" : 15,
                    "interpolation" : "LINEAR",
                    "output" : 121
                },
                {
                    "input" : 15,
                    "interpolation" : "LINEAR",
                    "output" : 122
                },
                {
                    "input" : 15,
                    "interpolation" : "LINEAR",
                    "output" : 123
                }
            ]
        },
        {
            "channels" : [
                {
                    "sampler" : 0,
                    "target" : {
                        "node" : 0,
                        "path" : "translation"
                    }
                },
                {
                    "sampler" : 1,
                    "target" : {
                        "node" : 0,
                        "path" : "rotation"
                    }
                },
                {
                    "sampler" : 2,
                    "target" : {
                        "node" : 0,
                        "path" : "scale"
                    }
                }
            ],
            "name" : "Bip001 Footsteps|Take 001|BaseLayer",
            "samplers" : [
                {
                    "input" : 15,
                    "interpolation" : "LINEAR",
                    "output" : 124
                },
                {
                    "input" : 15,
                    "interpolation" : "LINEAR",
                    "output" : 125
                },
                {
                    "input" : 15,
                    "interpolation" : "LINEAR",
                    "output" : 126
                }
            ]
        }
    ],
    "materials" : [
        {
            "doubleSided" : true,
            "name" : "defaultsds",
            "pbrMetallicRoughness" : {
                "roughnessFactor" : 0.8964735269546509
            }
        }
    ],
    "meshes" : [
        {
            "name" : "Mesh.001",
            "primitives" : [
                {
                    "attributes" : {
                        "POSITION" : 0,
                        "NORMAL" : 1,
                        "TEXCOORD_0" : 2,
                        "COLOR_0" : 3,
                        "JOINTS_0" : 4,
                        "WEIGHTS_0" : 5
                    },
                    "indices" : 6,
                    "material" : 0
                }
            ]
        },
        {
            "name" : "Mesh",
            "primitives" : [
                {
                    "attributes" : {
                        "POSITION" : 8,
                        "NORMAL" : 9,
                        "TEXCOORD_0" : 10,
                        "COLOR_0" : 11,
                        "JOINTS_0" : 12,
                        "WEIGHTS_0" : 13
                    },
                    "indices" : 14,
                    "material" : 0
                }
            ]
        }
    ],
    "skins" : [
        {
            "inverseBindMatrices" : 7,
            "joints" : [
                34,
                33,
                24,
                23,
                10,
                9,
                8,
                7,
                3,
                2,
                1,
                6,
                5,
                4,
                20,
                19,
                18,
                17,
                13,
                12,
                11,
                16,
                15,
                14,
                22,
                21,
                28,
                27,
                26,
                25,
                32,
                31,
                30,
                29,
                35
            ],
            "name" : "Bip001"
        }
    ],
    "accessors" : [
        {
            "bufferView" : 0,
            "componentType" : 5126,
            "count" : 46,
            "max" : [
                -0.13358072936534882,
                0.23291756212711334,
                0.25300711393356323
            ],
            "min" : [
                -0.16764356195926666,
                0.16272391378879547,
                -0.032680265605449677
            ],
            "type" : "VEC3"
        },
        {
            "bufferView" : 1,
            "componentType" : 5126,
            "count" : 46,
            "type" : "VEC3"
        },
        {
            "bufferView" : 2,
            "componentType" : 5126,
            "count" : 46,
            "type" : "VEC2"
        },
        {
            "bufferView" : 3,
            "componentType" : 5123,
            "count" : 46,
            "normalized" : true,
            "type" : "VEC4"
        },
        {
            "bufferView" : 4,
            "componentType" : 5121,
            "count" : 46,
            "type" : "VEC4"
        },
        {
            "bufferView" : 5,
            "componentType" : 5126,
            "count" : 46,
            "type" : "VEC4"
        },
        {
            "bufferView" : 6,
            "componentType" : 5123,
            "count" : 192,
            "type" : "SCALAR"
        },
        {
            "bufferView" : 7,
            "componentType" : 5126,
            "count" : 35,
            "type" : "MAT4"
        },
        {
            "bufferView" : 8,
            "componentType" : 5126,
            "count" : 939,
            "max" : [
                0.1695995181798935,
                0.39173513650894165,
                0.054168324917554855
            ],
            "min" : [
                -0.1695995181798935,
                1.815741512700697e-08,
                -0.03503197804093361
            ],
            "type" : "VEC3"
        },
        {
            "bufferView" : 9,
            "componentType" : 5126,
            "count" : 939,
            "type" : "VEC3"
        },
        {
            "bufferView" : 10,
            "componentType" : 5126,
            "count" : 939,
            "type" : "VEC2"
        },
        {
            "bufferView" : 11,
            "componentType" : 5123,
            "count" : 939,
            "normalized" : true,
            "type" : "VEC4"
        },
        {
            "bufferView" : 12,
            "componentType" : 5121,
            "count" : 939,
            "type" : "VEC4"
        },
        {
            "bufferView" : 13,
            "componentType" : 5126,
            "count" : 939,
            "type" : "VEC4"
        },
        {
            "bufferView" : 14,
            "componentType" : 5123,
            "count" : 4362,
            "type" : "SCALAR"
        },
        {
            "bufferView" : 15,
            "componentType" : 5126,
            "count" : 36,
            "max" : [
                1.2
            ],
            "min" : [
                0.03333333333333333
            ],
            "type" : "SCALAR"
        },
        {
            "bufferView" : 16,
            "componentType" : 5126,
            "count" : 36,
            "type" : "VEC3"
        },
        {
            "bufferView" : 17,
            "componentType" : 5126,
            "count" : 36,
            "type" : "VEC4"
        },
        {
            "bufferView" : 18,
            "componentType" : 5126,
            "count" : 36,
            "type" : "VEC3"
        },
        {
            "bufferView" : 19,
            "componentType" : 5126,
            "count" : 36,
            "type" : "VEC3"
        },
        {
            "bufferView" : 20,
            "componentType" : 5126,
            "count" : 36,
            "type" : "VEC4"
        },
        {
            "bufferView" : 21,
            "componentType" : 5126,
            "count" : 36,
            "type" : "VEC3"
        },
        {
            "bufferView" : 22,
            "componentType" : 5126,
            "count" : 36,
            "type" : "VEC3"
        },
        {
            "bufferView" : 23,
            "componentType" : 5126,
            "count" : 36,
            "type" : "VEC4"
        },
        {
            "bufferView" : 24,
            "componentType" : 5126,
            "count" : 36,
            "type" : "VEC3"
        },
        {
            "bufferView" : 25,
            "componentType" : 5126,
            "count" : 36,
            "type" : "VEC3"
        },
        {
            "bufferView" : 26,
            "componentType" : 5126,
            "count" : 36,
            "type" : "VEC4"
        },
        {
            "bufferView" : 27,
            "componentType" : 5126,
            "count" : 36,
            "type" : "VEC3"
        },
        {
            "bufferView" : 28,
            "componentType" : 5126,
            "count" : 36,
            "type" : "VEC3"
        },
        {
            "bufferView" : 29,
            "componentType" : 5126,
            "count" : 36,
            "type" : "VEC4"
        },
        {
            "bufferView" : 30,
            "componentType" : 5126,
            "count" : 36,
            "type" : "VEC3"
        },
        {
            "bufferView" : 31,
            "componentType" : 5126,
            "count" : 36,
            "type" : "VEC3"
        },
        {
            "bufferView" : 32,
            "componentType" : 5126,
            "count" : 36,
            "type" : "VEC4"
        },
        {
            "bufferView" : 33,
            "componentType" : 5126,
            "count" : 36,
            "type" : "VEC3"
        },
        {
            "bufferView" : 34,
            "componentType" : 5126,
            "count" : 36,
            "type" : "VEC3"
        },
        {
            "bufferView" : 35,
            "componentType" : 5126,
            "count" : 36,
            "type" : "VEC4"
        },
        {
            "bufferView" : 36,
            "componentType" : 5126,
            "count" : 36,
            "type" : "VEC3"
        },
        {
            "bufferView" : 37,
            "componentType" : 5126,
            "count" : 36,
            "type" : "VEC3"
        },
        {
            "bufferView" : 38,
            "componentType" : 5126,
            "count" : 36,
            "type" : "VEC4"
        },
        {
            "bufferView" : 39,
            "componentType" : 5126,
            "count" : 36,
            "type" : "VEC3"
        },
        {
            "bufferView" : 40,
            "componentType" : 5126,
            "count" : 36,
            "type" : "VEC3"
        },
        {
            "bufferView" : 41,
            "componentType" : 5126,
            "count" : 36,
            "type" : "VEC4"
        },
        {
            "bufferView" : 42,
            "componentType" : 5126,
            "count" : 36,
            "type" : "VEC3"
        },
        {
            "bufferView" : 43,
            "componentType" : 5126,
            "count" : 36,
            "type" : "VEC3"
        },
        {
            "bufferView" : 44,
            "componentType" : 5126,
            "count" : 36,
            "type" : "VEC4"
        },
        {
            "bufferView" : 45,
            "componentType" : 5126,
            "count" : 36,
            "type" : "VEC3"
        },
        {
            "bufferView" : 46,
            "componentType" : 5126,
            "count" : 36,
            "type" : "VEC3"
        },
        {
            "bufferView" : 47,
            "componentType" : 5126,
            "count" : 36,
            "type" : "VEC4"
        },
        {
            "bufferView" : 48,
            "componentType" : 5126,
            "count" : 36,
            "type" : "VEC3"
        },
        {
            "bufferView" : 49,
            "componentType" : 5126,
            "count" : 36,
            "type" : "VEC3"
        },
        {
            "bufferView" : 50,
            "componentType" : 5126,
            "count" : 36,
            "type" : "VEC4"
        },
        {
            "bufferView" : 51,
            "componentType" : 5126,
            "count" : 36,
            "type" : "VEC3"
        },
        {
            "bufferView" : 52,
            "componentType" : 5126,
            "count" : 36,
            "type" : "VEC3"
        },
        {
            "bufferView" : 53,
            "componentType" : 5126,
            "count" : 36,
            "type" : "VEC4"
        },
        {
            "bufferView" : 54,
            "componentType" : 5126,
            "count" : 36,
            "type" : "VEC3"
        },
        {
            "bufferView" : 55,
            "componentType" : 5126,
            "count" : 36,
            "type" : "VEC3"
        },
        {
            "bufferView" : 56,
            "componentType" : 5126,
            "count" : 36,
            "type" : "VEC4"
        },
        {
            "bufferView" : 57,
            "componentType" : 5126,
            "count" : 36,
            "type" : "VEC3"
        },
        {
            "bufferView" : 58,
            "componentType" : 5126,
            "count" : 36,
            "type" : "VEC3"
        },
        {
            "bufferView" : 59,
            "componentType" : 5126,
            "count" : 36,
            "type" : "VEC4"
        },
        {
            "bufferView" : 60,
            "componentType" : 5126,
            "count" : 36,
            "type" : "VEC3"
        },
        {
            "bufferView" : 61,
            "componentType" : 5126,
            "count" : 36,
            "type" : "VEC3"
        },
        {
            "bufferView" : 62,
            "componentType" : 5126,
            "count" : 36,
            "type" : "VEC4"
        },
        {
            "bufferView" : 63,
            "componentType" : 5126,
            "count" : 36,
            "type" : "VEC3"
        },
        {
            "bufferView" : 64,
            "componentType" : 5126,
            "count" : 36,
            "type" : "VEC3"
        },
        {
            "bufferView" : 65,
            "componentType" : 5126,
            "count" : 36,
            "type" : "VEC4"
        },
        {
            "bufferView" : 66,
            "componentType" : 5126,
            "count" : 36,
            "type" : "VEC3"
        },
        {
            "bufferView" : 67,
            "componentType" : 5126,
            "count" : 36,
            "type" : "VEC3"
        },
        {
            "bufferView" : 68,
            "componentType" : 5126,
            "count" : 36,
            "type" : "VEC4"
        },
        {
            "bufferView" : 69,
            "componentType" : 5126,
            "count" : 36,
            "type" : "VEC3"
        },
        {
            "bufferView" : 70,
            "componentType" : 5126,
            "count" : 36,
            "type" : "VEC3"
        },
        {
            "bufferView" : 71,
            "componentType" : 5126,
            "count" : 36,
            "type" : "VEC4"
        },
        {
            "bufferView" : 72,
            "componentType" : 5126,
            "count" : 36,
            "type" : "VEC3"
        },
        {
            "bufferView" : 73,
            "componentType" : 5126,
            "count" : 36,
            "type" : "VEC3"
        },
        {
            "bufferView" : 74,
            "componentType" : 5126,
            "count" : 36,
            "type" : "VEC4"
        },
        {
            "bufferView" : 75,
            "componentType" : 5126,
            "count" : 36,
            "type" : "VEC3"
        },
        {
            "bufferView" : 76,
            "componentType" : 5126,
            "count" : 36,
            "type" : "VEC3"
        },
        {
            "bufferView" : 77,
            "componentType" : 5126,
            "count" : 36,
            "type" : "VEC4"
        },
        {
            "bufferView" : 78,
            "componentType" : 5126,
            "count" : 36,
            "type" : "VEC3"
        },
        {
            "bufferView" : 79,
            "componentType" : 5126,
            "count" : 36,
            "type" : "VEC3"
        },
        {
            "bufferView" : 80,
            "componentType" : 5126,
            "count" : 36,
            "type" : "VEC4"
        },
        {
            "bufferView" : 81,
            "componentType" : 5126,
            "count" : 36,
            "type" : "VEC3"
        },
        {
            "bufferView" : 82,
            "componentType" : 5126,
            "count" : 36,
            "type" : "VEC3"
        },
        {
            "bufferView" : 83,
            "componentType" : 5126,
            "count" : 36,
            "type" : "VEC4"
        },
        {
            "bufferView" : 84,
            "componentType" : 5126,
            "count" : 36,
            "type" : "VEC3"
        },
        {
            "bufferView" : 85,
            "componentType" : 5126,
            "count" : 36,
            "type" : "VEC3"
        },
        {
            "bufferView" : 86,
            "componentType" : 5126,
            "count" : 36,
            "type" : "VEC4"
        },
        {
            "bufferView" : 87,
            "componentType" : 5126,
            "count" : 36,
            "type" : "VEC3"
        },
        {
            "bufferView" : 88,
            "componentType" : 5126,
            "count" : 36,
            "type" : "VEC3"
        },
        {
            "bufferView" : 89,
            "componentType" : 5126,
            "count" : 36,
            "type" : "VEC4"
        },
        {
            "bufferView" : 90,
            "componentType" : 5126,
            "count" : 36,
            "type" : "VEC3"
        },
        {
            "bufferView" : 91,
            "componentType" : 5126,
            "count" : 36,
            "type" : "VEC3"
        },
        {
            "bufferView" : 92,
            "componentType" : 5126,
            "count" : 36,
            "type" : "VEC4"
        },
        {
            "bufferView" : 93,
            "componentType" : 5126,
            "count" : 36,
            "type" : "VEC3"
        },
        {
            "bufferView" : 94,
            "componentType" : 5126,
            "count" : 36,
            "type" : "VEC3"
        },
        {
            "bufferView" : 95,
            "componentType" : 5126,
            "count" : 36,
            "type" : "VEC4"
        },
        {
            "bufferView" : 96,
            "componentType" : 5126,
            "count" : 36,
            "type" : "VEC3"
        },
        {
            "bufferView" : 97,
            "componentType" : 5126,
            "count" : 36,
            "type" : "VEC3"
        },
        {
            "bufferView" : 98,
            "componentType" : 5126,
            "count" : 36,
            "type" : "VEC4"
        },
        {
            "bufferView" : 99,
            "componentType" : 5126,
            "count" : 36,
            "type" : "VEC3"
        },
        {
            "bufferView" : 100,
            "componentType" : 5126,
            "count" : 36,
            "type" : "VEC3"
        },
        {
            "bufferView" : 101,
            "componentType" : 5126,
            "count" : 36,
            "type" : "VEC4"
        },
        {
            "bufferView" : 102,
            "componentType" : 5126,
            "count" : 36,
            "type" : "VEC3"
        },
        {
            "bufferView" : 103,
            "componentType" : 5126,
            "count" : 36,
            "type" : "VEC3"
        },
        {
            "bufferView" : 104,
            "componentType" : 5126,
            "count" : 36,
            "type" : "VEC4"
        },
        {
            "bufferView" : 105,
            "componentType" : 5126,
            "count" : 36,
            "type" : "VEC3"
        },
        {
            "bufferView" : 106,
            "componentType" : 5126,
            "count" : 36,
            "type" : "VEC3"
        },
        {
            "bufferView" : 107,
            "componentType" : 5126,
            "count" : 36,
            "type" : "VEC4"
        },
        {
            "bufferView" : 108,
            "componentType" : 5126,
            "count" : 36,
            "type" : "VEC3"
        },
        {
            "bufferView" : 109,
            "componentType" : 5126,
            "count" : 36,
            "type" : "VEC3"
        },
        {
            "bufferView" : 110,
            "componentType" : 5126,
            "count" : 36,
            "type" : "VEC4"
        },
        {
            "bufferView" : 111,
            "componentType" : 5126,
            "count" : 36,
            "type" : "VEC3"
        },
        {
            "bufferView" : 112,
            "componentType" : 5126,
            "count" : 36,
            "type" : "VEC3"
        },
        {
            "bufferView" : 113,
            "componentType" : 5126,
            "count" : 36,
            "type" : "VEC4"
        },
        {
            "bufferView" : 114,
            "componentType" : 5126,
            "count" : 36,
            "type" : "VEC3"
        },
        {
            "bufferView" : 115,
            "componentType" : 5126,
            "count" : 36,
            "type" : "VEC3"
        },
        {
            "bufferView" : 116,
            "componentType" : 5126,
            "count" : 36,
            "type" : "VEC4"
        },
        {
            "bufferView" : 117,
            "componentType" : 5126,
            "count" : 36,
            "type" : "VEC3"
        },
        {
            "bufferView" : 118,
            "componentType" : 5126,
            "count" : 36,
            "type" : "VEC3"
        },
        {
            "bufferView" : 119,
            "componentType" : 5126,
            "count" : 36,
            "type" : "VEC4"
        },
        {
            "bufferView" : 120,
            "componentType" : 5126,
            "count" : 36,
            "type" : "VEC3"
        },
        {
            "bufferView" : 121,
            "componentType" : 5126,
            "count" : 36,
            "type" : "VEC3"
        },
        {
            "bufferView" : 122,
            "componentType" : 5126,
            "count" : 36,
            "type" : "VEC4"
        },
        {
            "bufferView" : 123,
            "componentType" : 5126,
            "count" : 36,
            "type" : "VEC3"
        },
        {
            "bufferView" : 124,
            "componentType" : 5126,
            "count" : 36,
            "type" : "VEC3"
        },
        {
            "bufferView" : 125,
            "componentType" : 5126,
            "count" : 36,
            "type" : "VEC4"
        },
        {
            "bufferView" : 126,
            "componentType" : 5126,
            "count" : 36,
            "type" : "VEC3"
        }
    ],
    "bufferViews" : [
        {
            "buffer" : 0,
            "byteLength" : 552,
            "byteOffset" : 0
        },
        {
            "buffer" : 0,
            "byteLength" : 552,
            "byteOffset" : 552
        },
        {
            "buffer" : 0,
            "byteLength" : 368,
            "byteOffset" : 1104
        },
        {
            "buffer" : 0,
            "byteLength" : 368,
            "byteOffset" : 1472
        },
        {
            "buffer" : 0,
            "byteLength" : 184,
            "byteOffset" : 1840
        },
        {
            "buffer" : 0,
            "byteLength" : 736,
            "byteOffset" : 2024
        },
        {
            "buffer" : 0,
            "byteLength" : 384,
            "byteOffset" : 2760
        },
        {
            "buffer" : 0,
            "byteLength" : 2240,
            "byteOffset" : 3144
        },
        {
            "buffer" : 0,
            "byteLength" : 11268,
            "byteOffset" : 5384
        },
        {
            "buffer" : 0,
            "byteLength" : 11268,
            "byteOffset" : 16652
        },
        {
            "buffer" : 0,
            "byteLength" : 7512,
            "byteOffset" : 27920
        },
        {
            "buffer" : 0,
            "byteLength" : 7512,
            "byteOffset" : 35432
        },
        {
            "buffer" : 0,
            "byteLength" : 3756,
            "byteOffset" : 42944
        },
        {
            "buffer" : 0,
            "byteLength" : 15024,
            "byteOffset" : 46700
        },
        {
            "buffer" : 0,
            "byteLength" : 8724,
            "byteOffset" : 61724
        },
        {
            "buffer" : 0,
            "byteLength" : 144,
            "byteOffset" : 70448
        },
        {
            "buffer" : 0,
            "byteLength" : 432,
            "byteOffset" : 70592
        },
        {
            "buffer" : 0,
            "byteLength" : 576,
            "byteOffset" : 71024
        },
        {
            "buffer" : 0,
            "byteLength" : 432,
            "byteOffset" : 71600
        },
        {
            "buffer" : 0,
            "byteLength" : 432,
            "byteOffset" : 72032
        },
        {
            "buffer" : 0,
            "byteLength" : 576,
            "byteOffset" : 72464
        },
        {
            "buffer" : 0,
            "byteLength" : 432,
            "byteOffset" : 73040
        },
        {
            "buffer" : 0,
            "byteLength" : 432,
            "byteOffset" : 73472
        },
        {
            "buffer" : 0,
            "byteLength" : 576,
            "byteOffset" : 73904
        },
        {
            "buffer" : 0,
            "byteLength" : 432,
            "byteOffset" : 74480
        },
        {
            "buffer" : 0,
            "byteLength" : 432,
            "byteOffset" : 74912
        },
        {
            "buffer" : 0,
            "byteLength" : 576,
            "byteOffset" : 75344
        },
        {
            "buffer" : 0,
            "byteLength" : 432,
            "byteOffset" : 75920
        },
        {
            "buffer" : 0,
            "byteLength" : 432,
            "byteOffset" : 76352
        },
        {
            "buffer" : 0,
            "byteLength" : 576,
            "byteOffset" : 76784
        },
        {
            "buffer" : 0,
            "byteLength" : 432,
            "byteOffset" : 77360
        },
        {
            "buffer" : 0,
            "byteLength" : 432,
            "byteOffset" : 77792
        },
        {
            "buffer" : 0,
            "byteLength" : 576,
            "byteOffset" : 78224
        },
        {
            "buffer" : 0,
            "byteLength" : 432,
            "byteOffset" : 78800
        },
        {
            "buffer" : 0,
            "byteLength" : 432,
            "byteOffset" : 79232
        },
        {
            "buffer" : 0,
            "byteLength" : 576,
            "byteOffset" : 79664
        },
        {
            "buffer" : 0,
            "byteLength" : 432,
            "byteOffset" : 80240
        },
        {
            "buffer" : 0,
            "byteLength" : 432,
            "byteOffset" : 80672
        },
        {
            "buffer" : 0,
            "byteLength" : 576,
            "byteOffset" : 81104
        },
        {
            "buffer" : 0,
            "byteLength" : 432,
            "byteOffset" : 81680
        },
        {
            "buffer" : 0,
            "byteLength" : 432,
            "byteOffset" : 82112
        },
        {
            "buffer" : 0,
            "byteLength" : 576,
            "byteOffset" : 82544
        },
        {
            "buffer" : 0,
            "byteLength" : 432,
            "byteOffset" : 83120
        },
        {
            "buffer" : 0,
            "byteLength" : 432,
            "byteOffset" : 83552
        },
        {
            "buffer" : 0,
            "byteLength" : 576,
            "byteOffset" : 83984
        },
        {
            "buffer" : 0,
            "byteLength" : 432,
            "byteOffset" : 84560
        },
        {
            "buffer" : 0,
            "byteLength" : 432,
            "byteOffset" : 84992
        },
        {
            "buffer" : 0,
            "byteLength" : 576,
            "byteOffset" : 85424
        },
        {
            "buffer" : 0,
            "byteLength" : 432,
            "byteOffset" : 86000
        },
        {
            "buffer" : 0,
            "byteLength" : 432,
            "byteOffset" : 86432
        },
        {
            "buffer" : 0,
            "byteLength" : 576,
            "byteOffset" : 86864
        },
        {
            "buffer" : 0,
            "byteLength" : 432,
            "byteOffset" : 87440
        },
        {
            "buffer" : 0,
            "byteLength" : 432,
            "byteOffset" : 87872
        },
        {
            "buffer" : 0,
            "byteLength" : 576,
            "byteOffset" : 88304
        },
        {
            "buffer" : 0,
            "byteLength" : 432,
            "byteOffset" : 88880
        },
        {
            "buffer" : 0,
            "byteLength" : 432,
            "byteOffset" : 89312
        },
        {
            "buffer" : 0,
            "byteLength" : 576,
            "byteOffset" : 89744
        },
        {
            "buffer" : 0,
            "byteLength" : 432,
            "byteOffset" : 90320
        },
        {
            "buffer" : 0,
            "byteLength" : 432,
            "byteOffset" : 90752
        },
        {
            "buffer" : 0,
            "byteLength" : 576,
            "byteOffset" : 91184
        },
        {
            "buffer" : 0,
            "byteLength" : 432,
            "byteOffset" : 91760
        },
        {
            "buffer" : 0,
            "byteLength" : 432,
            "byteOffset" : 92192
        },
        {
            "buffer" : 0,
            "byteLength" : 576,
            "byteOffset" : 92624
        },
        {
            "buffer" : 0,
            "byteLength" : 432,
            "byteOffset" : 93200
        },
        {
            "buffer" : 0,
            "byteLength" : 432,
            "byteOffset" : 93632
        },
        {
            "buffer" : 0,
            "byteLength" : 576,
            "byteOffset" : 94064
        },
        {
            "buffer" : 0,
            "byteLength" : 432,
            "byteOffset" : 94640
        },
        {
            "buffer" : 0,
            "byteLength" : 432,
            "byteOffset" : 95072
        },
        {
            "buffer" : 0,
            "byteLength" : 576,
            "byteOffset" : 95504
        },
        {
            "buffer" : 0,
            "byteLength" : 432,
            "byteOffset" : 96080
        },
        {
            "buffer" : 0,
            "byteLength" : 432,
            "byteOffset" : 96512
        },
        {
            "buffer" : 0,
            "byteLength" : 576,
            "byteOffset" : 96944
        },
        {
            "buffer" : 0,
            "byteLength" : 432,
            "byteOffset" : 97520
        },
        {
            "buffer" : 0,
            "byteLength" : 432,
            "byteOffset" : 97952
        },
        {
            "buffer" : 0,
            "byteLength" : 576,
            "byteOffset" : 98384
        },
        {
            "buffer" : 0,
            "byteLength" : 432,
            "byteOffset" : 98960
        },
        {
            "buffer" : 0,
            "byteLength" : 432,
            "byteOffset" : 99392
        },
        {
            "buffer" : 0,
            "byteLength" : 576,
            "byteOffset" : 99824
        },
        {
            "buffer" : 0,
            "byteLength" : 432,
            "byteOffset" : 100400
        },
        {
            "buffer" : 0,
            "byteLength" : 432,
            "byteOffset" : 100832
        },
        {
            "buffer" : 0,
            "byteLength" : 576,
            "byteOffset" : 101264
        },
        {
            "buffer" : 0,
            "byteLength" : 432,
            "byteOffset" : 101840
        },
        {
            "buffer" : 0,
            "byteLength" : 432,
            "byteOffset" : 102272
        },
        {
            "buffer" : 0,
            "byteLength" : 576,
            "byteOffset" : 102704
        },
        {
            "buffer" : 0,
            "byteLength" : 432,
            "byteOffset" : 103280
        },
        {
            "buffer" : 0,
            "byteLength" : 432,
            "byteOffset" : 103712
        },
        {
            "buffer" : 0,
            "byteLength" : 576,
            "byteOffset" : 104144
        },
        {
            "buffer" : 0,
            "byteLength" : 432,
            "byteOffset" : 104720
        },
        {
            "buffer" : 0,
            "byteLength" : 432,
            "byteOffset" : 105152
        },
        {
            "buffer" : 0,
            "byteLength" : 576,
            "byteOffset" : 105584
        },
        {
            "buffer" : 0,
            "byteLength" : 432,
            "byteOffset" : 106160
        },
        {
            "buffer" : 0,
            "byteLength" : 432,
            "byteOffset" : 106592
        },
        {
            "buffer" : 0,
            "byteLength" : 576,
            "byteOffset" : 107024
        },
        {
            "buffer" : 0,
            "byteLength" : 432,
            "byteOffset" : 107600
        },
        {
            "buffer" : 0,
            "byteLength" : 432,
            "byteOffset" : 108032
        },
        {
            "buffer" : 0,
            "byteLength" : 576,
            "byteOffset" : 108464
        },
        {
            "buffer" : 0,
            "byteLength" : 432,
            "byteOffset" : 109040
        },
        {
            "buffer" : 0,
            "byteLength" : 432,
            "byteOffset" : 109472
        },
        {
            "buffer" : 0,
            "byteLength" : 576,
            "byteOffset" : 109904
        },
        {
            "buffer" : 0,
            "byteLength" : 432,
            "byteOffset" : 110480
        },
        {
            "buffer" : 0,
            "byteLength" : 432,
            "byteOffset" : 110912
        },
        {
            "buffer" : 0,
            "byteLength" : 576,
            "byteOffset" : 111344
        },
        {
            "buffer" : 0,
            "byteLength" : 432,
            "byteOffset" : 111920
        },
        {
            "buffer" : 0,
            "byteLength" : 432,
            "byteOffset" : 112352
        },
        {
            "buffer" : 0,
            "byteLength" : 576,
            "byteOffset" : 112784
        },
        {
            "buffer" : 0,
            "byteLength" : 432,
            "byteOffset" : 113360
        },
        {
            "buffer" : 0,
            "byteLength" : 432,
            "byteOffset" : 113792
        },
        {
            "buffer" : 0,
            "byteLength" : 576,
            "byteOffset" : 114224
        },
        {
            "buffer" : 0,
            "byteLength" : 432,
            "byteOffset" : 114800
        },
        {
            "buffer" : 0,
            "byteLength" : 432,
            "byteOffset" : 115232
        },
        {
            "buffer" : 0,
            "byteLength" : 576,
            "byteOffset" : 115664
        },
        {
            "buffer" : 0,
            "byteLength" : 432,
            "byteOffset" : 116240
        },
        {
            "buffer" : 0,
            "byteLength" : 432,
            "byteOffset" : 116672
        },
        {
            "buffer" : 0,
            "byteLength" : 576,
            "byteOffset" : 117104
        },
        {
            "buffer" : 0,
            "byteLength" : 432,
            "byteOffset" : 117680
        },
        {
            "buffer" : 0,
            "byteLength" : 432,
            "byteOffset" : 118112
        },
        {
            "buffer" : 0,
            "byteLength" : 576,
            "byteOffset" : 118544
        },
        {
            "buffer" : 0,
            "byteLength" : 432,
            "byteOffset" : 119120
        },
        {
            "buffer" : 0,
            "byteLength" : 432,
            "byteOffset" : 119552
        },
        {
            "buffer" : 0,
            "byteLength" : 576,
            "byteOffset" : 119984
        },
        {
            "buffer" : 0,
            "byteLength" : 432,
            "byteOffset" : 120560
        },
        {
            "buffer" : 0,
            "byteLength" : 432,
            "byteOffset" : 120992
        },
        {
            "buffer" : 0,
            "byteLength" : 576,
            "byteOffset" : 121424
        },
        {
            "buffer" : 0,
            "byteLength" : 432,
            "byteOffset" : 122000
        },
        {
            "buffer" : 0,
            "byteLength" : 432,
            "byteOffset" : 122432
        },
        {
            "buffer" : 0,
            "byteLength" : 576,
            "byteOffset" : 122864
        },
        {
            "buffer" : 0,
            "byteLength" : 432,
            "byteOffset" : 123440
        }
    ],
    "buffers" : [
        {
            "byteLength" : 123872,
            "uri" : "skill.bin"
        }
    ]
}
