{
    "asset" : {
        "generator" : "Khronos glTF Blender I/O v1.5.17",
        "version" : "2.0"
    },
    "scene" : 0,
    "scenes" : [
        {
            "name" : "Scene",
            "nodes" : [
                38
            ]
        }
    ],
    "nodes" : [
        {
            "name" : "Bip001 Footsteps",
            "rotation" : [
                -0.07244083285331726,
                0.884811282157898,
                0.11504465341567993,
                0.4456748366355896
            ],
            "translation" : [
                1.4091953039169312,
                -5.8815789222717285,
                -0.849014937877655
            ]
        },
        {
            "name" : "Bip001 L Finger02",
            "rotation" : [
                -1.936261242008186e-06,
                -1.324146865044895e-06,
                -0.17268308997154236,
                0.9849775433540344
            ],
            "scale" : [
                1.0000001192092896,
                0.9999998807907104,
                1.0000001192092896
            ],
            "translation" : [
                8.617301716640213e-08,
                0.30469557642936707,
                5.289911655381729e-07
            ]
        },
        {
            "children" : [
                1
            ],
            "name" : "Bip001 L Finger01",
            "rotation" : [
                1.1406614248699043e-06,
                6.584183438462787e-07,
                -0.07839242368936539,
                0.9969226121902466
            ],
            "scale" : [
                0.9999998807907104,
                0.9999999403953552,
                0.9999997615814209
            ],
            "translation" : [
                8.893178460311901e-08,
                0.5172446370124817,
                1.4901168299275014e-07
            ]
        },
        {
            "children" : [
                2
            ],
            "name" : "Bip001 L Finger0",
            "rotation" : [
                0.3172409236431122,
                0.5869707465171814,
                -0.010114936158061028,
                0.744796097278595
            ],
            "scale" : [
                0.9999998211860657,
                1,
                1.0000001192092896
            ],
            "translation" : [
                0.08181288838386536,
                0.9409466981887817,
                0.5803804993629456
            ]
        },
        {
            "name" : "Bip001 L Finger12",
            "rotation" : [
                1.4144997066978249e-06,
                6.202965892043721e-07,
                -0.293512761592865,
                0.9559551477432251
            ],
            "scale" : [
                1.0000001192092896,
                1,
                1
            ],
            "translation" : [
                -8.940711637706045e-08,
                0.2526036202907562,
                7.450580596923828e-08
            ]
        },
        {
            "children" : [
                4
            ],
            "name" : "Bip001 L Finger11",
            "rotation" : [
                -1.650241529205232e-06,
                -8.345763831130171e-07,
                -0.26305317878723145,
                0.9647813439369202
            ],
            "scale" : [
                0.9999999403953552,
                0.9999999403953552,
                0.9999998807907104
            ],
            "translation" : [
                5.216364229454484e-07,
                0.34153643250465393,
                -2.980029023547104e-08
            ]
        },
        {
            "children" : [
                5
            ],
            "name" : "Bip001 L Finger1",
            "rotation" : [
                -0.04713880643248558,
                -0.005260550882667303,
                -0.20104865729808807,
                0.9784323573112488
            ],
            "scale" : [
                0.9999998807907104,
                0.9999997019767761,
                1.0000001192092896
            ],
            "translation" : [
                0.00036157522117719054,
                1.7707749605178833,
                0.041458386927843094
            ]
        },
        {
            "children" : [
                3,
                6
            ],
            "name" : "Bip001 L Hand",
            "rotation" : [
                0.03815356642007828,
                -0.5119441151618958,
                0.03875633701682091,
                0.8572955131530762
            ],
            "scale" : [
                0.9999998807907104,
                0.9999997615814209,
                1
            ],
            "translation" : [
                2.9675286228325604e-08,
                1.846413254737854,
                -6.442309086196474e-08
            ]
        },
        {
            "children" : [
                7
            ],
            "name" : "Bip001 L Forearm",
            "rotation" : [
                -5.808630021419958e-07,
                -1.5899600214197562e-07,
                0.2635062634944916,
                0.9646577835083008
            ],
            "scale" : [
                0.9999999403953552,
                1.0000001192092896,
                1.0000001192092896
            ],
            "translation" : [
                -3.338934106977831e-07,
                2.3758394718170166,
                -2.384188633186568e-07
            ]
        },
        {
            "children" : [
                8
            ],
            "name" : "Bip001 L UpperArm",
            "rotation" : [
                0.4273073971271515,
                -0.02933061309158802,
                0.06615123897790909,
                0.9012059569358826
            ],
            "scale" : [
                1.0000001192092896,
                1.0000001192092896,
                1.0000001192092896
            ],
            "translation" : [
                -7.246303823649214e-08,
                0.9862539768218994,
                -8.524474992555042e-08
            ]
        },
        {
            "children" : [
                9
            ],
            "name" : "Bip001 L Clavicle",
            "rotation" : [
                -0.0677880346775055,
                0.5798389315605164,
                -0.8115637302398682,
                0.023579463362693787
            ],
            "scale" : [
                1,
                1,
                1.0000001192092896
            ],
            "translation" : [
                0.2439752221107483,
                0.03656861186027527,
                -0.890289306640625
            ]
        },
        {
            "name" : "Bip001 R Finger02",
            "rotation" : [
                -2.704230155359255e-06,
                6.043229063834588e-07,
                -0.1726803034543991,
                0.9849779605865479
            ],
            "scale" : [
                1,
                0.9999997019767761,
                0.9999998807907104
            ],
            "translation" : [
                -8.023704367587925e-08,
                0.304694801568985,
                -6.370253231580136e-07
            ]
        },
        {
            "children" : [
                11
            ],
            "name" : "Bip001 R Finger01",
            "rotation" : [
                3.861217976464104e-07,
                1.8563051540354536e-08,
                -0.23338095843791962,
                0.9723854064941406
            ],
            "scale" : [
                1.000000238418579,
                1.000000238418579,
                0.9999999403953552
            ],
            "translation" : [
                2.3939239213177643e-07,
                0.5172446370124817,
                7.74860438923497e-07
            ]
        },
        {
            "children" : [
                12
            ],
            "name" : "Bip001 R Finger0",
            "rotation" : [
                -0.3449389934539795,
                -0.5531931519508362,
                -0.1914520263671875,
                0.7337170243263245
            ],
            "scale" : [
                0.9999997019767761,
                0.9999998807907104,
                1.0000001192092896
            ],
            "translation" : [
                0.08181187510490417,
                0.9409458637237549,
                -0.580380916595459
            ]
        },
        {
            "name" : "Bip001 R Finger12",
            "rotation" : [
                2.3742801147363934e-07,
                -5.448022193377255e-07,
                -0.5383080840110779,
                0.8427481055259705
            ],
            "scale" : [
                1,
                0.9999997615814209,
                1
            ],
            "translation" : [
                6.73782778903842e-07,
                0.25260284543037415,
                4.1723222921064007e-07
            ]
        },
        {
            "children" : [
                14
            ],
            "name" : "Bip001 R Finger11",
            "rotation" : [
                -4.860595481659402e-07,
                2.4290960709549836e-07,
                -0.42658939957618713,
                0.9044455289840698
            ],
            "scale" : [
                1,
                0.9999998807907104,
                0.9999998211860657
            ],
            "translation" : [
                3.350379529365455e-08,
                0.34153681993484497,
                5.96045488521213e-08
            ]
        },
        {
            "children" : [
                15
            ],
            "name" : "Bip001 R Finger1",
            "rotation" : [
                0.1985768973827362,
                0.005107655189931393,
                -0.394996702671051,
                0.8969497084617615
            ],
            "scale" : [
                0.9999999403953552,
                1,
                0.9999999403953552
            ],
            "translation" : [
                0.00035961487446911633,
                1.7707750797271729,
                -0.04145871475338936
            ]
        },
        {
            "children" : [
                13,
                16
            ],
            "name" : "Bip001 R Hand",
            "rotation" : [
                0.17498968541622162,
                0.7742577195167542,
                0.057990431785583496,
                0.605426013469696
            ],
            "scale" : [
                1.0000001192092896,
                0.9999999403953552,
                1.0000001192092896
            ],
            "translation" : [
                2.2175352398789983e-07,
                1.84641432762146,
                2.061149189103162e-07
            ]
        },
        {
            "children" : [
                17
            ],
            "name" : "Bip001 R Forearm",
            "rotation" : [
                1.7442744137952104e-07,
                -6.927282747426489e-09,
                0.20319604873657227,
                0.9791380763053894
            ],
            "scale" : [
                0.9999999403953552,
                1.0000001192092896,
                0.9999998211860657
            ],
            "translation" : [
                -8.654977534661157e-08,
                2.3758397102355957,
                -1.4901115008569832e-08
            ]
        },
        {
            "children" : [
                18
            ],
            "name" : "Bip001 R UpperArm",
            "rotation" : [
                -0.42102545499801636,
                0.25327780842781067,
                -0.011645747348666191,
                0.8708916902542114
            ],
            "scale" : [
                1.0000003576278687,
                1.000000238418579,
                1.000000238418579
            ],
            "translation" : [
                3.068098308744993e-08,
                0.986253559589386,
                7.542827802353713e-07
            ]
        },
        {
            "children" : [
                19
            ],
            "name" : "Bip001 R Clavicle",
            "rotation" : [
                0.09343858063220978,
                -0.49772337079048157,
                -0.8622872829437256,
                0.0011782965157181025
            ],
            "scale" : [
                1,
                1,
                0.9999998211860657
            ],
            "translation" : [
                -0.45603615045547485,
                -0.1859709620475769,
                0.7808293104171753
            ]
        },
        {
            "name" : "Bone001",
            "rotation" : [
                -0.8320777416229248,
                -0.5546591281890869,
                5.878305273654405e-07,
                7.130103085728479e-07
            ],
            "scale" : [
                1.0000001192092896,
                0.9999999403953552,
                1.0000003576278687
            ],
            "translation" : [
                0.020197244361042976,
                0.19279462099075317,
                7.045468350952433e-07
            ]
        },
        {
            "children" : [
                21
            ],
            "name" : "Bip001 Head",
            "rotation" : [
                -0.1586253046989441,
                0.13784325122833252,
                0.32462117075920105,
                0.922203004360199
            ],
            "scale" : [
                0.9999998807907104,
                0.9999999403953552,
                1
            ],
            "translation" : [
                3.5965385336567124e-07,
                1.1019045114517212,
                1.378356273562531e-07
            ]
        },
        {
            "children" : [
                10,
                20,
                22
            ],
            "name" : "Bip001 Neck",
            "rotation" : [
                -0.053219374269247055,
                0.19858022034168243,
                -0.044960178434848785,
                0.9776053428649902
            ],
            "scale" : [
                0.9999999403953552,
                1,
                0.9999999403953552
            ],
            "translation" : [
                -0.23432829976081848,
                2.997027635574341,
                0.0003367315512150526
            ]
        },
        {
            "children" : [
                23
            ],
            "name" : "Bip001 Spine1",
            "rotation" : [
                0.04119548946619034,
                0.028851600363850594,
                -0.34941983222961426,
                0.9356154799461365
            ],
            "scale" : [
                1.0000001192092896,
                1,
                0.9999999403953552
            ],
            "translation" : [
                -0.0014391393633559346,
                1.7980306148529053,
                0.00015794139471836388
            ]
        },
        {
            "name" : "Bip001 L Toe0",
            "rotation" : [
                4.6427249600355935e-08,
                2.9733288897659804e-07,
                0.7071066498756409,
                0.70710688829422
            ],
            "scale" : [
                0.9999998807907104,
                1,
                1
            ],
            "translation" : [
                0.8066030144691467,
                1.3259631395339966,
                -6.556508083122026e-07
            ]
        },
        {
            "children" : [
                25
            ],
            "name" : "Bip001 L Foot",
            "rotation" : [
                0.7400655746459961,
                0.6460074186325073,
                -0.04861057922244072,
                0.18059495091438293
            ],
            "scale" : [
                0.9999998807907104,
                1.0000001192092896,
                1.0000001192092896
            ],
            "translation" : [
                4.352720566203061e-07,
                3.3164174556732178,
                4.959487753808389e-08
            ]
        },
        {
            "children" : [
                26
            ],
            "name" : "Bip001 L Calf",
            "rotation" : [
                -1.5944005227197522e-08,
                -1.2953915984326159e-07,
                0.5078743100166321,
                0.8614311814308167
            ],
            "scale" : [
                1.000000238418579,
                1,
                0.9999999403953552
            ],
            "translation" : [
                -1.12004727270687e-07,
                2.6564342975616455,
                -4.470351555596608e-08
            ]
        },
        {
            "children" : [
                27
            ],
            "name" : "Bip001 L Thigh",
            "rotation" : [
                -0.8553175330162048,
                -0.44119083881378174,
                -0.08778548985719681,
                0.25705328583717346
            ],
            "scale" : [
                0.9999995827674866,
                0.9999998807907104,
                0.999999463558197
            ],
            "translation" : [
                -0.4207744300365448,
                -0.7101976275444031,
                -1.0697283744812012
            ]
        },
        {
            "name" : "Bip001 R Toe0",
            "rotation" : [
                3.5297986755722377e-07,
                -8.949620564635552e-07,
                0.7071068286895752,
                0.7071067094802856
            ],
            "scale" : [
                0.9999997615814209,
                1,
                0.9999997615814209
            ],
            "translation" : [
                0.806602954864502,
                1.3259633779525757,
                8.0466287499803e-07
            ]
        },
        {
            "children" : [
                29
            ],
            "name" : "Bip001 R Foot",
            "rotation" : [
                -0.8385726809501648,
                -0.5282596349716187,
                -0.13166368007659912,
                0.02005815878510475
            ],
            "scale" : [
                0.9999999403953552,
                1.000000238418579,
                1.0000001192092896
            ],
            "translation" : [
                1.7751774805674359e-07,
                3.3164169788360596,
                4.7523631252488485e-08
            ]
        },
        {
            "children" : [
                30
            ],
            "name" : "Bip001 R Calf",
            "rotation" : [
                -1.5008160403340298e-07,
                -3.183467356393521e-08,
                0.13124781847000122,
                0.9913496971130371
            ],
            "scale" : [
                0.9999998211860657,
                0.9999998211860657,
                0.9999997019767761
            ],
            "translation" : [
                3.305881079995743e-08,
                2.6564347743988037,
                1.1920936060505483e-07
            ]
        },
        {
            "children" : [
                31
            ],
            "name" : "Bip001 R Thigh",
            "rotation" : [
                0.9835644960403442,
                0.0928267166018486,
                -0.12837140262126923,
                0.08663097769021988
            ],
            "scale" : [
                0.9999986886978149,
                0.9999999403953552,
                0.9999989867210388
            ],
            "translation" : [
                -0.0930122435092926,
                -0.5928956270217896,
                1.2109955549240112
            ]
        },
        {
            "children" : [
                24,
                28,
                32
            ],
            "name" : "Bip001 Spine",
            "rotation" : [
                0.022355349734425545,
                -0.07228357344865799,
                -0.04358959570527077,
                0.9961803555488586
            ],
            "scale" : [
                1.0000001192092896,
                1.0000001192092896,
                1.000000238418579
            ],
            "translation" : [
                0.3180212676525116,
                0.6279805898666382,
                -0.0002034230128629133
            ]
        },
        {
            "children" : [
                33
            ],
            "name" : "Bip001 Pelvis",
            "rotation" : [
                7.916240996053148e-09,
                7.534399628639221e-07,
                3.9814043617525385e-08,
                1
            ],
            "scale" : [
                0.9999998211860657,
                1,
                1.000000238418579
            ],
            "translation" : [
                1.2106429636560279e-08,
                -1.764013290994626e-08,
                -1.4568794171054833e-08
            ]
        },
        {
            "name" : "Bip001 Prop1",
            "rotation" : [
                -0.21686193346977234,
                0.4127305746078491,
                -0.8355487585067749,
                0.29065898060798645
            ],
            "scale" : [
                1,
                0.9999998211860657,
                0.9999999403953552
            ],
            "translation" : [
                -0.022742509841918945,
                -1.43510103225708,
                2.9278738498687744
            ]
        },
        {
            "mesh" : 0,
            "name" : "Object01",
            "skin" : 0
        },
        {
            "mesh" : 1,
            "name" : "Object02",
            "skin" : 0
        },
        {
            "children" : [
                0,
                36,
                37,
                34,
                35
            ],
            "name" : "Bip001",
            "rotation" : [
                0.07244084030389786,
                -0.8848114013671875,
                -0.11504461616277695,
                0.4456748962402344
            ],
            "scale" : [
                0.02539999783039093,
                0.02539999969303608,
                0.02539999969303608
            ],
            "translation" : [
                0,
                0.15535125136375427,
                0
            ]
        }
    ],
    "animations" : [
        {
            "channels" : [
                {
                    "sampler" : 0,
                    "target" : {
                        "node" : 34,
                        "path" : "translation"
                    }
                },
                {
                    "sampler" : 1,
                    "target" : {
                        "node" : 34,
                        "path" : "rotation"
                    }
                },
                {
                    "sampler" : 2,
                    "target" : {
                        "node" : 34,
                        "path" : "scale"
                    }
                },
                {
                    "sampler" : 3,
                    "target" : {
                        "node" : 33,
                        "path" : "translation"
                    }
                },
                {
                    "sampler" : 4,
                    "target" : {
                        "node" : 33,
                        "path" : "rotation"
                    }
                },
                {
                    "sampler" : 5,
                    "target" : {
                        "node" : 33,
                        "path" : "scale"
                    }
                },
                {
                    "sampler" : 6,
                    "target" : {
                        "node" : 24,
                        "path" : "translation"
                    }
                },
                {
                    "sampler" : 7,
                    "target" : {
                        "node" : 24,
                        "path" : "rotation"
                    }
                },
                {
                    "sampler" : 8,
                    "target" : {
                        "node" : 24,
                        "path" : "scale"
                    }
                },
                {
                    "sampler" : 9,
                    "target" : {
                        "node" : 23,
                        "path" : "translation"
                    }
                },
                {
                    "sampler" : 10,
                    "target" : {
                        "node" : 23,
                        "path" : "rotation"
                    }
                },
                {
                    "sampler" : 11,
                    "target" : {
                        "node" : 23,
                        "path" : "scale"
                    }
                },
                {
                    "sampler" : 12,
                    "target" : {
                        "node" : 10,
                        "path" : "translation"
                    }
                },
                {
                    "sampler" : 13,
                    "target" : {
                        "node" : 10,
                        "path" : "rotation"
                    }
                },
                {
                    "sampler" : 14,
                    "target" : {
                        "node" : 10,
                        "path" : "scale"
                    }
                },
                {
                    "sampler" : 15,
                    "target" : {
                        "node" : 9,
                        "path" : "translation"
                    }
                },
                {
                    "sampler" : 16,
                    "target" : {
                        "node" : 9,
                        "path" : "rotation"
                    }
                },
                {
                    "sampler" : 17,
                    "target" : {
                        "node" : 9,
                        "path" : "scale"
                    }
                },
                {
                    "sampler" : 18,
                    "target" : {
                        "node" : 8,
                        "path" : "translation"
                    }
                },
                {
                    "sampler" : 19,
                    "target" : {
                        "node" : 8,
                        "path" : "rotation"
                    }
                },
                {
                    "sampler" : 20,
                    "target" : {
                        "node" : 8,
                        "path" : "scale"
                    }
                },
                {
                    "sampler" : 21,
                    "target" : {
                        "node" : 7,
                        "path" : "translation"
                    }
                },
                {
                    "sampler" : 22,
                    "target" : {
                        "node" : 7,
                        "path" : "rotation"
                    }
                },
                {
                    "sampler" : 23,
                    "target" : {
                        "node" : 7,
                        "path" : "scale"
                    }
                },
                {
                    "sampler" : 24,
                    "target" : {
                        "node" : 3,
                        "path" : "translation"
                    }
                },
                {
                    "sampler" : 25,
                    "target" : {
                        "node" : 3,
                        "path" : "rotation"
                    }
                },
                {
                    "sampler" : 26,
                    "target" : {
                        "node" : 3,
                        "path" : "scale"
                    }
                },
                {
                    "sampler" : 27,
                    "target" : {
                        "node" : 2,
                        "path" : "translation"
                    }
                },
                {
                    "sampler" : 28,
                    "target" : {
                        "node" : 2,
                        "path" : "rotation"
                    }
                },
                {
                    "sampler" : 29,
                    "target" : {
                        "node" : 2,
                        "path" : "scale"
                    }
                },
                {
                    "sampler" : 30,
                    "target" : {
                        "node" : 1,
                        "path" : "translation"
                    }
                },
                {
                    "sampler" : 31,
                    "target" : {
                        "node" : 1,
                        "path" : "rotation"
                    }
                },
                {
                    "sampler" : 32,
                    "target" : {
                        "node" : 1,
                        "path" : "scale"
                    }
                },
                {
                    "sampler" : 33,
                    "target" : {
                        "node" : 6,
                        "path" : "translation"
                    }
                },
                {
                    "sampler" : 34,
                    "target" : {
                        "node" : 6,
                        "path" : "rotation"
                    }
                },
                {
                    "sampler" : 35,
                    "target" : {
                        "node" : 6,
                        "path" : "scale"
                    }
                },
                {
                    "sampler" : 36,
                    "target" : {
                        "node" : 5,
                        "path" : "translation"
                    }
                },
                {
                    "sampler" : 37,
                    "target" : {
                        "node" : 5,
                        "path" : "rotation"
                    }
                },
                {
                    "sampler" : 38,
                    "target" : {
                        "node" : 5,
                        "path" : "scale"
                    }
                },
                {
                    "sampler" : 39,
                    "target" : {
                        "node" : 4,
                        "path" : "translation"
                    }
                },
                {
                    "sampler" : 40,
                    "target" : {
                        "node" : 4,
                        "path" : "rotation"
                    }
                },
                {
                    "sampler" : 41,
                    "target" : {
                        "node" : 4,
                        "path" : "scale"
                    }
                },
                {
                    "sampler" : 42,
                    "target" : {
                        "node" : 20,
                        "path" : "translation"
                    }
                },
                {
                    "sampler" : 43,
                    "target" : {
                        "node" : 20,
                        "path" : "rotation"
                    }
                },
                {
                    "sampler" : 44,
                    "target" : {
                        "node" : 20,
                        "path" : "scale"
                    }
                },
                {
                    "sampler" : 45,
                    "target" : {
                        "node" : 19,
                        "path" : "translation"
                    }
                },
                {
                    "sampler" : 46,
                    "target" : {
                        "node" : 19,
                        "path" : "rotation"
                    }
                },
                {
                    "sampler" : 47,
                    "target" : {
                        "node" : 19,
                        "path" : "scale"
                    }
                },
                {
                    "sampler" : 48,
                    "target" : {
                        "node" : 18,
                        "path" : "translation"
                    }
                },
                {
                    "sampler" : 49,
                    "target" : {
                        "node" : 18,
                        "path" : "rotation"
                    }
                },
                {
                    "sampler" : 50,
                    "target" : {
                        "node" : 18,
                        "path" : "scale"
                    }
                },
                {
                    "sampler" : 51,
                    "target" : {
                        "node" : 17,
                        "path" : "translation"
                    }
                },
                {
                    "sampler" : 52,
                    "target" : {
                        "node" : 17,
                        "path" : "rotation"
                    }
                },
                {
                    "sampler" : 53,
                    "target" : {
                        "node" : 17,
                        "path" : "scale"
                    }
                },
                {
                    "sampler" : 54,
                    "target" : {
                        "node" : 13,
                        "path" : "translation"
                    }
                },
                {
                    "sampler" : 55,
                    "target" : {
                        "node" : 13,
                        "path" : "rotation"
                    }
                },
                {
                    "sampler" : 56,
                    "target" : {
                        "node" : 13,
                        "path" : "scale"
                    }
                },
                {
                    "sampler" : 57,
                    "target" : {
                        "node" : 12,
                        "path" : "translation"
                    }
                },
                {
                    "sampler" : 58,
                    "target" : {
                        "node" : 12,
                        "path" : "rotation"
                    }
                },
                {
                    "sampler" : 59,
                    "target" : {
                        "node" : 12,
                        "path" : "scale"
                    }
                },
                {
                    "sampler" : 60,
                    "target" : {
                        "node" : 11,
                        "path" : "translation"
                    }
                },
                {
                    "sampler" : 61,
                    "target" : {
                        "node" : 11,
                        "path" : "rotation"
                    }
                },
                {
                    "sampler" : 62,
                    "target" : {
                        "node" : 11,
                        "path" : "scale"
                    }
                },
                {
                    "sampler" : 63,
                    "target" : {
                        "node" : 16,
                        "path" : "translation"
                    }
                },
                {
                    "sampler" : 64,
                    "target" : {
                        "node" : 16,
                        "path" : "rotation"
                    }
                },
                {
                    "sampler" : 65,
                    "target" : {
                        "node" : 16,
                        "path" : "scale"
                    }
                },
                {
                    "sampler" : 66,
                    "target" : {
                        "node" : 15,
                        "path" : "translation"
                    }
                },
                {
                    "sampler" : 67,
                    "target" : {
                        "node" : 15,
                        "path" : "rotation"
                    }
                },
                {
                    "sampler" : 68,
                    "target" : {
                        "node" : 15,
                        "path" : "scale"
                    }
                },
                {
                    "sampler" : 69,
                    "target" : {
                        "node" : 14,
                        "path" : "translation"
                    }
                },
                {
                    "sampler" : 70,
                    "target" : {
                        "node" : 14,
                        "path" : "rotation"
                    }
                },
                {
                    "sampler" : 71,
                    "target" : {
                        "node" : 14,
                        "path" : "scale"
                    }
                },
                {
                    "sampler" : 72,
                    "target" : {
                        "node" : 22,
                        "path" : "translation"
                    }
                },
                {
                    "sampler" : 73,
                    "target" : {
                        "node" : 22,
                        "path" : "rotation"
                    }
                },
                {
                    "sampler" : 74,
                    "target" : {
                        "node" : 22,
                        "path" : "scale"
                    }
                },
                {
                    "sampler" : 75,
                    "target" : {
                        "node" : 21,
                        "path" : "translation"
                    }
                },
                {
                    "sampler" : 76,
                    "target" : {
                        "node" : 21,
                        "path" : "rotation"
                    }
                },
                {
                    "sampler" : 77,
                    "target" : {
                        "node" : 21,
                        "path" : "scale"
                    }
                },
                {
                    "sampler" : 78,
                    "target" : {
                        "node" : 28,
                        "path" : "translation"
                    }
                },
                {
                    "sampler" : 79,
                    "target" : {
                        "node" : 28,
                        "path" : "rotation"
                    }
                },
                {
                    "sampler" : 80,
                    "target" : {
                        "node" : 28,
                        "path" : "scale"
                    }
                },
                {
                    "sampler" : 81,
                    "target" : {
                        "node" : 27,
                        "path" : "translation"
                    }
                },
                {
                    "sampler" : 82,
                    "target" : {
                        "node" : 27,
                        "path" : "rotation"
                    }
                },
                {
                    "sampler" : 83,
                    "target" : {
                        "node" : 27,
                        "path" : "scale"
                    }
                },
                {
                    "sampler" : 84,
                    "target" : {
                        "node" : 26,
                        "path" : "translation"
                    }
                },
                {
                    "sampler" : 85,
                    "target" : {
                        "node" : 26,
                        "path" : "rotation"
                    }
                },
                {
                    "sampler" : 86,
                    "target" : {
                        "node" : 26,
                        "path" : "scale"
                    }
                },
                {
                    "sampler" : 87,
                    "target" : {
                        "node" : 25,
                        "path" : "translation"
                    }
                },
                {
                    "sampler" : 88,
                    "target" : {
                        "node" : 25,
                        "path" : "rotation"
                    }
                },
                {
                    "sampler" : 89,
                    "target" : {
                        "node" : 25,
                        "path" : "scale"
                    }
                },
                {
                    "sampler" : 90,
                    "target" : {
                        "node" : 32,
                        "path" : "translation"
                    }
                },
                {
                    "sampler" : 91,
                    "target" : {
                        "node" : 32,
                        "path" : "rotation"
                    }
                },
                {
                    "sampler" : 92,
                    "target" : {
                        "node" : 32,
                        "path" : "scale"
                    }
                },
                {
                    "sampler" : 93,
                    "target" : {
                        "node" : 31,
                        "path" : "translation"
                    }
                },
                {
                    "sampler" : 94,
                    "target" : {
                        "node" : 31,
                        "path" : "rotation"
                    }
                },
                {
                    "sampler" : 95,
                    "target" : {
                        "node" : 31,
                        "path" : "scale"
                    }
                },
                {
                    "sampler" : 96,
                    "target" : {
                        "node" : 30,
                        "path" : "translation"
                    }
                },
                {
                    "sampler" : 97,
                    "target" : {
                        "node" : 30,
                        "path" : "rotation"
                    }
                },
                {
                    "sampler" : 98,
                    "target" : {
                        "node" : 30,
                        "path" : "scale"
                    }
                },
                {
                    "sampler" : 99,
                    "target" : {
                        "node" : 29,
                        "path" : "translation"
                    }
                },
                {
                    "sampler" : 100,
                    "target" : {
                        "node" : 29,
                        "path" : "rotation"
                    }
                },
                {
                    "sampler" : 101,
                    "target" : {
                        "node" : 29,
                        "path" : "scale"
                    }
                },
                {
                    "sampler" : 102,
                    "target" : {
                        "node" : 35,
                        "path" : "translation"
                    }
                },
                {
                    "sampler" : 103,
                    "target" : {
                        "node" : 35,
                        "path" : "rotation"
                    }
                },
                {
                    "sampler" : 104,
                    "target" : {
                        "node" : 35,
                        "path" : "scale"
                    }
                },
                {
                    "sampler" : 105,
                    "target" : {
                        "node" : 38,
                        "path" : "translation"
                    }
                },
                {
                    "sampler" : 106,
                    "target" : {
                        "node" : 38,
                        "path" : "rotation"
                    }
                },
                {
                    "sampler" : 107,
                    "target" : {
                        "node" : 38,
                        "path" : "scale"
                    }
                }
            ],
            "name" : "Bip001|Take 001|BaseLayer",
            "samplers" : [
                {
                    "input" : 15,
                    "interpolation" : "LINEAR",
                    "output" : 16
                },
                {
                    "input" : 15,
                    "interpolation" : "LINEAR",
                    "output" : 17
                },
                {
                    "input" : 15,
                    "interpolation" : "LINEAR",
                    "output" : 18
                },
                {
                    "input" : 15,
                    "interpolation" : "LINEAR",
                    "output" : 19
                },
                {
                    "input" : 15,
                    "interpolation" : "LINEAR",
                    "output" : 20
                },
                {
                    "input" : 15,
                    "interpolation" : "LINEAR",
                    "output" : 21
                },
                {
                    "input" : 15,
                    "interpolation" : "LINEAR",
                    "output" : 22
                },
                {
                    "input" : 15,
                    "interpolation" : "LINEAR",
                    "output" : 23
                },
                {
                    "input" : 15,
                    "interpolation" : "LINEAR",
                    "output" : 24
                },
                {
                    "input" : 15,
                    "interpolation" : "LINEAR",
                    "output" : 25
                },
                {
                    "input" : 15,
                    "interpolation" : "LINEAR",
                    "output" : 26
                },
                {
                    "input" : 15,
                    "interpolation" : "LINEAR",
                    "output" : 27
                },
                {
                    "input" : 15,
                    "interpolation" : "LINEAR",
                    "output" : 28
                },
                {
                    "input" : 15,
                    "interpolation" : "LINEAR",
                    "output" : 29
                },
                {
                    "input" : 15,
                    "interpolation" : "LINEAR",
                    "output" : 30
                },
                {
                    "input" : 15,
                    "interpolation" : "LINEAR",
                    "output" : 31
                },
                {
                    "input" : 15,
                    "interpolation" : "LINEAR",
                    "output" : 32
                },
                {
                    "input" : 15,
                    "interpolation" : "LINEAR",
                    "output" : 33
                },
                {
                    "input" : 15,
                    "interpolation" : "LINEAR",
                    "output" : 34
                },
                {
                    "input" : 15,
                    "interpolation" : "LINEAR",
                    "output" : 35
                },
                {
                    "input" : 15,
                    "interpolation" : "LINEAR",
                    "output" : 36
                },
                {
                    "input" : 15,
                    "interpolation" : "LINEAR",
                    "output" : 37
                },
                {
                    "input" : 15,
                    "interpolation" : "LINEAR",
                    "output" : 38
                },
                {
                    "input" : 15,
                    "interpolation" : "LINEAR",
                    "output" : 39
                },
                {
                    "input" : 15,
                    "interpolation" : "LINEAR",
                    "output" : 40
                },
                {
                    "input" : 15,
                    "interpolation" : "LINEAR",
                    "output" : 41
                },
                {
                    "input" : 15,
                    "interpolation" : "LINEAR",
                    "output" : 42
                },
                {
                    "input" : 15,
                    "interpolation" : "LINEAR",
                    "output" : 43
                },
                {
                    "input" : 15,
                    "interpolation" : "LINEAR",
                    "output" : 44
                },
                {
                    "input" : 15,
                    "interpolation" : "LINEAR",
                    "output" : 45
                },
                {
                    "input" : 15,
                    "interpolation" : "LINEAR",
                    "output" : 46
                },
                {
                    "input" : 15,
                    "interpolation" : "LINEAR",
                    "output" : 47
                },
                {
                    "input" : 15,
                    "interpolation" : "LINEAR",
                    "output" : 48
                },
                {
                    "input" : 15,
                    "interpolation" : "LINEAR",
                    "output" : 49
                },
                {
                    "input" : 15,
                    "interpolation" : "LINEAR",
                    "output" : 50
                },
                {
                    "input" : 15,
                    "interpolation" : "LINEAR",
                    "output" : 51
                },
                {
                    "input" : 15,
                    "interpolation" : "LINEAR",
                    "output" : 52
                },
                {
                    "input" : 15,
                    "interpolation" : "LINEAR",
                    "output" : 53
                },
                {
                    "input" : 15,
                    "interpolation" : "LINEAR",
                    "output" : 54
                },
                {
                    "input" : 15,
                    "interpolation" : "LINEAR",
                    "output" : 55
                },
                {
                    "input" : 15,
                    "interpolation" : "LINEAR",
                    "output" : 56
                },
                {
                    "input" : 15,
                    "interpolation" : "LINEAR",
                    "output" : 57
                },
                {
                    "input" : 15,
                    "interpolation" : "LINEAR",
                    "output" : 58
                },
                {
                    "input" : 15,
                    "interpolation" : "LINEAR",
                    "output" : 59
                },
                {
                    "input" : 15,
                    "interpolation" : "LINEAR",
                    "output" : 60
                },
                {
                    "input" : 15,
                    "interpolation" : "LINEAR",
                    "output" : 61
                },
                {
                    "input" : 15,
                    "interpolation" : "LINEAR",
                    "output" : 62
                },
                {
                    "input" : 15,
                    "interpolation" : "LINEAR",
                    "output" : 63
                },
                {
                    "input" : 15,
                    "interpolation" : "LINEAR",
                    "output" : 64
                },
                {
                    "input" : 15,
                    "interpolation" : "LINEAR",
                    "output" : 65
                },
                {
                    "input" : 15,
                    "interpolation" : "LINEAR",
                    "output" : 66
                },
                {
                    "input" : 15,
                    "interpolation" : "LINEAR",
                    "output" : 67
                },
                {
                    "input" : 15,
                    "interpolation" : "LINEAR",
                    "output" : 68
                },
                {
                    "input" : 15,
                    "interpolation" : "LINEAR",
                    "output" : 69
                },
                {
                    "input" : 15,
                    "interpolation" : "LINEAR",
                    "output" : 70
                },
                {
                    "input" : 15,
                    "interpolation" : "LINEAR",
                    "output" : 71
                },
                {
                    "input" : 15,
                    "interpolation" : "LINEAR",
                    "output" : 72
                },
                {
                    "input" : 15,
                    "interpolation" : "LINEAR",
                    "output" : 73
                },
                {
                    "input" : 15,
                    "interpolation" : "LINEAR",
                    "output" : 74
                },
                {
                    "input" : 15,
                    "interpolation" : "LINEAR",
                    "output" : 75
                },
                {
                    "input" : 15,
                    "interpolation" : "LINEAR",
                    "output" : 76
                },
                {
                    "input" : 15,
                    "interpolation" : "LINEAR",
                    "output" : 77
                },
                {
                    "input" : 15,
                    "interpolation" : "LINEAR",
                    "output" : 78
                },
                {
                    "input" : 15,
                    "interpolation" : "LINEAR",
                    "output" : 79
                },
                {
                    "input" : 15,
                    "interpolation" : "LINEAR",
                    "output" : 80
                },
                {
                    "input" : 15,
                    "interpolation" : "LINEAR",
                    "output" : 81
                },
                {
                    "input" : 15,
                    "interpolation" : "LINEAR",
                    "output" : 82
                },
                {
                    "input" : 15,
                    "interpolation" : "LINEAR",
                    "output" : 83
                },
                {
                    "input" : 15,
                    "interpolation" : "LINEAR",
                    "output" : 84
                },
                {
                    "input" : 15,
                    "interpolation" : "LINEAR",
                    "output" : 85
                },
                {
                    "input" : 15,
                    "interpolation" : "LINEAR",
                    "output" : 86
                },
                {
                    "input" : 15,
                    "interpolation" : "LINEAR",
                    "output" : 87
                },
                {
                    "input" : 15,
                    "interpolation" : "LINEAR",
                    "output" : 88
                },
                {
                    "input" : 15,
                    "interpolation" : "LINEAR",
                    "output" : 89
                },
                {
                    "input" : 15,
                    "interpolation" : "LINEAR",
                    "output" : 90
                },
                {
                    "input" : 15,
                    "interpolation" : "LINEAR",
                    "output" : 91
                },
                {
                    "input" : 15,
                    "interpolation" : "LINEAR",
                    "output" : 92
                },
                {
                    "input" : 15,
                    "interpolation" : "LINEAR",
                    "output" : 93
                },
                {
                    "input" : 15,
                    "interpolation" : "LINEAR",
                    "output" : 94
                },
                {
                    "input" : 15,
                    "interpolation" : "LINEAR",
                    "output" : 95
                },
                {
                    "input" : 15,
                    "interpolation" : "LINEAR",
                    "output" : 96
                },
                {
                    "input" : 15,
                    "interpolation" : "LINEAR",
                    "output" : 97
                },
                {
                    "input" : 15,
                    "interpolation" : "LINEAR",
                    "output" : 98
                },
                {
                    "input" : 15,
                    "interpolation" : "LINEAR",
                    "output" : 99
                },
                {
                    "input" : 15,
                    "interpolation" : "LINEAR",
                    "output" : 100
                },
                {
                    "input" : 15,
                    "interpolation" : "LINEAR",
                    "output" : 101
                },
                {
                    "input" : 15,
                    "interpolation" : "LINEAR",
                    "output" : 102
                },
                {
                    "input" : 15,
                    "interpolation" : "LINEAR",
                    "output" : 103
                },
                {
                    "input" : 15,
                    "interpolation" : "LINEAR",
                    "output" : 104
                },
                {
                    "input" : 15,
                    "interpolation" : "LINEAR",
                    "output" : 105
                },
                {
                    "input" : 15,
                    "interpolation" : "LINEAR",
                    "output" : 106
                },
                {
                    "input" : 15,
                    "interpolation" : "LINEAR",
                    "output" : 107
                },
                {
                    "input" : 15,
                    "interpolation" : "LINEAR",
                    "output" : 108
                },
                {
                    "input" : 15,
                    "interpolation" : "LINEAR",
                    "output" : 109
                },
                {
                    "input" : 15,
                    "interpolation" : "LINEAR",
                    "output" : 110
                },
                {
                    "input" : 15,
                    "interpolation" : "LINEAR",
                    "output" : 111
                },
                {
                    "input" : 15,
                    "interpolation" : "LINEAR",
                    "output" : 112
                },
                {
                    "input" : 15,
                    "interpolation" : "LINEAR",
                    "output" : 113
                },
                {
                    "input" : 15,
                    "interpolation" : "LINEAR",
                    "output" : 114
                },
                {
                    "input" : 15,
                    "interpolation" : "LINEAR",
                    "output" : 115
                },
                {
                    "input" : 15,
                    "interpolation" : "LINEAR",
                    "output" : 116
                },
                {
                    "input" : 15,
                    "interpolation" : "LINEAR",
                    "output" : 117
                },
                {
                    "input" : 15,
                    "interpolation" : "LINEAR",
                    "output" : 118
                },
                {
                    "input" : 15,
                    "interpolation" : "LINEAR",
                    "output" : 119
                },
                {
                    "input" : 15,
                    "interpolation" : "LINEAR",
                    "output" : 120
                },
                {
                    "input" : 15,
                    "interpolation" : "LINEAR",
                    "output" : 121
                },
                {
                    "input" : 15,
                    "interpolation" : "LINEAR",
                    "output" : 122
                },
                {
                    "input" : 15,
                    "interpolation" : "LINEAR",
                    "output" : 123
                }
            ]
        },
        {
            "channels" : [
                {
                    "sampler" : 0,
                    "target" : {
                        "node" : 0,
                        "path" : "translation"
                    }
                },
                {
                    "sampler" : 1,
                    "target" : {
                        "node" : 0,
                        "path" : "rotation"
                    }
                },
                {
                    "sampler" : 2,
                    "target" : {
                        "node" : 0,
                        "path" : "scale"
                    }
                }
            ],
            "name" : "Bip001 Footsteps|Take 001|BaseLayer",
            "samplers" : [
                {
                    "input" : 15,
                    "interpolation" : "LINEAR",
                    "output" : 124
                },
                {
                    "input" : 15,
                    "interpolation" : "LINEAR",
                    "output" : 125
                },
                {
                    "input" : 15,
                    "interpolation" : "LINEAR",
                    "output" : 126
                }
            ]
        }
    ],
    "materials" : [
        {
            "doubleSided" : true,
            "name" : "defaultsds",
            "pbrMetallicRoughness" : {
                "roughnessFactor" : 0.8964735269546509
            }
        }
    ],
    "meshes" : [
        {
            "name" : "Mesh.001",
            "primitives" : [
                {
                    "attributes" : {
                        "POSITION" : 0,
                        "NORMAL" : 1,
                        "TEXCOORD_0" : 2,
                        "COLOR_0" : 3,
                        "JOINTS_0" : 4,
                        "WEIGHTS_0" : 5
                    },
                    "indices" : 6,
                    "material" : 0
                }
            ]
        },
        {
            "name" : "Mesh",
            "primitives" : [
                {
                    "attributes" : {
                        "POSITION" : 8,
                        "NORMAL" : 9,
                        "TEXCOORD_0" : 10,
                        "COLOR_0" : 11,
                        "JOINTS_0" : 12,
                        "WEIGHTS_0" : 13
                    },
                    "indices" : 14,
                    "material" : 0
                }
            ]
        }
    ],
    "skins" : [
        {
            "inverseBindMatrices" : 7,
            "joints" : [
                34,
                33,
                24,
                23,
                10,
                9,
                8,
                7,
                3,
                2,
                1,
                6,
                5,
                4,
                20,
                19,
                18,
                17,
                13,
                12,
                11,
                16,
                15,
                14,
                22,
                21,
                28,
                27,
                26,
                25,
                32,
                31,
                30,
                29,
                35
            ],
            "name" : "Bip001"
        }
    ],
    "accessors" : [
        {
            "bufferView" : 0,
            "componentType" : 5126,
            "count" : 46,
            "max" : [
                -0.13358071446418762,
                0.23291759192943573,
                0.25300711393356323
            ],
            "min" : [
                -0.16764356195926666,
                0.16272391378879547,
                -0.03268027678132057
            ],
            "type" : "VEC3"
        },
        {
            "bufferView" : 1,
            "componentType" : 5126,
            "count" : 46,
            "type" : "VEC3"
        },
        {
            "bufferView" : 2,
            "componentType" : 5126,
            "count" : 46,
            "type" : "VEC2"
        },
        {
            "bufferView" : 3,
            "componentType" : 5123,
            "count" : 46,
            "normalized" : true,
            "type" : "VEC4"
        },
        {
            "bufferView" : 4,
            "componentType" : 5121,
            "count" : 46,
            "type" : "VEC4"
        },
        {
            "bufferView" : 5,
            "componentType" : 5126,
            "count" : 46,
            "type" : "VEC4"
        },
        {
            "bufferView" : 6,
            "componentType" : 5123,
            "count" : 192,
            "type" : "SCALAR"
        },
        {
            "bufferView" : 7,
            "componentType" : 5126,
            "count" : 35,
            "type" : "MAT4"
        },
        {
            "bufferView" : 8,
            "componentType" : 5126,
            "count" : 939,
            "max" : [
                0.16959954798221588,
                0.39173516631126404,
                0.054168328642845154
            ],
            "min" : [
                -0.1695995330810547,
                -1.3487905015097112e-08,
                -0.035031989216804504
            ],
            "type" : "VEC3"
        },
        {
            "bufferView" : 9,
            "componentType" : 5126,
            "count" : 939,
            "type" : "VEC3"
        },
        {
            "bufferView" : 10,
            "componentType" : 5126,
            "count" : 939,
            "type" : "VEC2"
        },
        {
            "bufferView" : 11,
            "componentType" : 5123,
            "count" : 939,
            "normalized" : true,
            "type" : "VEC4"
        },
        {
            "bufferView" : 12,
            "componentType" : 5121,
            "count" : 939,
            "type" : "VEC4"
        },
        {
            "bufferView" : 13,
            "componentType" : 5126,
            "count" : 939,
            "type" : "VEC4"
        },
        {
            "bufferView" : 14,
            "componentType" : 5123,
            "count" : 4362,
            "type" : "SCALAR"
        },
        {
            "bufferView" : 15,
            "componentType" : 5126,
            "count" : 53,
            "max" : [
                1.7666666666666666
            ],
            "min" : [
                0.03333333333333333
            ],
            "type" : "SCALAR"
        },
        {
            "bufferView" : 16,
            "componentType" : 5126,
            "count" : 53,
            "type" : "VEC3"
        },
        {
            "bufferView" : 17,
            "componentType" : 5126,
            "count" : 53,
            "type" : "VEC4"
        },
        {
            "bufferView" : 18,
            "componentType" : 5126,
            "count" : 53,
            "type" : "VEC3"
        },
        {
            "bufferView" : 19,
            "componentType" : 5126,
            "count" : 53,
            "type" : "VEC3"
        },
        {
            "bufferView" : 20,
            "componentType" : 5126,
            "count" : 53,
            "type" : "VEC4"
        },
        {
            "bufferView" : 21,
            "componentType" : 5126,
            "count" : 53,
            "type" : "VEC3"
        },
        {
            "bufferView" : 22,
            "componentType" : 5126,
            "count" : 53,
            "type" : "VEC3"
        },
        {
            "bufferView" : 23,
            "componentType" : 5126,
            "count" : 53,
            "type" : "VEC4"
        },
        {
            "bufferView" : 24,
            "componentType" : 5126,
            "count" : 53,
            "type" : "VEC3"
        },
        {
            "bufferView" : 25,
            "componentType" : 5126,
            "count" : 53,
            "type" : "VEC3"
        },
        {
            "bufferView" : 26,
            "componentType" : 5126,
            "count" : 53,
            "type" : "VEC4"
        },
        {
            "bufferView" : 27,
            "componentType" : 5126,
            "count" : 53,
            "type" : "VEC3"
        },
        {
            "bufferView" : 28,
            "componentType" : 5126,
            "count" : 53,
            "type" : "VEC3"
        },
        {
            "bufferView" : 29,
            "componentType" : 5126,
            "count" : 53,
            "type" : "VEC4"
        },
        {
            "bufferView" : 30,
            "componentType" : 5126,
            "count" : 53,
            "type" : "VEC3"
        },
        {
            "bufferView" : 31,
            "componentType" : 5126,
            "count" : 53,
            "type" : "VEC3"
        },
        {
            "bufferView" : 32,
            "componentType" : 5126,
            "count" : 53,
            "type" : "VEC4"
        },
        {
            "bufferView" : 33,
            "componentType" : 5126,
            "count" : 53,
            "type" : "VEC3"
        },
        {
            "bufferView" : 34,
            "componentType" : 5126,
            "count" : 53,
            "type" : "VEC3"
        },
        {
            "bufferView" : 35,
            "componentType" : 5126,
            "count" : 53,
            "type" : "VEC4"
        },
        {
            "bufferView" : 36,
            "componentType" : 5126,
            "count" : 53,
            "type" : "VEC3"
        },
        {
            "bufferView" : 37,
            "componentType" : 5126,
            "count" : 53,
            "type" : "VEC3"
        },
        {
            "bufferView" : 38,
            "componentType" : 5126,
            "count" : 53,
            "type" : "VEC4"
        },
        {
            "bufferView" : 39,
            "componentType" : 5126,
            "count" : 53,
            "type" : "VEC3"
        },
        {
            "bufferView" : 40,
            "componentType" : 5126,
            "count" : 53,
            "type" : "VEC3"
        },
        {
            "bufferView" : 41,
            "componentType" : 5126,
            "count" : 53,
            "type" : "VEC4"
        },
        {
            "bufferView" : 42,
            "componentType" : 5126,
            "count" : 53,
            "type" : "VEC3"
        },
        {
            "bufferView" : 43,
            "componentType" : 5126,
            "count" : 53,
            "type" : "VEC3"
        },
        {
            "bufferView" : 44,
            "componentType" : 5126,
            "count" : 53,
            "type" : "VEC4"
        },
        {
            "bufferView" : 45,
            "componentType" : 5126,
            "count" : 53,
            "type" : "VEC3"
        },
        {
            "bufferView" : 46,
            "componentType" : 5126,
            "count" : 53,
            "type" : "VEC3"
        },
        {
            "bufferView" : 47,
            "componentType" : 5126,
            "count" : 53,
            "type" : "VEC4"
        },
        {
            "bufferView" : 48,
            "componentType" : 5126,
            "count" : 53,
            "type" : "VEC3"
        },
        {
            "bufferView" : 49,
            "componentType" : 5126,
            "count" : 53,
            "type" : "VEC3"
        },
        {
            "bufferView" : 50,
            "componentType" : 5126,
            "count" : 53,
            "type" : "VEC4"
        },
        {
            "bufferView" : 51,
            "componentType" : 5126,
            "count" : 53,
            "type" : "VEC3"
        },
        {
            "bufferView" : 52,
            "componentType" : 5126,
            "count" : 53,
            "type" : "VEC3"
        },
        {
            "bufferView" : 53,
            "componentType" : 5126,
            "count" : 53,
            "type" : "VEC4"
        },
        {
            "bufferView" : 54,
            "componentType" : 5126,
            "count" : 53,
            "type" : "VEC3"
        },
        {
            "bufferView" : 55,
            "componentType" : 5126,
            "count" : 53,
            "type" : "VEC3"
        },
        {
            "bufferView" : 56,
            "componentType" : 5126,
            "count" : 53,
            "type" : "VEC4"
        },
        {
            "bufferView" : 57,
            "componentType" : 5126,
            "count" : 53,
            "type" : "VEC3"
        },
        {
            "bufferView" : 58,
            "componentType" : 5126,
            "count" : 53,
            "type" : "VEC3"
        },
        {
            "bufferView" : 59,
            "componentType" : 5126,
            "count" : 53,
            "type" : "VEC4"
        },
        {
            "bufferView" : 60,
            "componentType" : 5126,
            "count" : 53,
            "type" : "VEC3"
        },
        {
            "bufferView" : 61,
            "componentType" : 5126,
            "count" : 53,
            "type" : "VEC3"
        },
        {
            "bufferView" : 62,
            "componentType" : 5126,
            "count" : 53,
            "type" : "VEC4"
        },
        {
            "bufferView" : 63,
            "componentType" : 5126,
            "count" : 53,
            "type" : "VEC3"
        },
        {
            "bufferView" : 64,
            "componentType" : 5126,
            "count" : 53,
            "type" : "VEC3"
        },
        {
            "bufferView" : 65,
            "componentType" : 5126,
            "count" : 53,
            "type" : "VEC4"
        },
        {
            "bufferView" : 66,
            "componentType" : 5126,
            "count" : 53,
            "type" : "VEC3"
        },
        {
            "bufferView" : 67,
            "componentType" : 5126,
            "count" : 53,
            "type" : "VEC3"
        },
        {
            "bufferView" : 68,
            "componentType" : 5126,
            "count" : 53,
            "type" : "VEC4"
        },
        {
            "bufferView" : 69,
            "componentType" : 5126,
            "count" : 53,
            "type" : "VEC3"
        },
        {
            "bufferView" : 70,
            "componentType" : 5126,
            "count" : 53,
            "type" : "VEC3"
        },
        {
            "bufferView" : 71,
            "componentType" : 5126,
            "count" : 53,
            "type" : "VEC4"
        },
        {
            "bufferView" : 72,
            "componentType" : 5126,
            "count" : 53,
            "type" : "VEC3"
        },
        {
            "bufferView" : 73,
            "componentType" : 5126,
            "count" : 53,
            "type" : "VEC3"
        },
        {
            "bufferView" : 74,
            "componentType" : 5126,
            "count" : 53,
            "type" : "VEC4"
        },
        {
            "bufferView" : 75,
            "componentType" : 5126,
            "count" : 53,
            "type" : "VEC3"
        },
        {
            "bufferView" : 76,
            "componentType" : 5126,
            "count" : 53,
            "type" : "VEC3"
        },
        {
            "bufferView" : 77,
            "componentType" : 5126,
            "count" : 53,
            "type" : "VEC4"
        },
        {
            "bufferView" : 78,
            "componentType" : 5126,
            "count" : 53,
            "type" : "VEC3"
        },
        {
            "bufferView" : 79,
            "componentType" : 5126,
            "count" : 53,
            "type" : "VEC3"
        },
        {
            "bufferView" : 80,
            "componentType" : 5126,
            "count" : 53,
            "type" : "VEC4"
        },
        {
            "bufferView" : 81,
            "componentType" : 5126,
            "count" : 53,
            "type" : "VEC3"
        },
        {
            "bufferView" : 82,
            "componentType" : 5126,
            "count" : 53,
            "type" : "VEC3"
        },
        {
            "bufferView" : 83,
            "componentType" : 5126,
            "count" : 53,
            "type" : "VEC4"
        },
        {
            "bufferView" : 84,
            "componentType" : 5126,
            "count" : 53,
            "type" : "VEC3"
        },
        {
            "bufferView" : 85,
            "componentType" : 5126,
            "count" : 53,
            "type" : "VEC3"
        },
        {
            "bufferView" : 86,
            "componentType" : 5126,
            "count" : 53,
            "type" : "VEC4"
        },
        {
            "bufferView" : 87,
            "componentType" : 5126,
            "count" : 53,
            "type" : "VEC3"
        },
        {
            "bufferView" : 88,
            "componentType" : 5126,
            "count" : 53,
            "type" : "VEC3"
        },
        {
            "bufferView" : 89,
            "componentType" : 5126,
            "count" : 53,
            "type" : "VEC4"
        },
        {
            "bufferView" : 90,
            "componentType" : 5126,
            "count" : 53,
            "type" : "VEC3"
        },
        {
            "bufferView" : 91,
            "componentType" : 5126,
            "count" : 53,
            "type" : "VEC3"
        },
        {
            "bufferView" : 92,
            "componentType" : 5126,
            "count" : 53,
            "type" : "VEC4"
        },
        {
            "bufferView" : 93,
            "componentType" : 5126,
            "count" : 53,
            "type" : "VEC3"
        },
        {
            "bufferView" : 94,
            "componentType" : 5126,
            "count" : 53,
            "type" : "VEC3"
        },
        {
            "bufferView" : 95,
            "componentType" : 5126,
            "count" : 53,
            "type" : "VEC4"
        },
        {
            "bufferView" : 96,
            "componentType" : 5126,
            "count" : 53,
            "type" : "VEC3"
        },
        {
            "bufferView" : 97,
            "componentType" : 5126,
            "count" : 53,
            "type" : "VEC3"
        },
        {
            "bufferView" : 98,
            "componentType" : 5126,
            "count" : 53,
            "type" : "VEC4"
        },
        {
            "bufferView" : 99,
            "componentType" : 5126,
            "count" : 53,
            "type" : "VEC3"
        },
        {
            "bufferView" : 100,
            "componentType" : 5126,
            "count" : 53,
            "type" : "VEC3"
        },
        {
            "bufferView" : 101,
            "componentType" : 5126,
            "count" : 53,
            "type" : "VEC4"
        },
        {
            "bufferView" : 102,
            "componentType" : 5126,
            "count" : 53,
            "type" : "VEC3"
        },
        {
            "bufferView" : 103,
            "componentType" : 5126,
            "count" : 53,
            "type" : "VEC3"
        },
        {
            "bufferView" : 104,
            "componentType" : 5126,
            "count" : 53,
            "type" : "VEC4"
        },
        {
            "bufferView" : 105,
            "componentType" : 5126,
            "count" : 53,
            "type" : "VEC3"
        },
        {
            "bufferView" : 106,
            "componentType" : 5126,
            "count" : 53,
            "type" : "VEC3"
        },
        {
            "bufferView" : 107,
            "componentType" : 5126,
            "count" : 53,
            "type" : "VEC4"
        },
        {
            "bufferView" : 108,
            "componentType" : 5126,
            "count" : 53,
            "type" : "VEC3"
        },
        {
            "bufferView" : 109,
            "componentType" : 5126,
            "count" : 53,
            "type" : "VEC3"
        },
        {
            "bufferView" : 110,
            "componentType" : 5126,
            "count" : 53,
            "type" : "VEC4"
        },
        {
            "bufferView" : 111,
            "componentType" : 5126,
            "count" : 53,
            "type" : "VEC3"
        },
        {
            "bufferView" : 112,
            "componentType" : 5126,
            "count" : 53,
            "type" : "VEC3"
        },
        {
            "bufferView" : 113,
            "componentType" : 5126,
            "count" : 53,
            "type" : "VEC4"
        },
        {
            "bufferView" : 114,
            "componentType" : 5126,
            "count" : 53,
            "type" : "VEC3"
        },
        {
            "bufferView" : 115,
            "componentType" : 5126,
            "count" : 53,
            "type" : "VEC3"
        },
        {
            "bufferView" : 116,
            "componentType" : 5126,
            "count" : 53,
            "type" : "VEC4"
        },
        {
            "bufferView" : 117,
            "componentType" : 5126,
            "count" : 53,
            "type" : "VEC3"
        },
        {
            "bufferView" : 118,
            "componentType" : 5126,
            "count" : 53,
            "type" : "VEC3"
        },
        {
            "bufferView" : 119,
            "componentType" : 5126,
            "count" : 53,
            "type" : "VEC4"
        },
        {
            "bufferView" : 120,
            "componentType" : 5126,
            "count" : 53,
            "type" : "VEC3"
        },
        {
            "bufferView" : 121,
            "componentType" : 5126,
            "count" : 53,
            "type" : "VEC3"
        },
        {
            "bufferView" : 122,
            "componentType" : 5126,
            "count" : 53,
            "type" : "VEC4"
        },
        {
            "bufferView" : 123,
            "componentType" : 5126,
            "count" : 53,
            "type" : "VEC3"
        },
        {
            "bufferView" : 124,
            "componentType" : 5126,
            "count" : 53,
            "type" : "VEC3"
        },
        {
            "bufferView" : 125,
            "componentType" : 5126,
            "count" : 53,
            "type" : "VEC4"
        },
        {
            "bufferView" : 126,
            "componentType" : 5126,
            "count" : 53,
            "type" : "VEC3"
        }
    ],
    "bufferViews" : [
        {
            "buffer" : 0,
            "byteLength" : 552,
            "byteOffset" : 0
        },
        {
            "buffer" : 0,
            "byteLength" : 552,
            "byteOffset" : 552
        },
        {
            "buffer" : 0,
            "byteLength" : 368,
            "byteOffset" : 1104
        },
        {
            "buffer" : 0,
            "byteLength" : 368,
            "byteOffset" : 1472
        },
        {
            "buffer" : 0,
            "byteLength" : 184,
            "byteOffset" : 1840
        },
        {
            "buffer" : 0,
            "byteLength" : 736,
            "byteOffset" : 2024
        },
        {
            "buffer" : 0,
            "byteLength" : 384,
            "byteOffset" : 2760
        },
        {
            "buffer" : 0,
            "byteLength" : 2240,
            "byteOffset" : 3144
        },
        {
            "buffer" : 0,
            "byteLength" : 11268,
            "byteOffset" : 5384
        },
        {
            "buffer" : 0,
            "byteLength" : 11268,
            "byteOffset" : 16652
        },
        {
            "buffer" : 0,
            "byteLength" : 7512,
            "byteOffset" : 27920
        },
        {
            "buffer" : 0,
            "byteLength" : 7512,
            "byteOffset" : 35432
        },
        {
            "buffer" : 0,
            "byteLength" : 3756,
            "byteOffset" : 42944
        },
        {
            "buffer" : 0,
            "byteLength" : 15024,
            "byteOffset" : 46700
        },
        {
            "buffer" : 0,
            "byteLength" : 8724,
            "byteOffset" : 61724
        },
        {
            "buffer" : 0,
            "byteLength" : 212,
            "byteOffset" : 70448
        },
        {
            "buffer" : 0,
            "byteLength" : 636,
            "byteOffset" : 70660
        },
        {
            "buffer" : 0,
            "byteLength" : 848,
            "byteOffset" : 71296
        },
        {
            "buffer" : 0,
            "byteLength" : 636,
            "byteOffset" : 72144
        },
        {
            "buffer" : 0,
            "byteLength" : 636,
            "byteOffset" : 72780
        },
        {
            "buffer" : 0,
            "byteLength" : 848,
            "byteOffset" : 73416
        },
        {
            "buffer" : 0,
            "byteLength" : 636,
            "byteOffset" : 74264
        },
        {
            "buffer" : 0,
            "byteLength" : 636,
            "byteOffset" : 74900
        },
        {
            "buffer" : 0,
            "byteLength" : 848,
            "byteOffset" : 75536
        },
        {
            "buffer" : 0,
            "byteLength" : 636,
            "byteOffset" : 76384
        },
        {
            "buffer" : 0,
            "byteLength" : 636,
            "byteOffset" : 77020
        },
        {
            "buffer" : 0,
            "byteLength" : 848,
            "byteOffset" : 77656
        },
        {
            "buffer" : 0,
            "byteLength" : 636,
            "byteOffset" : 78504
        },
        {
            "buffer" : 0,
            "byteLength" : 636,
            "byteOffset" : 79140
        },
        {
            "buffer" : 0,
            "byteLength" : 848,
            "byteOffset" : 79776
        },
        {
            "buffer" : 0,
            "byteLength" : 636,
            "byteOffset" : 80624
        },
        {
            "buffer" : 0,
            "byteLength" : 636,
            "byteOffset" : 81260
        },
        {
            "buffer" : 0,
            "byteLength" : 848,
            "byteOffset" : 81896
        },
        {
            "buffer" : 0,
            "byteLength" : 636,
            "byteOffset" : 82744
        },
        {
            "buffer" : 0,
            "byteLength" : 636,
            "byteOffset" : 83380
        },
        {
            "buffer" : 0,
            "byteLength" : 848,
            "byteOffset" : 84016
        },
        {
            "buffer" : 0,
            "byteLength" : 636,
            "byteOffset" : 84864
        },
        {
            "buffer" : 0,
            "byteLength" : 636,
            "byteOffset" : 85500
        },
        {
            "buffer" : 0,
            "byteLength" : 848,
            "byteOffset" : 86136
        },
        {
            "buffer" : 0,
            "byteLength" : 636,
            "byteOffset" : 86984
        },
        {
            "buffer" : 0,
            "byteLength" : 636,
            "byteOffset" : 87620
        },
        {
            "buffer" : 0,
            "byteLength" : 848,
            "byteOffset" : 88256
        },
        {
            "buffer" : 0,
            "byteLength" : 636,
            "byteOffset" : 89104
        },
        {
            "buffer" : 0,
            "byteLength" : 636,
            "byteOffset" : 89740
        },
        {
            "buffer" : 0,
            "byteLength" : 848,
            "byteOffset" : 90376
        },
        {
            "buffer" : 0,
            "byteLength" : 636,
            "byteOffset" : 91224
        },
        {
            "buffer" : 0,
            "byteLength" : 636,
            "byteOffset" : 91860
        },
        {
            "buffer" : 0,
            "byteLength" : 848,
            "byteOffset" : 92496
        },
        {
            "buffer" : 0,
            "byteLength" : 636,
            "byteOffset" : 93344
        },
        {
            "buffer" : 0,
            "byteLength" : 636,
            "byteOffset" : 93980
        },
        {
            "buffer" : 0,
            "byteLength" : 848,
            "byteOffset" : 94616
        },
        {
            "buffer" : 0,
            "byteLength" : 636,
            "byteOffset" : 95464
        },
        {
            "buffer" : 0,
            "byteLength" : 636,
            "byteOffset" : 96100
        },
        {
            "buffer" : 0,
            "byteLength" : 848,
            "byteOffset" : 96736
        },
        {
            "buffer" : 0,
            "byteLength" : 636,
            "byteOffset" : 97584
        },
        {
            "buffer" : 0,
            "byteLength" : 636,
            "byteOffset" : 98220
        },
        {
            "buffer" : 0,
            "byteLength" : 848,
            "byteOffset" : 98856
        },
        {
            "buffer" : 0,
            "byteLength" : 636,
            "byteOffset" : 99704
        },
        {
            "buffer" : 0,
            "byteLength" : 636,
            "byteOffset" : 100340
        },
        {
            "buffer" : 0,
            "byteLength" : 848,
            "byteOffset" : 100976
        },
        {
            "buffer" : 0,
            "byteLength" : 636,
            "byteOffset" : 101824
        },
        {
            "buffer" : 0,
            "byteLength" : 636,
            "byteOffset" : 102460
        },
        {
            "buffer" : 0,
            "byteLength" : 848,
            "byteOffset" : 103096
        },
        {
            "buffer" : 0,
            "byteLength" : 636,
            "byteOffset" : 103944
        },
        {
            "buffer" : 0,
            "byteLength" : 636,
            "byteOffset" : 104580
        },
        {
            "buffer" : 0,
            "byteLength" : 848,
            "byteOffset" : 105216
        },
        {
            "buffer" : 0,
            "byteLength" : 636,
            "byteOffset" : 106064
        },
        {
            "buffer" : 0,
            "byteLength" : 636,
            "byteOffset" : 106700
        },
        {
            "buffer" : 0,
            "byteLength" : 848,
            "byteOffset" : 107336
        },
        {
            "buffer" : 0,
            "byteLength" : 636,
            "byteOffset" : 108184
        },
        {
            "buffer" : 0,
            "byteLength" : 636,
            "byteOffset" : 108820
        },
        {
            "buffer" : 0,
            "byteLength" : 848,
            "byteOffset" : 109456
        },
        {
            "buffer" : 0,
            "byteLength" : 636,
            "byteOffset" : 110304
        },
        {
            "buffer" : 0,
            "byteLength" : 636,
            "byteOffset" : 110940
        },
        {
            "buffer" : 0,
            "byteLength" : 848,
            "byteOffset" : 111576
        },
        {
            "buffer" : 0,
            "byteLength" : 636,
            "byteOffset" : 112424
        },
        {
            "buffer" : 0,
            "byteLength" : 636,
            "byteOffset" : 113060
        },
        {
            "buffer" : 0,
            "byteLength" : 848,
            "byteOffset" : 113696
        },
        {
            "buffer" : 0,
            "byteLength" : 636,
            "byteOffset" : 114544
        },
        {
            "buffer" : 0,
            "byteLength" : 636,
            "byteOffset" : 115180
        },
        {
            "buffer" : 0,
            "byteLength" : 848,
            "byteOffset" : 115816
        },
        {
            "buffer" : 0,
            "byteLength" : 636,
            "byteOffset" : 116664
        },
        {
            "buffer" : 0,
            "byteLength" : 636,
            "byteOffset" : 117300
        },
        {
            "buffer" : 0,
            "byteLength" : 848,
            "byteOffset" : 117936
        },
        {
            "buffer" : 0,
            "byteLength" : 636,
            "byteOffset" : 118784
        },
        {
            "buffer" : 0,
            "byteLength" : 636,
            "byteOffset" : 119420
        },
        {
            "buffer" : 0,
            "byteLength" : 848,
            "byteOffset" : 120056
        },
        {
            "buffer" : 0,
            "byteLength" : 636,
            "byteOffset" : 120904
        },
        {
            "buffer" : 0,
            "byteLength" : 636,
            "byteOffset" : 121540
        },
        {
            "buffer" : 0,
            "byteLength" : 848,
            "byteOffset" : 122176
        },
        {
            "buffer" : 0,
            "byteLength" : 636,
            "byteOffset" : 123024
        },
        {
            "buffer" : 0,
            "byteLength" : 636,
            "byteOffset" : 123660
        },
        {
            "buffer" : 0,
            "byteLength" : 848,
            "byteOffset" : 124296
        },
        {
            "buffer" : 0,
            "byteLength" : 636,
            "byteOffset" : 125144
        },
        {
            "buffer" : 0,
            "byteLength" : 636,
            "byteOffset" : 125780
        },
        {
            "buffer" : 0,
            "byteLength" : 848,
            "byteOffset" : 126416
        },
        {
            "buffer" : 0,
            "byteLength" : 636,
            "byteOffset" : 127264
        },
        {
            "buffer" : 0,
            "byteLength" : 636,
            "byteOffset" : 127900
        },
        {
            "buffer" : 0,
            "byteLength" : 848,
            "byteOffset" : 128536
        },
        {
            "buffer" : 0,
            "byteLength" : 636,
            "byteOffset" : 129384
        },
        {
            "buffer" : 0,
            "byteLength" : 636,
            "byteOffset" : 130020
        },
        {
            "buffer" : 0,
            "byteLength" : 848,
            "byteOffset" : 130656
        },
        {
            "buffer" : 0,
            "byteLength" : 636,
            "byteOffset" : 131504
        },
        {
            "buffer" : 0,
            "byteLength" : 636,
            "byteOffset" : 132140
        },
        {
            "buffer" : 0,
            "byteLength" : 848,
            "byteOffset" : 132776
        },
        {
            "buffer" : 0,
            "byteLength" : 636,
            "byteOffset" : 133624
        },
        {
            "buffer" : 0,
            "byteLength" : 636,
            "byteOffset" : 134260
        },
        {
            "buffer" : 0,
            "byteLength" : 848,
            "byteOffset" : 134896
        },
        {
            "buffer" : 0,
            "byteLength" : 636,
            "byteOffset" : 135744
        },
        {
            "buffer" : 0,
            "byteLength" : 636,
            "byteOffset" : 136380
        },
        {
            "buffer" : 0,
            "byteLength" : 848,
            "byteOffset" : 137016
        },
        {
            "buffer" : 0,
            "byteLength" : 636,
            "byteOffset" : 137864
        },
        {
            "buffer" : 0,
            "byteLength" : 636,
            "byteOffset" : 138500
        },
        {
            "buffer" : 0,
            "byteLength" : 848,
            "byteOffset" : 139136
        },
        {
            "buffer" : 0,
            "byteLength" : 636,
            "byteOffset" : 139984
        },
        {
            "buffer" : 0,
            "byteLength" : 636,
            "byteOffset" : 140620
        },
        {
            "buffer" : 0,
            "byteLength" : 848,
            "byteOffset" : 141256
        },
        {
            "buffer" : 0,
            "byteLength" : 636,
            "byteOffset" : 142104
        },
        {
            "buffer" : 0,
            "byteLength" : 636,
            "byteOffset" : 142740
        },
        {
            "buffer" : 0,
            "byteLength" : 848,
            "byteOffset" : 143376
        },
        {
            "buffer" : 0,
            "byteLength" : 636,
            "byteOffset" : 144224
        },
        {
            "buffer" : 0,
            "byteLength" : 636,
            "byteOffset" : 144860
        },
        {
            "buffer" : 0,
            "byteLength" : 848,
            "byteOffset" : 145496
        },
        {
            "buffer" : 0,
            "byteLength" : 636,
            "byteOffset" : 146344
        },
        {
            "buffer" : 0,
            "byteLength" : 636,
            "byteOffset" : 146980
        },
        {
            "buffer" : 0,
            "byteLength" : 848,
            "byteOffset" : 147616
        },
        {
            "buffer" : 0,
            "byteLength" : 636,
            "byteOffset" : 148464
        }
    ],
    "buffers" : [
        {
            "byteLength" : 149100,
            "uri" : "walk.bin"
        }
    ]
}
